<?xml version="1.0" encoding="UTF-8" ?><gpx version="1.0" creator="GPSLogger 97 - http://gpslogger.mendhak.com/" xmlns:xsi="http://www.w3.org/2001/XMLSchema-instance" xmlns="http://www.topografix.com/GPX/1/0" xsi:schemaLocation="http://www.topografix.com/GPX/1/0 http://www.topografix.com/GPX/1/0/gpx.xsd"><time>2018-10-27T00:43:33.000Z</time><trk><trkseg><trkpt lat="34.17644834" lon="132.22125897"><ele>81.0</ele><time>2018-10-27T00:43:33.000Z</time><src>gps</src><sat>9</sat></trkpt>
<trkpt lat="34.17510858" lon="132.22131015"><ele>73.0</ele><time>2018-10-27T00:44:39.000Z</time><speed>0.0</speed><geoidheight>30.0</geoidheight><src>gps</src><sat>5</sat><hdop>11.9</hdop><vdop>1.0</vdop><pdop>12.0</pdop></trkpt>
<trkpt lat="34.17438692" lon="132.22143063"><ele>55.0</ele><time>2018-10-27T00:45:40.000Z</time><speed>0.0</speed><geoidheight>30.0</geoidheight><src>gps</src><sat>11</sat><hdop>1.3</hdop><vdop>0.9</vdop><pdop>1.6</pdop></trkpt>
<trkpt lat="34.17428422" lon="132.22146962"><ele>39.0</ele><time>2018-10-27T00:46:40.000Z</time><speed>0.0</speed><geoidheight>30.0</geoidheight><src>gps</src><sat>9</sat><hdop>0.9</hdop><vdop>0.7</vdop><pdop>1.1</pdop></trkpt>
<trkpt lat="34.17433424" lon="132.22146161"><ele>41.0</ele><time>2018-10-27T00:47:41.000Z</time><speed>0.0</speed><geoidheight>30.0</geoidheight><src>gps</src><sat>9</sat><hdop>1.2</hdop><vdop>0.8</vdop><pdop>1.5</pdop></trkpt>
<trkpt lat="34.17427124" lon="132.2214364"><ele>42.0</ele><time>2018-10-27T00:48:41.000Z</time><speed>0.0</speed><geoidheight>30.0</geoidheight><src>gps</src><sat>10</sat><hdop>1.2</hdop><vdop>0.8</vdop><pdop>1.5</pdop></trkpt>
<trkpt lat="34.17432708" lon="132.22145449"><ele>42.0</ele><time>2018-10-27T00:49:42.000Z</time><course>219.7</course><speed>0.26925826</speed><geoidheight>30.0</geoidheight><src>gps</src><sat>10</sat><hdop>0.8</hdop><vdop>0.7</vdop><pdop>1.1</pdop></trkpt>
<trkpt lat="34.17429079" lon="132.22146918"><ele>33.0</ele><time>2018-10-27T00:50:43.000Z</time><course>126.1</course><speed>0.48507732</speed><geoidheight>30.0</geoidheight><src>gps</src><sat>11</sat><hdop>1.2</hdop><vdop>0.8</vdop><pdop>1.5</pdop></trkpt>
<trkpt lat="34.17432824" lon="132.22139508"><ele>39.0</ele><time>2018-10-27T00:51:44.000Z</time><speed>0.0</speed><geoidheight>30.0</geoidheight><src>gps</src><sat>10</sat><hdop>0.9</hdop><vdop>0.7</vdop><pdop>1.2</pdop></trkpt>
<trkpt lat="34.17445827" lon="132.22142885"><ele>31.0</ele><time>2018-10-27T00:52:45.000Z</time><speed>0.0</speed><geoidheight>30.0</geoidheight><src>gps</src><sat>10</sat><hdop>0.8</hdop><vdop>0.7</vdop><pdop>1.1</pdop></trkpt>
<trkpt lat="34.17584171" lon="132.22367611"><ele>37.0</ele><time>2018-10-27T00:53:46.000Z</time><course>57.8</course><speed>6.140033</speed><geoidheight>30.0</geoidheight><src>gps</src><sat>9</sat><hdop>0.8</hdop><vdop>0.7</vdop><pdop>1.1</pdop></trkpt>
<trkpt lat="34.17641024" lon="132.22603375"><ele>41.0</ele><time>2018-10-27T00:54:46.000Z</time><speed>0.0</speed><geoidheight>30.0</geoidheight><src>gps</src><sat>9</sat><hdop>0.8</hdop><vdop>0.7</vdop><pdop>1.1</pdop></trkpt>
<trkpt lat="34.17716554" lon="132.22910661"><ele>39.0</ele><time>2018-10-27T00:55:47.000Z</time><course>63.7</course><speed>8.171377</speed><geoidheight>30.0</geoidheight><src>gps</src><sat>9</sat><hdop>0.8</hdop><vdop>0.7</vdop><pdop>1.1</pdop></trkpt>
<trkpt lat="34.18077097" lon="132.23075167"><ele>35.0</ele><time>2018-10-27T00:56:48.000Z</time><course>3.2</course><speed>4.1725287</speed><geoidheight>30.0</geoidheight><src>gps</src><sat>10</sat><hdop>0.8</hdop><vdop>0.7</vdop><pdop>1.1</pdop></trkpt>
<trkpt lat="34.18406522" lon="132.23104692"><ele>53.0</ele><time>2018-10-27T00:57:49.000Z</time><course>3.4</course><speed>5.9985414</speed><geoidheight>30.0</geoidheight><src>gps</src><sat>11</sat><hdop>0.8</hdop><vdop>0.7</vdop><pdop>1.1</pdop></trkpt>
<trkpt lat="34.1873931" lon="132.23011624"><ele>50.0</ele><time>2018-10-27T00:58:49.000Z</time><course>346.9</course><speed>6.3015556</speed><geoidheight>30.0</geoidheight><src>gps</src><sat>9</sat><hdop>0.9</hdop><vdop>0.8</vdop><pdop>1.2</pdop></trkpt>
<trkpt lat="34.19078923" lon="132.22979491"><ele>43.0</ele><time>2018-10-27T00:59:50.000Z</time><course>21.4</course><speed>5.996082</speed><geoidheight>30.0</geoidheight><src>gps</src><sat>10</sat><hdop>0.9</hdop><vdop>0.7</vdop><pdop>1.2</pdop></trkpt>
<trkpt lat="34.19422785" lon="132.23094018"><ele>50.0</ele><time>2018-10-27T01:00:51.000Z</time><course>18.9</course><speed>7.1271873</speed><geoidheight>30.0</geoidheight><src>gps</src><sat>9</sat><hdop>0.9</hdop><vdop>0.8</vdop><pdop>1.2</pdop></trkpt>
<trkpt lat="34.1976475" lon="132.23190904"><ele>39.0</ele><time>2018-10-27T01:01:52.000Z</time><course>13.5</course><speed>7.0743265</speed><geoidheight>30.0</geoidheight><src>gps</src><sat>9</sat><hdop>0.9</hdop><vdop>0.8</vdop><pdop>1.2</pdop></trkpt>
<trkpt lat="34.2011779" lon="132.23151655"><ele>44.0</ele><time>2018-10-27T01:02:53.000Z</time><course>340.6</course><speed>6.190008</speed><geoidheight>30.0</geoidheight><src>gps</src><sat>9</sat><hdop>0.8</hdop><vdop>0.7</vdop><pdop>1.1</pdop></trkpt>
<trkpt lat="34.2042161" lon="132.22981086"><ele>40.0</ele><time>2018-10-27T01:03:54.000Z</time><course>334.0</course><speed>6.023321</speed><geoidheight>30.0</geoidheight><src>gps</src><sat>9</sat><hdop>0.8</hdop><vdop>0.7</vdop><pdop>1.1</pdop></trkpt>
<trkpt lat="34.2061983" lon="132.2285638"><ele>38.0</ele><time>2018-10-27T01:04:55.000Z</time><course>334.3</course><speed>5.5529184</speed><geoidheight>30.0</geoidheight><src>gps</src><sat>10</sat><hdop>0.8</hdop><vdop>0.7</vdop><pdop>1.1</pdop></trkpt>
<trkpt lat="34.20875926" lon="132.22768332"><ele>51.0</ele><time>2018-10-27T01:05:56.000Z</time><course>347.6</course><speed>4.6005325</speed><geoidheight>30.0</geoidheight><src>gps</src><sat>10</sat><hdop>0.8</hdop><vdop>0.7</vdop><pdop>1.1</pdop></trkpt>
<trkpt lat="34.21208745" lon="132.22669232"><ele>43.0</ele><time>2018-10-27T01:06:57.000Z</time><course>344.9</course><speed>6.940065</speed><geoidheight>30.0</geoidheight><src>gps</src><sat>10</sat><hdop>0.8</hdop><vdop>0.7</vdop><pdop>1.1</pdop></trkpt>
<trkpt lat="34.21419647" lon="132.22617975"><ele>48.0</ele><time>2018-10-27T01:07:58.000Z</time><course>341.2</course><speed>5.2</speed><geoidheight>30.0</geoidheight><src>gps</src><sat>9</sat><hdop>0.8</hdop><vdop>0.7</vdop><pdop>1.1</pdop></trkpt>
<trkpt lat="34.2178049" lon="132.22525026"><ele>46.0</ele><time>2018-10-27T01:08:59.000Z</time><course>349.6</course><speed>5.44</speed><geoidheight>30.0</geoidheight><src>gps</src><sat>9</sat><hdop>0.8</hdop><vdop>0.7</vdop><pdop>1.1</pdop></trkpt>
<trkpt lat="34.22121117" lon="132.22426527"><ele>50.0</ele><time>2018-10-27T01:09:59.000Z</time><course>349.8</course><speed>7.063745</speed><geoidheight>30.0</geoidheight><src>gps</src><sat>8</sat><hdop>0.8</hdop><vdop>0.8</vdop><pdop>1.2</pdop></trkpt>
<trkpt lat="34.22216504" lon="132.22400478"><ele>49.0</ele><time>2018-10-27T01:11:00.000Z</time><course>332.1</course><speed>4.7224784</speed><geoidheight>30.0</geoidheight><src>gps</src><sat>9</sat><hdop>0.8</hdop><vdop>0.7</vdop><pdop>1.1</pdop></trkpt>
<trkpt lat="34.22471912" lon="132.2218836"><ele>38.0</ele><time>2018-10-27T01:12:00.000Z</time><course>322.3</course><speed>5.990008</speed><geoidheight>30.0</geoidheight><src>gps</src><sat>10</sat><hdop>0.8</hdop><vdop>0.7</vdop><pdop>1.1</pdop></trkpt>
<trkpt lat="34.22805506" lon="132.22070466"><ele>41.0</ele><time>2018-10-27T01:13:01.000Z</time><course>345.5</course><speed>6.410031</speed><geoidheight>30.0</geoidheight><src>gps</src><sat>10</sat><hdop>0.8</hdop><vdop>0.8</vdop><pdop>1.2</pdop></trkpt>
<trkpt lat="34.23154095" lon="132.21980943"><ele>41.0</ele><time>2018-10-27T01:14:02.000Z</time><course>347.7</course><speed>4.86695</speed><geoidheight>30.0</geoidheight><src>gps</src><sat>9</sat><hdop>0.8</hdop><vdop>0.8</vdop><pdop>1.2</pdop></trkpt>
<trkpt lat="34.23472767" lon="132.21945374"><ele>45.0</ele><time>2018-10-27T01:15:03.000Z</time><course>358.6</course><speed>5.817431</speed><geoidheight>30.0</geoidheight><src>gps</src><sat>10</sat><hdop>0.8</hdop><vdop>0.8</vdop><pdop>1.2</pdop></trkpt>
<trkpt lat="34.23804209" lon="132.22038789"><ele>43.0</ele><time>2018-10-27T01:16:04.000Z</time><course>18.2</course><speed>7.1243873</speed><geoidheight>30.0</geoidheight><src>gps</src><sat>9</sat><hdop>0.8</hdop><vdop>0.8</vdop><pdop>1.2</pdop></trkpt>
<trkpt lat="34.2414482" lon="132.22159538"><ele>43.0</ele><time>2018-10-27T01:17:05.000Z</time><course>356.9</course><speed>6.8418713</speed><geoidheight>30.0</geoidheight><src>gps</src><sat>10</sat><hdop>0.8</hdop><vdop>0.8</vdop><pdop>1.2</pdop></trkpt>
<trkpt lat="34.24443227" lon="132.2216312"><ele>43.0</ele><time>2018-10-27T01:18:06.000Z</time><course>19.3</course><speed>5.7100086</speed><geoidheight>30.0</geoidheight><src>gps</src><sat>9</sat><hdop>0.8</hdop><vdop>0.8</vdop><pdop>1.2</pdop></trkpt>
<trkpt lat="34.24735335" lon="132.22389288"><ele>47.0</ele><time>2018-10-27T01:19:07.000Z</time><course>27.7</course><speed>5.250467</speed><geoidheight>30.0</geoidheight><src>gps</src><sat>9</sat><hdop>0.8</hdop><vdop>0.8</vdop><pdop>1.2</pdop></trkpt>
<trkpt lat="34.2504516" lon="132.22624387"><ele>33.0</ele><time>2018-10-27T01:20:08.000Z</time><course>38.4</course><speed>6.794976</speed><geoidheight>30.0</geoidheight><src>gps</src><sat>9</sat><hdop>0.8</hdop><vdop>0.8</vdop><pdop>1.1</pdop></trkpt>
<trkpt lat="34.25334485" lon="132.22827908"><ele>41.0</ele><time>2018-10-27T01:21:09.000Z</time><course>28.7</course><speed>7.7816453</speed><geoidheight>30.0</geoidheight><src>gps</src><sat>8</sat><hdop>0.8</hdop><vdop>0.8</vdop><pdop>1.1</pdop></trkpt>
<trkpt lat="34.25631068" lon="132.2310124"><ele>39.0</ele><time>2018-10-27T01:22:10.000Z</time><course>44.7</course><speed>6.7900295</speed><geoidheight>30.0</geoidheight><src>gps</src><sat>9</sat><hdop>0.8</hdop><vdop>0.8</vdop><pdop>1.1</pdop></trkpt>
<trkpt lat="34.25853071" lon="132.23380419"><ele>40.0</ele><time>2018-10-27T01:23:11.000Z</time><course>36.9</course><speed>6.1204004</speed><geoidheight>30.0</geoidheight><src>gps</src><sat>7</sat><hdop>0.9</hdop><vdop>0.8</vdop><pdop>1.2</pdop></trkpt>
<trkpt lat="34.260546" lon="132.23698244"><ele>43.0</ele><time>2018-10-27T01:24:12.000Z</time><course>40.0</course><speed>6.272137</speed><geoidheight>30.0</geoidheight><src>gps</src><sat>7</sat><hdop>0.9</hdop><vdop>0.8</vdop><pdop>1.2</pdop></trkpt>
<trkpt lat="34.26230431" lon="132.2406617"><ele>28.0</ele><time>2018-10-27T01:25:12.000Z</time><course>62.2</course><speed>6.2907944</speed><geoidheight>30.0</geoidheight><src>gps</src><sat>9</sat><hdop>0.8</hdop><vdop>0.8</vdop><pdop>1.1</pdop></trkpt>
<trkpt lat="34.26381028" lon="132.24471516"><ele>34.0</ele><time>2018-10-27T01:26:13.000Z</time><course>67.6</course><speed>6.6106124</speed><geoidheight>30.0</geoidheight><src>gps</src><sat>9</sat><hdop>0.8</hdop><vdop>0.8</vdop><pdop>1.1</pdop></trkpt>
<trkpt lat="34.26512162" lon="132.24886361"><ele>25.0</ele><time>2018-10-27T01:27:14.000Z</time><course>52.6</course><speed>4.96</speed><geoidheight>30.0</geoidheight><src>gps</src><sat>3</sat><hdop>0.9</hdop><vdop>0.8</vdop><pdop>1.3</pdop></trkpt>
<trkpt lat="34.26829215" lon="132.25159079"><ele>36.0</ele><time>2018-10-27T01:28:15.000Z</time><course>39.0</course><speed>7.3236127</speed><geoidheight>30.0</geoidheight><src>gps</src><sat>7</sat><hdop>0.8</hdop><vdop>0.8</vdop><pdop>1.1</pdop></trkpt>
<trkpt lat="34.2705333" lon="132.25515041"><ele>28.0</ele><time>2018-10-27T01:29:16.000Z</time><course>62.3</course><speed>7.013815</speed><geoidheight>30.0</geoidheight><src>gps</src><sat>8</sat><hdop>0.8</hdop><vdop>0.8</vdop><pdop>1.1</pdop></trkpt>
<trkpt lat="34.27313862" lon="132.25851229"><ele>34.0</ele><time>2018-10-27T01:30:17.000Z</time><course>44.2</course><speed>6.6266885</speed><geoidheight>30.0</geoidheight><src>gps</src><sat>8</sat><hdop>0.8</hdop><vdop>0.8</vdop><pdop>1.1</pdop></trkpt>
<trkpt lat="34.27589966" lon="132.2612676"><ele>42.0</ele><time>2018-10-27T01:31:18.000Z</time><course>23.0</course><speed>5.5100813</speed><geoidheight>30.0</geoidheight><src>gps</src><sat>9</sat><hdop>0.8</hdop><vdop>0.8</vdop><pdop>1.1</pdop></trkpt>
<trkpt lat="34.27909961" lon="132.26271671"><ele>38.0</ele><time>2018-10-27T01:32:19.000Z</time><course>31.6</course><speed>4.881854</speed><geoidheight>30.0</geoidheight><src>gps</src><sat>9</sat><hdop>0.8</hdop><vdop>0.8</vdop><pdop>1.1</pdop></trkpt>
<trkpt lat="34.2820341" lon="132.26550792"><ele>36.0</ele><time>2018-10-27T01:33:20.000Z</time><course>32.4</course><speed>6.5527554</speed><geoidheight>30.0</geoidheight><src>gps</src><sat>9</sat><hdop>0.8</hdop><vdop>0.8</vdop><pdop>1.1</pdop></trkpt>
<trkpt lat="34.28407154" lon="132.26754533"><ele>40.0</ele><time>2018-10-27T01:34:21.000Z</time><course>44.8</course><speed>4.0926523</speed><geoidheight>30.0</geoidheight><src>gps</src><sat>9</sat><hdop>0.8</hdop><vdop>0.8</vdop><pdop>1.1</pdop></trkpt>
<trkpt lat="34.28623829" lon="132.27031225"><ele>37.0</ele><time>2018-10-27T01:35:22.000Z</time><course>62.6</course><speed>6.950007</speed><geoidheight>30.0</geoidheight><src>gps</src><sat>9</sat><hdop>0.8</hdop><vdop>0.8</vdop><pdop>1.1</pdop></trkpt>
<trkpt lat="34.28713118" lon="132.27416159"><ele>36.0</ele><time>2018-10-27T01:36:23.000Z</time><course>79.9</course><speed>6.3701253</speed><geoidheight>30.0</geoidheight><src>gps</src><sat>9</sat><hdop>0.8</hdop><vdop>0.8</vdop><pdop>1.1</pdop></trkpt>
<trkpt lat="34.28769432" lon="132.27727722"><ele>29.0</ele><time>2018-10-27T01:37:24.000Z</time><course>69.1</course><speed>6.340789</speed><geoidheight>30.0</geoidheight><src>gps</src><sat>9</sat><hdop>0.7</hdop><vdop>0.8</vdop><pdop>1.1</pdop></trkpt>
<trkpt lat="34.28940172" lon="132.28090617"><ele>32.0</ele><time>2018-10-27T01:38:25.000Z</time><course>51.8</course><speed>7.120449</speed><geoidheight>30.0</geoidheight><src>gps</src><sat>9</sat><hdop>0.7</hdop><vdop>0.8</vdop><pdop>1.1</pdop></trkpt>
<trkpt lat="34.29210461" lon="132.28345228"><ele>37.0</ele><time>2018-10-27T01:39:26.000Z</time><course>35.0</course><speed>6.358058</speed><geoidheight>30.0</geoidheight><src>gps</src><sat>9</sat><hdop>0.7</hdop><vdop>0.8</vdop><pdop>1.1</pdop></trkpt>
<trkpt lat="34.29503495" lon="132.28595746"><ele>41.0</ele><time>2018-10-27T01:40:27.000Z</time><course>39.9</course><speed>6.490031</speed><geoidheight>30.0</geoidheight><src>gps</src><sat>9</sat><hdop>0.7</hdop><vdop>0.7</vdop><pdop>1.0</pdop></trkpt>
<trkpt lat="34.2980298" lon="132.28762011"><ele>39.0</ele><time>2018-10-27T01:41:28.000Z</time><course>34.4</course><speed>5.7226305</speed><geoidheight>30.0</geoidheight><src>gps</src><sat>8</sat><hdop>0.7</hdop><vdop>0.8</vdop><pdop>1.1</pdop></trkpt>
<trkpt lat="34.30065452" lon="132.28959795"><ele>45.0</ele><time>2018-10-27T01:42:29.000Z</time><course>23.6</course><speed>4.2029753</speed><geoidheight>30.0</geoidheight><src>gps</src><sat>7</sat><hdop>0.8</hdop><vdop>0.8</vdop><pdop>1.2</pdop></trkpt>
<trkpt lat="34.30351378" lon="132.29269377"><ele>32.0</ele><time>2018-10-27T01:43:30.000Z</time><course>48.1</course><speed>6.3198104</speed><geoidheight>30.0</geoidheight><src>gps</src><sat>9</sat><hdop>0.7</hdop><vdop>0.8</vdop><pdop>1.1</pdop></trkpt>
<trkpt lat="34.30499878" lon="132.29653555"><ele>36.0</ele><time>2018-10-27T01:44:31.000Z</time><course>60.8</course><speed>5.861442</speed><geoidheight>30.0</geoidheight><src>gps</src><sat>9</sat><hdop>0.7</hdop><vdop>0.8</vdop><pdop>1.1</pdop></trkpt>
<trkpt lat="34.30706939" lon="132.30001115"><ele>38.0</ele><time>2018-10-27T01:45:32.000Z</time><course>36.0</course><speed>7.710415</speed><geoidheight>30.0</geoidheight><src>gps</src><sat>9</sat><hdop>0.7</hdop><vdop>0.8</vdop><pdop>1.1</pdop></trkpt>
<trkpt lat="34.30992761" lon="132.30168724"><ele>37.0</ele><time>2018-10-27T01:46:33.000Z</time><course>25.3</course><speed>2.3561409</speed><geoidheight>30.0</geoidheight><src>gps</src><sat>11</sat><hdop>0.7</hdop><vdop>0.8</vdop><pdop>1.1</pdop></trkpt>
<trkpt lat="34.31093152" lon="132.30390273"><ele>41.0</ele><time>2018-10-27T01:47:34.000Z</time><course>37.6</course><speed>2.870418</speed><geoidheight>30.0</geoidheight><src>gps</src><sat>9</sat><hdop>0.7</hdop><vdop>0.8</vdop><pdop>1.1</pdop></trkpt>
<trkpt lat="34.31137953" lon="132.3047759"><ele>43.0</ele><time>2018-10-27T01:48:35.000Z</time><speed>0.0</speed><geoidheight>30.0</geoidheight><src>gps</src><sat>11</sat><hdop>0.7</hdop><vdop>0.8</vdop><pdop>1.1</pdop></trkpt>
<trkpt lat="34.31134389" lon="132.30468934"><ele>45.0</ele><time>2018-10-27T01:49:36.000Z</time><speed>0.0</speed><geoidheight>30.0</geoidheight><src>gps</src><sat>14</sat><hdop>0.7</hdop><vdop>0.7</vdop><pdop>1.0</pdop></trkpt>
<trkpt lat="34.31137078" lon="132.30472099"><ele>48.0</ele><time>2018-10-27T01:50:37.000Z</time><speed>0.0</speed><geoidheight>30.0</geoidheight><src>gps</src><sat>11</sat><hdop>0.7</hdop><vdop>0.7</vdop><pdop>0.9</pdop></trkpt>
<trkpt lat="34.31123371" lon="132.30493075"><ele>37.0</ele><time>2018-10-27T01:51:38.000Z</time><speed>0.0</speed><geoidheight>30.0</geoidheight><src>gps</src><sat>15</sat><hdop>0.8</hdop><vdop>0.7</vdop><pdop>1.1</pdop></trkpt>
<trkpt lat="34.31122371" lon="132.30496074"><ele>41.0</ele><time>2018-10-27T01:52:39.000Z</time><speed>0.0</speed><geoidheight>30.0</geoidheight><src>gps</src><sat>15</sat><hdop>0.7</hdop><vdop>0.7</vdop><pdop>1.0</pdop></trkpt>
<trkpt lat="34.3017813" lon="132.32011201"><ele>50.0</ele><time>2018-10-27T02:10:59.000Z</time><course>45.7</course><speed>2.7414777</speed><src>gps</src><sat>12</sat></trkpt>
<trkpt lat="34.30229534" lon="132.32087291"><ele>28.0</ele><time>2018-10-27T02:12:00.000Z</time><course>24.9</course><speed>0.7692204</speed><geoidheight>30.0</geoidheight><src>gps</src><sat>13</sat><hdop>0.7</hdop><vdop>0.7</vdop><pdop>1.0</pdop></trkpt>
<trkpt lat="34.30225695" lon="132.32101397"><ele>27.0</ele><time>2018-10-27T02:13:01.000Z</time><course>42.9</course><speed>1.2110327</speed><geoidheight>30.0</geoidheight><src>gps</src><sat>12</sat><hdop>0.7</hdop><vdop>0.7</vdop><pdop>1.0</pdop></trkpt>
<trkpt lat="34.30209287" lon="132.32170012"><ele>34.0</ele><time>2018-10-27T02:14:01.000Z</time><course>19.0</course><speed>0.63890535</speed><geoidheight>30.0</geoidheight><src>gps</src><sat>9</sat><hdop>0.7</hdop><vdop>0.7</vdop><pdop>1.0</pdop></trkpt>
<trkpt lat="34.30172789" lon="132.3219423"><ele>30.0</ele><time>2018-10-27T02:15:02.000Z</time><course>270.4</course><speed>1.3064839</speed><geoidheight>30.0</geoidheight><src>gps</src><sat>7</sat><hdop>0.7</hdop><vdop>0.7</vdop><pdop>1.1</pdop></trkpt>
<trkpt lat="34.30112265" lon="132.32172055"><ele>33.0</ele><time>2018-10-27T02:16:03.000Z</time><course>229.3</course><speed>2.2679064</speed><geoidheight>30.0</geoidheight><src>gps</src><sat>6</sat><hdop>0.8</hdop><vdop>0.7</vdop><pdop>1.1</pdop></trkpt>
<trkpt lat="34.29989427" lon="132.32144193"><ele>33.0</ele><time>2018-10-27T02:17:04.000Z</time><course>201.9</course><speed>1.1800424</speed><geoidheight>30.0</geoidheight><src>gps</src><sat>11</sat><hdop>0.8</hdop><vdop>0.8</vdop><pdop>1.1</pdop></trkpt>
<trkpt lat="34.29902196" lon="132.32118357"><ele>31.0</ele><time>2018-10-27T02:18:05.000Z</time><course>194.2</course><speed>1.0599056</speed><geoidheight>30.0</geoidheight><src>gps</src><sat>5</sat><hdop>0.9</hdop><vdop>0.8</vdop><pdop>1.2</pdop></trkpt>
<trkpt lat="34.29803508" lon="132.32048653"><ele>32.0</ele><time>2018-10-27T02:19:06.000Z</time><speed>0.0</speed><geoidheight>30.0</geoidheight><src>gps</src><sat>8</sat><hdop>0.9</hdop><vdop>0.8</vdop><pdop>1.2</pdop></trkpt>
<trkpt lat="34.297686" lon="132.32016132"><ele>29.0</ele><time>2018-10-27T02:20:07.000Z</time><course>193.4</course><speed>3.15192</speed><geoidheight>30.0</geoidheight><src>gps</src><sat>8</sat><hdop>0.8</hdop><vdop>0.8</vdop><pdop>1.1</pdop></trkpt>
<trkpt lat="34.29715679" lon="132.3191722"><ele>36.0</ele><time>2018-10-27T02:21:08.000Z</time><course>169.5</course><speed>0.47095647</speed><geoidheight>30.0</geoidheight><src>gps</src><sat>9</sat><hdop>0.7</hdop><vdop>0.7</vdop><pdop>1.0</pdop></trkpt>
<trkpt lat="34.29714783" lon="132.31919019"><ele>38.0</ele><time>2018-10-27T02:22:09.000Z</time><speed>0.0</speed><geoidheight>30.0</geoidheight><src>gps</src><sat>12</sat><hdop>0.7</hdop><vdop>0.7</vdop><pdop>1.0</pdop></trkpt>
<trkpt lat="34.29721619" lon="132.31920531"><ele>33.0</ele><time>2018-10-27T02:23:10.000Z</time><course>156.2</course><speed>0.93</speed><geoidheight>30.0</geoidheight><src>gps</src><sat>13</sat><hdop>0.7</hdop><vdop>0.7</vdop><pdop>1.0</pdop></trkpt>
<trkpt lat="34.29727976" lon="132.31928571"><ele>29.0</ele><time>2018-10-27T02:24:11.000Z</time><speed>0.0</speed><geoidheight>30.0</geoidheight><src>gps</src><sat>5</sat><hdop>0.7</hdop><vdop>0.7</vdop><pdop>1.0</pdop></trkpt>
<trkpt lat="34.29724122" lon="132.31921492"><ele>31.0</ele><time>2018-10-27T02:25:12.000Z</time><speed>0.0</speed><geoidheight>30.0</geoidheight><src>gps</src><sat>6</sat><hdop>0.9</hdop><vdop>0.7</vdop><pdop>1.1</pdop></trkpt>
<trkpt lat="34.29726833" lon="132.31926805"><ele>27.0</ele><time>2018-10-27T02:26:13.000Z</time><speed>0.0</speed><geoidheight>30.0</geoidheight><src>gps</src><sat>6</sat><hdop>1.1</hdop><vdop>0.8</vdop><pdop>1.4</pdop></trkpt>
<trkpt lat="34.29721935" lon="132.31926264"><ele>28.0</ele><time>2018-10-27T02:27:14.000Z</time><speed>0.0</speed><geoidheight>30.0</geoidheight><src>gps</src><sat>8</sat><hdop>0.8</hdop><vdop>0.8</vdop><pdop>1.1</pdop></trkpt>
<trkpt lat="34.29718074" lon="132.31926047"><ele>24.0</ele><time>2018-10-27T02:28:15.000Z</time><speed>0.0</speed><geoidheight>30.0</geoidheight><src>gps</src><sat>12</sat><hdop>0.8</hdop><vdop>0.8</vdop><pdop>1.1</pdop></trkpt>
<trkpt lat="34.29718811" lon="132.31925961"><ele>24.0</ele><time>2018-10-27T02:29:16.000Z</time><speed>0.0</speed><geoidheight>30.0</geoidheight><src>gps</src><sat>12</sat><hdop>0.8</hdop><vdop>0.8</vdop><pdop>1.1</pdop></trkpt>
<trkpt lat="34.29724719" lon="132.31917329"><ele>15.0</ele><time>2018-10-27T02:30:17.000Z</time><speed>0.0</speed><geoidheight>30.0</geoidheight><src>gps</src><sat>8</sat><hdop>0.8</hdop><vdop>0.8</vdop><pdop>1.1</pdop></trkpt>
<trkpt lat="34.29730866" lon="132.31935311"><ele>8.0</ele><time>2018-10-27T02:31:18.000Z</time><speed>0.0</speed><geoidheight>30.0</geoidheight><src>gps</src><sat>7</sat><hdop>0.7</hdop><vdop>0.7</vdop><pdop>1.0</pdop></trkpt>
<trkpt lat="34.29724313" lon="132.3192347"><ele>20.0</ele><time>2018-10-27T02:32:19.000Z</time><speed>0.03</speed><geoidheight>30.0</geoidheight><src>gps</src><sat>10</sat><hdop>0.8</hdop><vdop>0.8</vdop><pdop>1.1</pdop></trkpt>
<trkpt lat="34.29724115" lon="132.31933077"><ele>19.0</ele><time>2018-10-27T02:33:20.000Z</time><course>359.6</course><speed>0.3324154</speed><geoidheight>30.0</geoidheight><src>gps</src><sat>8</sat><hdop>0.9</hdop><vdop>0.8</vdop><pdop>1.2</pdop></trkpt>
<trkpt lat="34.29726646" lon="132.31933404"><ele>17.0</ele><time>2018-10-27T02:34:21.000Z</time><speed>0.0</speed><geoidheight>30.0</geoidheight><src>gps</src><sat>7</sat><hdop>0.8</hdop><vdop>0.7</vdop><pdop>1.1</pdop></trkpt>
<trkpt lat="34.29727491" lon="132.31935331"><ele>18.0</ele><time>2018-10-27T02:35:22.000Z</time><speed>0.0</speed><geoidheight>30.0</geoidheight><src>gps</src><sat>7</sat><hdop>0.8</hdop><vdop>0.7</vdop><pdop>1.1</pdop></trkpt>
<trkpt lat="34.29723021" lon="132.31929766"><ele>23.0</ele><time>2018-10-27T02:36:23.000Z</time><speed>0.0</speed><geoidheight>30.0</geoidheight><src>gps</src><sat>8</sat><hdop>0.8</hdop><vdop>0.8</vdop><pdop>1.1</pdop></trkpt>
<trkpt lat="34.29722147" lon="132.31927708"><ele>27.0</ele><time>2018-10-27T02:37:24.000Z</time><speed>0.0</speed><geoidheight>30.0</geoidheight><src>gps</src><sat>7</sat><hdop>0.8</hdop><vdop>0.7</vdop><pdop>1.1</pdop></trkpt>
<trkpt lat="34.29725046" lon="132.31929316"><ele>32.0</ele><time>2018-10-27T02:38:25.000Z</time><speed>0.0</speed><geoidheight>30.0</geoidheight><src>gps</src><sat>7</sat><hdop>0.8</hdop><vdop>0.8</vdop><pdop>1.1</pdop></trkpt>
<trkpt lat="34.29723418" lon="132.31932645"><ele>26.0</ele><time>2018-10-27T02:39:26.000Z</time><speed>0.0</speed><geoidheight>30.0</geoidheight><src>gps</src><sat>7</sat><hdop>0.8</hdop><vdop>0.8</vdop><pdop>1.1</pdop></trkpt>
<trkpt lat="34.29723993" lon="132.31927554"><ele>33.0</ele><time>2018-10-27T02:40:27.000Z</time><speed>0.0</speed><geoidheight>30.0</geoidheight><src>gps</src><sat>7</sat><hdop>0.8</hdop><vdop>0.8</vdop><pdop>1.1</pdop></trkpt>
<trkpt lat="34.29720593" lon="132.31918839"><ele>34.0</ele><time>2018-10-27T02:41:28.000Z</time><speed>0.0</speed><geoidheight>30.0</geoidheight><src>gps</src><sat>6</sat><hdop>0.8</hdop><vdop>0.8</vdop><pdop>1.1</pdop></trkpt>
<trkpt lat="34.2972484" lon="132.31930354"><ele>21.0</ele><time>2018-10-27T02:42:29.000Z</time><speed>0.0</speed><geoidheight>30.0</geoidheight><src>gps</src><sat>8</sat><hdop>0.7</hdop><vdop>0.7</vdop><pdop>1.1</pdop></trkpt>
<trkpt lat="34.29723853" lon="132.31925689"><ele>29.0</ele><time>2018-10-27T02:43:30.000Z</time><speed>0.0</speed><geoidheight>30.0</geoidheight><src>gps</src><sat>6</sat><hdop>0.7</hdop><vdop>0.7</vdop><pdop>1.1</pdop></trkpt>
<trkpt lat="34.29724359" lon="132.31924729"><ele>33.0</ele><time>2018-10-27T02:44:31.000Z</time><speed>0.0</speed><geoidheight>30.0</geoidheight><src>gps</src><sat>6</sat><hdop>1.2</hdop><vdop>0.8</vdop><pdop>1.4</pdop></trkpt>
<trkpt lat="34.29721831" lon="132.31923442"><ele>33.0</ele><time>2018-10-27T02:45:32.000Z</time><speed>0.0</speed><geoidheight>30.0</geoidheight><src>gps</src><sat>10</sat><hdop>0.8</hdop><vdop>0.8</vdop><pdop>1.1</pdop></trkpt>
<trkpt lat="34.29721855" lon="132.31923467"><ele>32.0</ele><time>2018-10-27T02:46:33.000Z</time><speed>0.0</speed><geoidheight>30.0</geoidheight><src>gps</src><sat>12</sat><hdop>0.8</hdop><vdop>0.8</vdop><pdop>1.1</pdop></trkpt>
<trkpt lat="34.29723015" lon="132.31923567"><ele>40.0</ele><time>2018-10-27T02:47:34.000Z</time><speed>0.0</speed><geoidheight>30.0</geoidheight><src>gps</src><sat>7</sat><hdop>0.8</hdop><vdop>0.7</vdop><pdop>1.1</pdop></trkpt>
<trkpt lat="34.29723548" lon="132.31920014"><ele>32.0</ele><time>2018-10-27T02:48:35.000Z</time><speed>0.0</speed><geoidheight>30.0</geoidheight><src>gps</src><sat>5</sat><hdop>0.8</hdop><vdop>0.7</vdop><pdop>1.1</pdop></trkpt>
<trkpt lat="34.29720371" lon="132.31922504"><ele>34.0</ele><time>2018-10-27T02:49:36.000Z</time><speed>0.0</speed><geoidheight>30.0</geoidheight><src>gps</src><sat>6</sat><hdop>0.9</hdop><vdop>0.8</vdop><pdop>1.2</pdop></trkpt>
<trkpt lat="34.2971869" lon="132.31922006"><ele>38.0</ele><time>2018-10-27T02:50:37.000Z</time><course>213.6</course><speed>0.3757659</speed><geoidheight>30.0</geoidheight><src>gps</src><sat>6</sat><hdop>0.7</hdop><vdop>0.7</vdop><pdop>1.0</pdop></trkpt>
<trkpt lat="34.29718448" lon="132.31923984"><ele>39.0</ele><time>2018-10-27T02:51:38.000Z</time><speed>0.0</speed><geoidheight>30.0</geoidheight><src>gps</src><sat>12</sat><hdop>0.8</hdop><vdop>0.7</vdop><pdop>1.1</pdop></trkpt>
<trkpt lat="34.29695081" lon="132.31927562"><ele>35.0</ele><time>2018-10-27T02:52:38.000Z</time><speed>0.0</speed><geoidheight>30.0</geoidheight><src>gps</src><sat>6</sat><hdop>1.0</hdop><vdop>0.8</vdop><pdop>1.2</pdop></trkpt>
<trkpt lat="34.29672426" lon="132.31952379"><ele>40.0</ele><time>2018-10-27T02:53:39.000Z</time><speed>0.0</speed><geoidheight>30.0</geoidheight><src>gps</src><sat>10</sat><hdop>0.8</hdop><vdop>0.8</vdop><pdop>1.2</pdop></trkpt>
<trkpt lat="34.29669876" lon="132.31955284"><ele>43.0</ele><time>2018-10-27T02:54:40.000Z</time><speed>0.0</speed><geoidheight>30.0</geoidheight><src>gps</src><sat>10</sat><hdop>1.1</hdop><vdop>0.9</vdop><pdop>1.4</pdop></trkpt>
<trkpt lat="34.2967047" lon="132.3195633"><ele>37.0</ele><time>2018-10-27T02:55:41.000Z</time><speed>0.0</speed><geoidheight>30.0</geoidheight><src>gps</src><sat>7</sat><hdop>0.8</hdop><vdop>0.8</vdop><pdop>1.2</pdop></trkpt>
<trkpt lat="34.29673684" lon="132.31950936"><ele>34.0</ele><time>2018-10-27T02:56:43.000Z</time><speed>0.0</speed><geoidheight>30.0</geoidheight><src>gps</src><sat>6</sat><hdop>0.8</hdop><vdop>0.8</vdop><pdop>1.1</pdop></trkpt>
<trkpt lat="34.29673693" lon="132.31950756"><ele>33.0</ele><time>2018-10-27T02:57:43.000Z</time><speed>0.0</speed><geoidheight>30.0</geoidheight><src>gps</src><sat>13</sat><hdop>0.8</hdop><vdop>0.7</vdop><pdop>1.1</pdop></trkpt>
<trkpt lat="34.29673739" lon="132.31950729"><ele>33.0</ele><time>2018-10-27T02:58:44.000Z</time><speed>0.0</speed><geoidheight>30.0</geoidheight><src>gps</src><sat>12</sat><hdop>0.7</hdop><vdop>0.7</vdop><pdop>1.0</pdop></trkpt>
<trkpt lat="34.29673406" lon="132.31954208"><ele>34.0</ele><time>2018-10-27T02:59:45.000Z</time><speed>0.0</speed><geoidheight>30.0</geoidheight><src>gps</src><sat>12</sat><hdop>0.6</hdop><vdop>0.7</vdop><pdop>0.9</pdop></trkpt>
<trkpt lat="34.29673441" lon="132.31956174"><ele>37.0</ele><time>2018-10-27T03:00:45.000Z</time><speed>0.28</speed><geoidheight>30.0</geoidheight><src>gps</src><sat>10</sat><hdop>0.7</hdop><vdop>0.8</vdop><pdop>1.1</pdop></trkpt>
<trkpt lat="34.29670557" lon="132.32077778"><ele>34.0</ele><time>2018-10-27T03:01:44.000Z</time><course>112.4</course><speed>1.1301769</speed><geoidheight>30.0</geoidheight><src>gps</src><sat>5</sat><hdop>0.8</hdop><vdop>0.8</vdop><pdop>1.1</pdop></trkpt>
<trkpt lat="34.29627754" lon="132.32085351"><ele>41.0</ele><time>2018-10-27T03:02:46.000Z</time><speed>0.0</speed><geoidheight>30.0</geoidheight><src>gps</src><sat>13</sat><hdop>0.7</hdop><vdop>0.7</vdop><pdop>1.0</pdop></trkpt>
<trkpt lat="34.29621896" lon="132.32082982"><ele>38.0</ele><time>2018-10-27T03:03:47.000Z</time><speed>0.0</speed><geoidheight>30.0</geoidheight><src>gps</src><sat>14</sat><hdop>0.7</hdop><vdop>0.7</vdop><pdop>1.0</pdop></trkpt>
<trkpt lat="34.29602782" lon="132.32123929"><ele>39.0</ele><time>2018-10-27T03:04:48.000Z</time><course>129.8</course><speed>2.760018</speed><geoidheight>30.0</geoidheight><src>gps</src><sat>13</sat><hdop>1.0</hdop><vdop>0.8</vdop><pdop>1.2</pdop></trkpt>
<trkpt lat="34.29521416" lon="132.32061945"><ele>31.0</ele><time>2018-10-27T03:05:49.000Z</time><course>272.7</course><speed>3.1940103</speed><geoidheight>30.0</geoidheight><src>gps</src><sat>9</sat><hdop>0.8</hdop><vdop>0.8</vdop><pdop>1.1</pdop></trkpt>
<trkpt lat="34.29388053" lon="132.31957261"><ele>37.0</ele><time>2018-10-27T03:06:50.000Z</time><course>210.9</course><speed>3.0636742</speed><geoidheight>30.0</geoidheight><src>gps</src><sat>5</sat><hdop>0.7</hdop><vdop>0.8</vdop><pdop>1.1</pdop></trkpt>
<trkpt lat="34.29299885" lon="132.31898209"><ele>40.0</ele><time>2018-10-27T03:07:51.000Z</time><speed>0.0</speed><geoidheight>30.0</geoidheight><src>gps</src><sat>8</sat><hdop>0.8</hdop><vdop>0.8</vdop><pdop>1.1</pdop></trkpt>
<trkpt lat="34.29273082" lon="132.31888704"><ele>48.0</ele><time>2018-10-27T03:08:52.000Z</time><speed>0.0</speed><geoidheight>30.0</geoidheight><src>gps</src><sat>10</sat><hdop>0.7</hdop><vdop>0.8</vdop><pdop>1.1</pdop></trkpt>
<trkpt lat="34.29253954" lon="132.31884704"><ele>45.0</ele><time>2018-10-27T03:09:53.000Z</time><speed>0.0</speed><geoidheight>30.0</geoidheight><src>gps</src><sat>1</sat><hdop>1.0</hdop><vdop>0.8</vdop><pdop>1.3</pdop></trkpt>
<trkpt lat="34.29211086" lon="132.31878681"><ele>58.0</ele><time>2018-10-27T03:10:53.000Z</time><course>356.6</course><speed>0.61</speed><geoidheight>30.0</geoidheight><src>gps</src><sat>8</sat><hdop>0.8</hdop><vdop>0.8</vdop><pdop>1.1</pdop></trkpt>
<trkpt lat="34.29207668" lon="132.3187484"><ele>53.0</ele><time>2018-10-27T03:11:53.000Z</time><course>165.5</course><speed>0.48826224</speed><geoidheight>30.0</geoidheight><src>gps</src><sat>7</sat><hdop>0.8</hdop><vdop>0.8</vdop><pdop>1.1</pdop></trkpt>
<trkpt lat="34.29173188" lon="132.31867335"><ele>57.0</ele><time>2018-10-27T03:12:54.000Z</time><speed>0.0</speed><geoidheight>30.0</geoidheight><src>gps</src><sat>4</sat><hdop>0.9</hdop><vdop>0.8</vdop><pdop>1.2</pdop></trkpt>
<trkpt lat="34.29171801" lon="132.31871503"><ele>49.0</ele><time>2018-10-27T03:13:55.000Z</time><speed>0.0</speed><geoidheight>30.0</geoidheight><src>gps</src><sat>11</sat><hdop>0.8</hdop><vdop>0.8</vdop><pdop>1.1</pdop></trkpt>
<trkpt lat="34.2917286" lon="132.31874399"><ele>48.0</ele><time>2018-10-27T03:14:56.000Z</time><speed>0.0</speed><geoidheight>30.0</geoidheight><src>gps</src><sat>12</sat><hdop>0.8</hdop><vdop>0.8</vdop><pdop>1.1</pdop></trkpt>
<trkpt lat="34.29193321" lon="132.31874838"><ele>59.0</ele><time>2018-10-27T03:15:58.000Z</time><course>8.1</course><speed>0.27313</speed><geoidheight>30.0</geoidheight><src>gps</src><sat>6</sat><hdop>0.8</hdop><vdop>0.8</vdop><pdop>1.1</pdop></trkpt>
<trkpt lat="34.29230617" lon="132.31881688"><ele>49.0</ele><time>2018-10-27T03:17:00.000Z</time><course>16.7</course><speed>0.5500909</speed><geoidheight>30.0</geoidheight><src>gps</src><sat>8</sat><hdop>0.8</hdop><vdop>0.8</vdop><pdop>1.1</pdop></trkpt>
<trkpt lat="34.29249268" lon="132.318966"><ele>54.0</ele><time>2018-10-27T03:18:01.000Z</time><course>93.3</course><speed>0.30463094</speed><geoidheight>30.0</geoidheight><src>gps</src><sat>11</sat><hdop>0.7</hdop><vdop>0.7</vdop><pdop>1.0</pdop></trkpt>
<trkpt lat="34.29229463" lon="132.31896274"><ele>53.0</ele><time>2018-10-27T03:19:01.000Z</time><course>134.3</course><speed>1.1621101</speed><geoidheight>30.0</geoidheight><src>gps</src><sat>4</sat><hdop>1.0</hdop><vdop>0.8</vdop><pdop>1.3</pdop></trkpt>
<trkpt lat="34.29241571" lon="132.31888665"><ele>54.0</ele><time>2018-10-27T03:20:02.000Z</time><course>33.3</course><speed>0.84095186</speed><geoidheight>30.0</geoidheight><src>gps</src><sat>6</sat><hdop>0.9</hdop><vdop>0.8</vdop><pdop>1.2</pdop></trkpt>
<trkpt lat="34.2925383" lon="132.31890777"><ele>43.0</ele><time>2018-10-27T03:21:02.000Z</time><course>286.1</course><speed>0.41</speed><geoidheight>30.0</geoidheight><src>gps</src><sat>12</sat><hdop>0.8</hdop><vdop>0.8</vdop><pdop>1.2</pdop></trkpt>
<trkpt lat="34.29294617" lon="132.3190455"><ele>41.0</ele><time>2018-10-27T03:22:03.000Z</time><speed>0.0</speed><geoidheight>30.0</geoidheight><src>gps</src><sat>8</sat><hdop>0.8</hdop><vdop>0.8</vdop><pdop>1.1</pdop></trkpt>
<trkpt lat="34.29295925" lon="132.31897329"><ele>40.0</ele><time>2018-10-27T03:23:03.000Z</time><speed>0.0</speed><geoidheight>30.0</geoidheight><src>gps</src><sat>6</sat></trkpt>
<trkpt lat="34.29292233" lon="132.31896969"><ele>47.0</ele><time>2018-10-27T03:24:04.000Z</time><speed>0.0</speed><geoidheight>30.0</geoidheight><src>gps</src><sat>8</sat><hdop>0.8</hdop><vdop>0.8</vdop><pdop>1.1</pdop></trkpt>
<trkpt lat="34.29382569" lon="132.31954798"><ele>45.0</ele><time>2018-10-27T03:25:05.000Z</time><course>25.2</course><speed>3.151587</speed><geoidheight>30.0</geoidheight><src>gps</src><sat>12</sat><hdop>0.8</hdop><vdop>0.7</vdop><pdop>1.1</pdop></trkpt>
<trkpt lat="34.2948359" lon="132.32011464"><ele>51.0</ele><time>2018-10-27T03:26:06.000Z</time><course>26.7</course><speed>1.1573244</speed><geoidheight>30.0</geoidheight><src>gps</src><sat>13</sat><hdop>0.9</hdop><vdop>0.8</vdop><pdop>1.2</pdop></trkpt>
<trkpt lat="34.29495389" lon="132.32029587"><ele>36.0</ele><time>2018-10-27T03:27:07.000Z</time><course>149.8</course><speed>0.6503076</speed><geoidheight>30.0</geoidheight><src>gps</src><sat>9</sat><hdop>0.9</hdop><vdop>0.8</vdop><pdop>1.2</pdop></trkpt>
<trkpt lat="34.29557547" lon="132.32048839"><ele>41.0</ele><time>2018-10-27T03:28:08.000Z</time><course>1.8</course><speed>2.020099</speed><geoidheight>30.0</geoidheight><src>gps</src><sat>13</sat><hdop>0.8</hdop><vdop>0.8</vdop><pdop>1.1</pdop></trkpt>
<trkpt lat="34.29623983" lon="132.32076725"><ele>43.0</ele><time>2018-10-27T03:29:09.000Z</time><course>17.6</course><speed>0.9544108</speed><geoidheight>30.0</geoidheight><src>gps</src><sat>10</sat><hdop>0.8</hdop><vdop>0.8</vdop><pdop>1.2</pdop></trkpt>
<trkpt lat="34.29682012" lon="132.32094717"><ele>36.0</ele><time>2018-10-27T03:30:10.000Z</time><course>40.0</course><speed>0.74060786</speed><geoidheight>30.0</geoidheight><src>gps</src><sat>10</sat><hdop>1.0</hdop><vdop>0.8</vdop><pdop>1.3</pdop></trkpt>
<trkpt lat="34.2969503" lon="132.32112948"><ele>45.0</ele><time>2018-10-27T03:31:11.000Z</time><speed>0.0</speed><geoidheight>30.0</geoidheight><src>gps</src><sat>10</sat><hdop>0.9</hdop><vdop>0.8</vdop><pdop>1.2</pdop></trkpt>
<trkpt lat="34.29714764" lon="132.3210318"><ele>37.0</ele><time>2018-10-27T03:32:11.000Z</time><course>299.4</course><speed>1.2601587</speed><geoidheight>30.0</geoidheight><src>gps</src><sat>14</sat><hdop>0.8</hdop><vdop>0.7</vdop><pdop>1.1</pdop></trkpt>
<trkpt lat="34.2971754" lon="132.32064671"><ele>38.0</ele><time>2018-10-27T03:33:13.000Z</time><speed>0.0</speed><geoidheight>30.0</geoidheight><src>gps</src><sat>14</sat><hdop>0.7</hdop><vdop>0.7</vdop><pdop>1.0</pdop></trkpt>
<trkpt lat="34.29715842" lon="132.32063899"><ele>37.0</ele><time>2018-10-27T03:34:14.000Z</time><speed>0.0</speed><geoidheight>30.0</geoidheight><src>gps</src><sat>13</sat><hdop>1.2</hdop><vdop>0.8</vdop><pdop>1.4</pdop></trkpt>
<trkpt lat="34.29715835" lon="132.32063886"><ele>37.0</ele><time>2018-10-27T03:35:15.000Z</time><speed>0.0</speed><geoidheight>30.0</geoidheight><src>gps</src><sat>9</sat><hdop>2.0</hdop><vdop>0.9</vdop><pdop>2.2</pdop></trkpt>
<trkpt lat="34.29726191" lon="132.3208611"><ele>40.0</ele><time>2018-10-27T03:36:16.000Z</time><speed>0.0</speed><geoidheight>30.0</geoidheight><src>gps</src><sat>9</sat><hdop>0.9</hdop><vdop>0.8</vdop><pdop>1.2</pdop></trkpt>
<trkpt lat="34.29704116" lon="132.32116077"><ele>35.0</ele><time>2018-10-27T03:37:17.000Z</time><course>148.4</course><speed>0.99085826</speed><geoidheight>30.0</geoidheight><src>gps</src><sat>5</sat><hdop>0.9</hdop><vdop>0.8</vdop><pdop>1.3</pdop></trkpt>
<trkpt lat="34.29774184" lon="132.32067136"><ele>40.0</ele><time>2018-10-27T03:38:18.000Z</time><speed>0.0</speed><geoidheight>30.0</geoidheight><src>gps</src><sat>11</sat><hdop>0.8</hdop><vdop>0.8</vdop><pdop>1.1</pdop></trkpt>
<trkpt lat="34.29790336" lon="132.32039447"><ele>31.0</ele><time>2018-10-27T03:39:19.000Z</time><speed>0.0</speed><geoidheight>30.0</geoidheight><src>gps</src><sat>7</sat><hdop>1.0</hdop><vdop>0.8</vdop><pdop>1.2</pdop></trkpt>
<trkpt lat="34.29790169" lon="132.32038708"><ele>20.0</ele><time>2018-10-27T03:40:20.000Z</time><speed>0.0</speed><geoidheight>30.0</geoidheight><src>gps</src><sat>6</sat><hdop>1.0</hdop><vdop>0.8</vdop><pdop>1.2</pdop></trkpt>
<trkpt lat="34.29789681" lon="132.32043086"><ele>23.0</ele><time>2018-10-27T03:41:21.000Z</time><speed>0.0</speed><geoidheight>30.0</geoidheight><src>gps</src><sat>6</sat><hdop>0.8</hdop><vdop>0.7</vdop><pdop>1.0</pdop></trkpt>
<trkpt lat="34.29793966" lon="132.32042502"><ele>33.0</ele><time>2018-10-27T03:42:22.000Z</time><speed>0.0</speed><geoidheight>30.0</geoidheight><src>gps</src><sat>7</sat><hdop>0.9</hdop><vdop>0.7</vdop><pdop>1.1</pdop></trkpt>
<trkpt lat="34.29930457" lon="132.32122056"><ele>26.0</ele><time>2018-10-27T03:43:23.000Z</time><course>2.6</course><speed>2.3917565</speed><geoidheight>30.0</geoidheight><src>gps</src><sat>9</sat><hdop>0.8</hdop><vdop>0.7</vdop><pdop>1.1</pdop></trkpt>
<trkpt lat="34.30051635" lon="132.32130549"><ele>30.0</ele><time>2018-10-27T03:44:24.000Z</time><course>4.1</course><speed>2.9500678</speed><geoidheight>30.0</geoidheight><src>gps</src><sat>12</sat><hdop>0.9</hdop><vdop>0.7</vdop><pdop>1.1</pdop></trkpt>
<trkpt lat="34.30151731" lon="132.32192838"><ele>27.0</ele><time>2018-10-27T03:45:25.000Z</time><course>60.8</course><speed>2.4120739</speed><geoidheight>30.0</geoidheight><src>gps</src><sat>11</sat><hdop>0.7</hdop><vdop>0.7</vdop><pdop>1.0</pdop></trkpt>
<trkpt lat="34.30202198" lon="132.32234687"><ele>29.0</ele><time>2018-10-27T03:46:26.000Z</time><speed>0.0</speed><geoidheight>30.0</geoidheight><src>gps</src><sat>9</sat><hdop>1.1</hdop><vdop>0.9</vdop><pdop>1.4</pdop></trkpt>
<trkpt lat="34.30202249" lon="132.32234617"><ele>29.0</ele><time>2018-10-27T03:47:27.000Z</time><speed>0.0</speed><geoidheight>30.0</geoidheight><src>gps</src><sat>6</sat><hdop>1.3</hdop><vdop>1.0</vdop><pdop>1.7</pdop></trkpt>
<trkpt lat="34.30202323" lon="132.32234513"><ele>29.0</ele><time>2018-10-27T03:49:58.000Z</time><speed>0.0</speed><geoidheight>30.0</geoidheight><src>gps</src><sat>7</sat><hdop>1.3</hdop><vdop>0.9</vdop><pdop>1.6</pdop></trkpt>
<trkpt lat="34.30233908" lon="132.32132166"><ele>33.0</ele><time>2018-10-27T03:51:00.000Z</time><course>307.5</course><speed>0.41785163</speed><geoidheight>30.0</geoidheight><src>gps</src><sat>8</sat><hdop>0.7</hdop><vdop>0.7</vdop><pdop>1.0</pdop></trkpt>
<trkpt lat="34.30240534" lon="132.32107927"><ele>23.0</ele><time>2018-10-27T03:52:01.000Z</time><course>151.0</course><speed>1.0623088</speed><geoidheight>30.0</geoidheight><src>gps</src><sat>10</sat><hdop>0.7</hdop><vdop>0.7</vdop><pdop>1.0</pdop></trkpt>
<trkpt lat="34.30214398" lon="132.32100816"><ele>-5.0</ele><time>2018-10-27T03:53:01.000Z</time><course>227.2</course><speed>0.9459387</speed><geoidheight>30.0</geoidheight><src>gps</src><sat>8</sat><hdop>0.7</hdop><vdop>0.7</vdop><pdop>1.0</pdop></trkpt>
<trkpt lat="34.30217009" lon="132.3209427"><ele>17.0</ele><time>2018-10-27T03:54:02.000Z</time><speed>0.0</speed><geoidheight>30.0</geoidheight><src>gps</src><sat>12</sat><hdop>0.6</hdop><vdop>0.6</vdop><pdop>0.9</pdop></trkpt>
<trkpt lat="34.30214382" lon="132.32095598"><ele>10.0</ele><time>2018-10-27T03:55:03.000Z</time><speed>0.0</speed><geoidheight>30.0</geoidheight><src>gps</src><sat>9</sat><hdop>0.8</hdop><vdop>0.8</vdop><pdop>1.1</pdop></trkpt>
<trkpt lat="34.30207805" lon="132.32084831"><ele>2.0</ele><time>2018-10-27T03:56:03.000Z</time><course>218.3</course><speed>1.259365</speed><geoidheight>30.0</geoidheight><src>gps</src><sat>6</sat><hdop>0.7</hdop><vdop>0.7</vdop><pdop>1.0</pdop></trkpt>
<trkpt lat="34.3024266" lon="132.31962588"><ele>19.0</ele><time>2018-10-27T03:57:04.000Z</time><course>306.5</course><speed>3.1419263</speed><geoidheight>30.0</geoidheight><src>gps</src><sat>11</sat><hdop>0.7</hdop><vdop>0.7</vdop><pdop>0.9</pdop></trkpt>
<trkpt lat="34.30343849" lon="132.31779042"><ele>16.0</ele><time>2018-10-27T03:58:05.000Z</time><course>305.9</course><speed>3.3025596</speed><geoidheight>30.0</geoidheight><src>gps</src><sat>10</sat><hdop>0.8</hdop><vdop>0.7</vdop><pdop>1.0</pdop></trkpt>
<trkpt lat="34.30443585" lon="132.31578048"><ele>21.0</ele><time>2018-10-27T03:59:06.000Z</time><course>306.0</course><speed>3.3</speed><geoidheight>30.0</geoidheight><src>gps</src><sat>11</sat><hdop>0.7</hdop><vdop>0.6</vdop><pdop>0.9</pdop></trkpt>
<trkpt lat="34.30548634" lon="132.31380541"><ele>18.0</ele><time>2018-10-27T04:00:07.000Z</time><course>307.1</course><speed>3.5300565</speed><geoidheight>30.0</geoidheight><src>gps</src><sat>11</sat><hdop>0.7</hdop><vdop>0.7</vdop><pdop>1.0</pdop></trkpt>
<trkpt lat="34.30667346" lon="132.31179157"><ele>26.0</ele><time>2018-10-27T04:01:08.000Z</time><course>310.4</course><speed>3.4705188</speed><geoidheight>30.0</geoidheight><src>gps</src><sat>11</sat><hdop>1.0</hdop><vdop>0.7</vdop><pdop>1.3</pdop></trkpt>
<trkpt lat="34.30791367" lon="132.30978628"><ele>31.0</ele><time>2018-10-27T04:02:08.000Z</time><course>305.4</course><speed>4.0796204</speed><geoidheight>30.0</geoidheight><src>gps</src><sat>9</sat><hdop>1.1</hdop><vdop>0.7</vdop><pdop>1.3</pdop></trkpt>
<trkpt lat="34.30921561" lon="132.30787525"><ele>21.0</ele><time>2018-10-27T04:03:09.000Z</time><course>306.5</course><speed>3.8442163</speed><geoidheight>30.0</geoidheight><src>gps</src><sat>8</sat><hdop>0.6</hdop><vdop>0.6</vdop><pdop>0.9</pdop></trkpt>
<trkpt lat="34.30997883" lon="132.30625022"><ele>1.0</ele><time>2018-10-27T04:04:09.000Z</time><course>302.6</course><speed>2.1652021</speed><geoidheight>30.0</geoidheight><src>gps</src><sat>7</sat><hdop>0.7</hdop><vdop>0.7</vdop><pdop>1.0</pdop></trkpt>
<trkpt lat="34.31034501" lon="132.30579264"><ele>13.0</ele><time>2018-10-27T04:05:10.000Z</time><course>291.0</course><speed>0.5234501</speed><geoidheight>30.0</geoidheight><src>gps</src><sat>9</sat><hdop>0.7</hdop><vdop>0.7</vdop><pdop>1.0</pdop></trkpt>
<trkpt lat="34.3112525" lon="132.30455368"><ele>23.0</ele><time>2018-10-27T04:06:11.000Z</time><course>288.1</course><speed>2.4130685</speed><geoidheight>30.0</geoidheight><src>gps</src><sat>7</sat><hdop>0.7</hdop><vdop>0.7</vdop><pdop>1.0</pdop></trkpt>
<trkpt lat="34.31167007" lon="132.30409913"><ele>22.0</ele><time>2018-10-27T04:07:11.000Z</time><course>85.0</course><speed>0.6637018</speed><geoidheight>30.0</geoidheight><src>gps</src><sat>8</sat><hdop>0.7</hdop><vdop>0.7</vdop><pdop>1.0</pdop></trkpt>
<trkpt lat="34.31155021" lon="132.3039917"><ele>24.0</ele><time>2018-10-27T04:09:05.000Z</time><speed>0.0</speed><geoidheight>30.0</geoidheight><src>gps</src><sat>7</sat><hdop>500.0</hdop><vdop>500.0</vdop><pdop>500.0</pdop></trkpt>
<trkpt lat="34.31138496" lon="132.30401271"><ele>35.0</ele><time>2018-10-27T04:11:20.000Z</time><speed>0.0</speed><geoidheight>30.0</geoidheight><src>gps</src><sat>8</sat><hdop>500.0</hdop><vdop>500.0</vdop><pdop>500.0</pdop></trkpt>
<trkpt lat="34.31139184" lon="132.30401435"><ele>35.0</ele><time>2018-10-27T04:12:30.000Z</time><speed>0.0</speed><geoidheight>30.0</geoidheight><src>gps</src><sat>7</sat><hdop>1.2</hdop><vdop>0.8</vdop><pdop>1.5</pdop></trkpt>
<trkpt lat="34.31139215" lon="132.30401585"><ele>35.0</ele><time>2018-10-27T04:15:45.000Z</time><speed>0.0</speed><geoidheight>30.0</geoidheight><src>gps</src><sat>6</sat><hdop>1.8</hdop><vdop>0.9</vdop><pdop>2.0</pdop></trkpt>
<trkpt lat="34.31142539" lon="132.30437327"><ele>26.0</ele><time>2018-10-27T04:16:46.000Z</time><course>118.6</course><speed>4.3500113</speed><geoidheight>30.0</geoidheight><src>gps</src><sat>9</sat><hdop>0.8</hdop><vdop>0.8</vdop><pdop>1.1</pdop></trkpt>
<trkpt lat="34.31028735" lon="132.30441496"><ele>24.0</ele><time>2018-10-27T04:17:47.000Z</time><course>263.6</course><speed>2.2649724</speed><geoidheight>30.0</geoidheight><src>gps</src><sat>6</sat><hdop>0.7</hdop><vdop>0.6</vdop><pdop>0.9</pdop></trkpt>
<trkpt lat="34.30985609" lon="132.30444907"><ele>24.0</ele><time>2018-10-27T04:18:48.000Z</time><course>117.8</course><speed>0.559017</speed><geoidheight>30.0</geoidheight><src>gps</src><sat>6</sat><hdop>0.8</hdop><vdop>0.7</vdop><pdop>1.1</pdop></trkpt>
<trkpt lat="34.30974864" lon="132.30418031"><ele>26.0</ele><time>2018-10-27T04:19:49.000Z</time><speed>0.0</speed><geoidheight>30.0</geoidheight><src>gps</src><sat>7</sat><hdop>1.0</hdop><vdop>0.8</vdop><pdop>1.3</pdop></trkpt>
<trkpt lat="34.30969885" lon="132.30419121"><ele>29.0</ele><time>2018-10-27T04:20:49.000Z</time><speed>0.0</speed><geoidheight>30.0</geoidheight><src>gps</src><sat>7</sat><hdop>1.1</hdop><vdop>0.8</vdop><pdop>1.4</pdop></trkpt>
<trkpt lat="34.30978161" lon="132.30418097"><ele>27.0</ele><time>2018-10-27T04:21:49.000Z</time><speed>0.0</speed><geoidheight>30.0</geoidheight><src>gps</src><sat>9</sat><hdop>1.1</hdop><vdop>0.9</vdop><pdop>1.4</pdop></trkpt>
<trkpt lat="34.30977646" lon="132.3042186"><ele>24.0</ele><time>2018-10-27T04:22:50.000Z</time><speed>0.0</speed><geoidheight>30.0</geoidheight><src>gps</src><sat>5</sat><hdop>1.8</hdop><vdop>0.8</vdop><pdop>1.9</pdop></trkpt>
<trkpt lat="34.30976233" lon="132.30416083"><ele>23.0</ele><time>2018-10-27T04:23:51.000Z</time><course>328.1</course><speed>0.56718606</speed><geoidheight>30.0</geoidheight><src>gps</src><sat>8</sat><hdop>0.9</hdop><vdop>0.8</vdop><pdop>1.2</pdop></trkpt>
<trkpt lat="34.30974638" lon="132.3041808"><ele>29.0</ele><time>2018-10-27T04:24:52.000Z</time><speed>0.0</speed><geoidheight>30.0</geoidheight><src>gps</src><sat>7</sat><hdop>1.1</hdop><vdop>0.8</vdop><pdop>1.4</pdop></trkpt>
<trkpt lat="34.30973571" lon="132.30419772"><ele>25.0</ele><time>2018-10-27T04:25:53.000Z</time><speed>0.0</speed><geoidheight>30.0</geoidheight><src>gps</src><sat>7</sat><hdop>1.3</hdop><vdop>0.9</vdop><pdop>1.6</pdop></trkpt>
<trkpt lat="34.30970809" lon="132.30418994"><ele>29.0</ele><time>2018-10-27T04:26:54.000Z</time><course>177.3</course><speed>0.80006254</speed><geoidheight>30.0</geoidheight><src>gps</src><sat>6</sat><hdop>1.0</hdop><vdop>0.8</vdop><pdop>1.3</pdop></trkpt>
<trkpt lat="34.30971906" lon="132.30421854"><ele>26.0</ele><time>2018-10-27T04:27:55.000Z</time><speed>0.0</speed><geoidheight>30.0</geoidheight><src>gps</src><sat>6</sat><hdop>0.9</hdop><vdop>0.8</vdop><pdop>1.2</pdop></trkpt>
<trkpt lat="34.30976334" lon="132.30415456"><ele>18.0</ele><time>2018-10-27T04:28:56.000Z</time><speed>0.0</speed><geoidheight>30.0</geoidheight><src>gps</src><sat>7</sat></trkpt>
<trkpt lat="34.30979251" lon="132.30420174"><ele>29.0</ele><time>2018-10-27T04:29:57.000Z</time><course>355.4</course><speed>0.5333854</speed><geoidheight>30.0</geoidheight><src>gps</src><sat>8</sat><hdop>1.0</hdop><vdop>0.8</vdop><pdop>1.3</pdop></trkpt>
<trkpt lat="34.30977065" lon="132.30417202"><ele>31.0</ele><time>2018-10-27T04:30:58.000Z</time><speed>0.0</speed><geoidheight>30.0</geoidheight><src>gps</src><sat>7</sat><hdop>0.9</hdop><vdop>0.8</vdop><pdop>1.2</pdop></trkpt>
<trkpt lat="34.30975734" lon="132.30417717"><ele>29.0</ele><time>2018-10-27T04:31:58.000Z</time><speed>0.0</speed><geoidheight>30.0</geoidheight><src>gps</src><sat>7</sat></trkpt>
<trkpt lat="34.30973048" lon="132.30418476"><ele>26.0</ele><time>2018-10-27T04:32:59.000Z</time><speed>0.0</speed><geoidheight>30.0</geoidheight><src>gps</src><sat>7</sat><hdop>1.2</hdop><vdop>0.9</vdop><pdop>1.5</pdop></trkpt>
<trkpt lat="34.30973211" lon="132.30418552"><ele>27.0</ele><time>2018-10-27T04:34:00.000Z</time><speed>0.0</speed><geoidheight>30.0</geoidheight><src>gps</src><sat>9</sat><hdop>1.0</hdop><vdop>0.8</vdop><pdop>1.3</pdop></trkpt>
<trkpt lat="34.30973525" lon="132.30418706"><ele>27.0</ele><time>2018-10-27T04:35:01.000Z</time><speed>0.0</speed><geoidheight>30.0</geoidheight><src>gps</src><sat>9</sat><hdop>1.0</hdop><vdop>0.8</vdop><pdop>1.3</pdop></trkpt>
<trkpt lat="34.30973524" lon="132.30418689"><ele>27.0</ele><time>2018-10-27T04:36:02.000Z</time><speed>0.0</speed><geoidheight>30.0</geoidheight><src>gps</src><sat>10</sat><hdop>0.8</hdop><vdop>0.8</vdop><pdop>1.1</pdop></trkpt>
<trkpt lat="34.30973635" lon="132.30418703"><ele>27.0</ele><time>2018-10-27T04:37:02.000Z</time><speed>0.0</speed><geoidheight>30.0</geoidheight><src>gps</src><sat>5</sat><hdop>1.0</hdop><vdop>0.8</vdop><pdop>1.3</pdop></trkpt>
<trkpt lat="34.30973723" lon="132.30418722"><ele>27.0</ele><time>2018-10-27T04:38:03.000Z</time><speed>0.0</speed><geoidheight>30.0</geoidheight><src>gps</src><sat>9</sat><hdop>0.9</hdop><vdop>0.8</vdop><pdop>1.2</pdop></trkpt>
<trkpt lat="34.30973792" lon="132.30418731"><ele>27.0</ele><time>2018-10-27T04:39:04.000Z</time><speed>0.0</speed><geoidheight>30.0</geoidheight><src>gps</src><sat>10</sat><hdop>0.8</hdop><vdop>0.7</vdop><pdop>1.1</pdop></trkpt>
<trkpt lat="34.30974322" lon="132.30419235"><ele>28.0</ele><time>2018-10-27T04:40:05.000Z</time><speed>0.0</speed><geoidheight>30.0</geoidheight><src>gps</src><sat>10</sat><hdop>0.7</hdop><vdop>0.7</vdop><pdop>1.0</pdop></trkpt>
<trkpt lat="34.30976807" lon="132.30419304"><ele>26.0</ele><time>2018-10-27T04:41:06.000Z</time><speed>0.0</speed><geoidheight>30.0</geoidheight><src>gps</src><sat>7</sat><hdop>1.0</hdop><vdop>0.8</vdop><pdop>1.3</pdop></trkpt>
<trkpt lat="34.30975482" lon="132.30417881"><ele>27.0</ele><time>2018-10-27T04:42:07.000Z</time><speed>0.0</speed><geoidheight>30.0</geoidheight><src>gps</src><sat>7</sat><hdop>1.0</hdop><vdop>0.8</vdop><pdop>1.3</pdop></trkpt>
<trkpt lat="34.30980076" lon="132.30418707"><ele>28.0</ele><time>2018-10-27T04:43:08.000Z</time><speed>0.0</speed><geoidheight>30.0</geoidheight><src>gps</src><sat>8</sat><hdop>0.7</hdop><vdop>0.8</vdop><pdop>1.0</pdop></trkpt>
<trkpt lat="34.30981007" lon="132.30422088"><ele>30.0</ele><time>2018-10-27T04:44:09.000Z</time><course>334.6</course><speed>0.48166376</speed><geoidheight>30.0</geoidheight><src>gps</src><sat>8</sat><hdop>0.8</hdop><vdop>0.8</vdop><pdop>1.1</pdop></trkpt>
<trkpt lat="34.30978272" lon="132.30422761"><ele>32.0</ele><time>2018-10-27T04:45:10.000Z</time><speed>0.0</speed><geoidheight>30.0</geoidheight><src>gps</src><sat>8</sat><hdop>0.8</hdop><vdop>0.8</vdop><pdop>1.1</pdop></trkpt>
<trkpt lat="34.30978876" lon="132.30415077"><ele>27.0</ele><time>2018-10-27T04:46:11.000Z</time><speed>0.0</speed><geoidheight>30.0</geoidheight><src>gps</src><sat>7</sat><hdop>0.7</hdop><vdop>0.8</vdop><pdop>1.1</pdop></trkpt>
<trkpt lat="34.309745" lon="132.30416997"><ele>26.0</ele><time>2018-10-27T04:47:12.000Z</time><speed>0.0</speed><geoidheight>30.0</geoidheight><src>gps</src><sat>7</sat><hdop>0.9</hdop><vdop>0.8</vdop><pdop>1.2</pdop></trkpt>
<trkpt lat="34.30973702" lon="132.30422999"><ele>31.0</ele><time>2018-10-27T04:48:13.000Z</time><speed>0.0</speed><geoidheight>30.0</geoidheight><src>gps</src><sat>6</sat><hdop>0.9</hdop><vdop>0.8</vdop><pdop>1.2</pdop></trkpt>
<trkpt lat="34.30975741" lon="132.30413659"><ele>25.0</ele><time>2018-10-27T04:49:14.000Z</time><speed>0.0</speed><geoidheight>30.0</geoidheight><src>gps</src><sat>10</sat><hdop>0.7</hdop><vdop>0.8</vdop><pdop>1.1</pdop></trkpt>
<trkpt lat="34.3097978" lon="132.30417444"><ele>27.0</ele><time>2018-10-27T04:50:15.000Z</time><speed>0.0</speed><geoidheight>30.0</geoidheight><src>gps</src><sat>8</sat><hdop>0.7</hdop><vdop>0.8</vdop><pdop>1.1</pdop></trkpt>
<trkpt lat="34.30976905" lon="132.304213"><ele>27.0</ele><time>2018-10-27T04:51:15.000Z</time><speed>0.0</speed><geoidheight>30.0</geoidheight><src>gps</src><sat>8</sat><hdop>0.7</hdop><vdop>0.8</vdop><pdop>1.1</pdop></trkpt>
<trkpt lat="34.30978255" lon="132.30422539"><ele>34.0</ele><time>2018-10-27T04:52:16.000Z</time><course>78.9</course><speed>0.31</speed><geoidheight>30.0</geoidheight><src>gps</src><sat>8</sat><hdop>0.8</hdop><vdop>0.8</vdop><pdop>1.1</pdop></trkpt>
<trkpt lat="34.30975114" lon="132.30423441"><ele>33.0</ele><time>2018-10-27T04:53:17.000Z</time><speed>0.0</speed><geoidheight>30.0</geoidheight><src>gps</src><sat>6</sat><hdop>0.8</hdop><vdop>0.9</vdop><pdop>1.2</pdop></trkpt>
<trkpt lat="34.30975211" lon="132.30420018"><ele>33.0</ele><time>2018-10-27T04:54:17.000Z</time><speed>0.0</speed><geoidheight>30.0</geoidheight><src>gps</src><sat>9</sat><hdop>0.8</hdop><vdop>0.8</vdop><pdop>1.1</pdop></trkpt>
<trkpt lat="34.30976546" lon="132.30417216"><ele>31.0</ele><time>2018-10-27T04:55:18.000Z</time><course>288.9</course><speed>0.38587564</speed><geoidheight>30.0</geoidheight><src>gps</src><sat>9</sat><hdop>0.7</hdop><vdop>0.7</vdop><pdop>1.0</pdop></trkpt>
<trkpt lat="34.30976426" lon="132.30415815"><ele>28.0</ele><time>2018-10-27T04:56:19.000Z</time><speed>0.0</speed><geoidheight>30.0</geoidheight><src>gps</src><sat>8</sat><hdop>0.8</hdop><vdop>0.8</vdop><pdop>1.1</pdop></trkpt>
<trkpt lat="34.30977656" lon="132.3041836"><ele>32.0</ele><time>2018-10-27T04:57:20.000Z</time><course>257.3</course><speed>0.20024985</speed><geoidheight>30.0</geoidheight><src>gps</src><sat>8</sat><hdop>0.8</hdop><vdop>0.8</vdop><pdop>1.1</pdop></trkpt>
<trkpt lat="34.30976478" lon="132.30423963"><ele>38.0</ele><time>2018-10-27T04:58:20.000Z</time><speed>0.0</speed><geoidheight>30.0</geoidheight><src>gps</src><sat>9</sat><hdop>0.8</hdop><vdop>0.8</vdop><pdop>1.1</pdop></trkpt>
<trkpt lat="34.30976676" lon="132.3041723"><ele>33.0</ele><time>2018-10-27T04:59:20.000Z</time><speed>0.0</speed><geoidheight>30.0</geoidheight><src>gps</src><sat>8</sat><hdop>0.9</hdop><vdop>0.8</vdop><pdop>1.2</pdop></trkpt>
<trkpt lat="34.30976571" lon="132.30417953"><ele>30.0</ele><time>2018-10-27T05:00:21.000Z</time><speed>0.0</speed><geoidheight>30.0</geoidheight><src>gps</src><sat>8</sat><hdop>0.8</hdop><vdop>0.8</vdop><pdop>1.1</pdop></trkpt>
<trkpt lat="34.30974883" lon="132.30415133"><ele>26.0</ele><time>2018-10-27T05:01:22.000Z</time><speed>0.0</speed><geoidheight>30.0</geoidheight><src>gps</src><sat>8</sat><hdop>0.8</hdop><vdop>0.8</vdop><pdop>1.1</pdop></trkpt>
<trkpt lat="34.30975451" lon="132.30418296"><ele>29.0</ele><time>2018-10-27T05:02:23.000Z</time><speed>0.0</speed><geoidheight>30.0</geoidheight><src>gps</src><sat>8</sat><hdop>0.8</hdop><vdop>0.8</vdop><pdop>1.2</pdop></trkpt>
<trkpt lat="34.30977962" lon="132.30410639"><ele>26.0</ele><time>2018-10-27T05:03:24.000Z</time><speed>0.0</speed><geoidheight>30.0</geoidheight><src>gps</src><sat>9</sat><hdop>0.8</hdop><vdop>0.8</vdop><pdop>1.1</pdop></trkpt>
<trkpt lat="34.3097865" lon="132.30417172"><ele>34.0</ele><time>2018-10-27T05:04:25.000Z</time><speed>0.0</speed><geoidheight>30.0</geoidheight><src>gps</src><sat>8</sat><hdop>0.7</hdop><vdop>0.7</vdop><pdop>1.0</pdop></trkpt>
<trkpt lat="34.30976469" lon="132.30416622"><ele>26.0</ele><time>2018-10-27T05:05:26.000Z</time><course>227.2</course><speed>0.32015622</speed><geoidheight>30.0</geoidheight><src>gps</src><sat>8</sat><hdop>0.9</hdop><vdop>0.8</vdop><pdop>1.2</pdop></trkpt>
<trkpt lat="34.30976436" lon="132.30417007"><ele>29.0</ele><time>2018-10-27T05:06:26.000Z</time><course>100.3</course><speed>0.39623225</speed><geoidheight>30.0</geoidheight><src>gps</src><sat>7</sat><hdop>0.7</hdop><vdop>0.7</vdop><pdop>1.0</pdop></trkpt>
<trkpt lat="34.30977001" lon="132.30423571"><ele>27.0</ele><time>2018-10-27T05:07:26.000Z</time><speed>0.0</speed><geoidheight>30.0</geoidheight><src>gps</src><sat>10</sat><hdop>0.9</hdop><vdop>0.8</vdop><pdop>1.3</pdop></trkpt>
<trkpt lat="34.30977063" lon="132.30423303"><ele>27.0</ele><time>2018-10-27T05:08:28.000Z</time><speed>0.0</speed><geoidheight>30.0</geoidheight><src>gps</src><sat>11</sat><hdop>0.9</hdop><vdop>0.9</vdop><pdop>1.3</pdop></trkpt>
<trkpt lat="34.30977337" lon="132.30423097"><ele>27.0</ele><time>2018-10-27T05:09:29.000Z</time><speed>0.0</speed><geoidheight>30.0</geoidheight><src>gps</src><sat>11</sat><hdop>1.0</hdop><vdop>0.9</vdop><pdop>1.3</pdop></trkpt>
<trkpt lat="34.30977411" lon="132.30423155"><ele>27.0</ele><time>2018-10-27T05:10:30.000Z</time><speed>0.0</speed><geoidheight>30.0</geoidheight><src>gps</src><sat>11</sat><hdop>0.7</hdop><vdop>0.8</vdop><pdop>1.1</pdop></trkpt>
<trkpt lat="34.30977358" lon="132.30423301"><ele>28.0</ele><time>2018-10-27T05:11:32.000Z</time><speed>0.0</speed><geoidheight>30.0</geoidheight><src>gps</src><sat>8</sat></trkpt>
<trkpt lat="34.30977964" lon="132.30421773"><ele>30.0</ele><time>2018-10-27T05:12:43.000Z</time><speed>0.0</speed><geoidheight>30.0</geoidheight><src>gps</src><sat>11</sat><hdop>1.3</hdop><vdop>0.9</vdop><pdop>1.6</pdop></trkpt>
<trkpt lat="34.30977978" lon="132.30421859"><ele>31.0</ele><time>2018-10-27T05:13:44.000Z</time><speed>0.0</speed><geoidheight>30.0</geoidheight><src>gps</src><sat>10</sat><hdop>0.8</hdop><vdop>0.8</vdop><pdop>1.2</pdop></trkpt>
<trkpt lat="34.30977963" lon="132.30422121"><ele>31.0</ele><time>2018-10-27T05:14:45.000Z</time><speed>0.0</speed><geoidheight>30.0</geoidheight><src>gps</src><sat>6</sat><hdop>1.1</hdop><vdop>0.9</vdop><pdop>1.4</pdop></trkpt>
<trkpt lat="34.30976836" lon="132.30416226"><ele>29.0</ele><time>2018-10-27T05:15:46.000Z</time><speed>0.0</speed><geoidheight>30.0</geoidheight><src>gps</src><sat>10</sat><hdop>0.7</hdop><vdop>0.8</vdop><pdop>1.1</pdop></trkpt>
<trkpt lat="34.30976186" lon="132.30416958"><ele>21.0</ele><time>2018-10-27T05:16:47.000Z</time><speed>0.0</speed><geoidheight>30.0</geoidheight><src>gps</src><sat>7</sat><hdop>1.2</hdop><vdop>0.9</vdop><pdop>1.5</pdop></trkpt>
<trkpt lat="34.30980255" lon="132.30418023"><ele>19.0</ele><time>2018-10-27T05:17:48.000Z</time><speed>0.0</speed><geoidheight>30.0</geoidheight><src>gps</src><sat>7</sat><hdop>1.0</hdop><vdop>0.9</vdop><pdop>1.3</pdop></trkpt>
<trkpt lat="34.30977443" lon="132.30417053"><ele>32.0</ele><time>2018-10-27T05:18:49.000Z</time><speed>0.0</speed><geoidheight>30.0</geoidheight><src>gps</src><sat>7</sat><hdop>1.0</hdop><vdop>0.9</vdop><pdop>1.3</pdop></trkpt>
<trkpt lat="34.3097894" lon="132.30418293"><ele>30.0</ele><time>2018-10-27T05:19:50.000Z</time><speed>0.0</speed><geoidheight>30.0</geoidheight><src>gps</src><sat>10</sat><hdop>0.9</hdop><vdop>0.8</vdop><pdop>1.3</pdop></trkpt>
<trkpt lat="34.30978896" lon="132.30418387"><ele>30.0</ele><time>2018-10-27T05:20:50.000Z</time><speed>0.0</speed><geoidheight>30.0</geoidheight><src>gps</src><sat>8</sat><hdop>0.8</hdop><vdop>0.8</vdop><pdop>1.2</pdop></trkpt>
<trkpt lat="34.30978869" lon="132.30418411"><ele>30.0</ele><time>2018-10-27T05:21:51.000Z</time><speed>0.0</speed><geoidheight>30.0</geoidheight><src>gps</src><sat>8</sat><hdop>1.0</hdop><vdop>0.9</vdop><pdop>1.3</pdop></trkpt>
<trkpt lat="34.30978922" lon="132.3041843"><ele>30.0</ele><time>2018-10-27T05:22:52.000Z</time><speed>0.0</speed><geoidheight>30.0</geoidheight><src>gps</src><sat>7</sat><hdop>0.9</hdop><vdop>0.9</vdop><pdop>1.3</pdop></trkpt>
<trkpt lat="34.30978896" lon="132.30418402"><ele>30.0</ele><time>2018-10-27T05:23:53.000Z</time><speed>0.0</speed><geoidheight>30.0</geoidheight><src>gps</src><sat>11</sat><hdop>0.7</hdop><vdop>0.8</vdop><pdop>1.0</pdop></trkpt>
<trkpt lat="34.30978873" lon="132.30418429"><ele>30.0</ele><time>2018-10-27T05:24:55.000Z</time><speed>0.0</speed><geoidheight>30.0</geoidheight><src>gps</src><sat>11</sat><hdop>0.7</hdop><vdop>0.8</vdop><pdop>1.1</pdop></trkpt>
<trkpt lat="34.30978825" lon="132.30418436"><ele>30.0</ele><time>2018-10-27T05:25:57.000Z</time><speed>0.0</speed><geoidheight>30.0</geoidheight><src>gps</src><sat>11</sat><hdop>0.7</hdop><vdop>0.8</vdop><pdop>1.1</pdop></trkpt>
<trkpt lat="34.30978805" lon="132.30418444"><ele>30.0</ele><time>2018-10-27T05:26:59.000Z</time><speed>0.0</speed><geoidheight>30.0</geoidheight><src>gps</src><sat>11</sat><hdop>0.8</hdop><vdop>0.8</vdop><pdop>1.1</pdop></trkpt>
<trkpt lat="34.3097879" lon="132.30418454"><ele>29.0</ele><time>2018-10-27T05:28:00.000Z</time><speed>0.0</speed><geoidheight>30.0</geoidheight><src>gps</src><sat>11</sat><hdop>0.8</hdop><vdop>0.8</vdop><pdop>1.2</pdop></trkpt>
<trkpt lat="34.30972474" lon="132.30415673"><ele>39.0</ele><time>2018-10-27T05:29:01.000Z</time><speed>0.0</speed><geoidheight>30.0</geoidheight><src>gps</src><sat>7</sat><hdop>0.8</hdop><vdop>0.8</vdop><pdop>1.2</pdop></trkpt>
<trkpt lat="34.30972805" lon="132.30415914"><ele>39.0</ele><time>2018-10-27T05:30:02.000Z</time><speed>0.0</speed><geoidheight>30.0</geoidheight><src>gps</src><sat>11</sat><hdop>0.7</hdop><vdop>0.8</vdop><pdop>1.0</pdop></trkpt>
<trkpt lat="34.30972712" lon="132.30415938"><ele>39.0</ele><time>2018-10-27T05:31:03.000Z</time><speed>0.0</speed><geoidheight>30.0</geoidheight><src>gps</src><sat>13</sat><hdop>0.7</hdop><vdop>0.8</vdop><pdop>1.0</pdop></trkpt>
<trkpt lat="34.30973924" lon="132.30415635"><ele>27.0</ele><time>2018-10-27T05:32:04.000Z</time><speed>0.0</speed><geoidheight>30.0</geoidheight><src>gps</src><sat>8</sat><hdop>0.9</hdop><vdop>0.9</vdop><pdop>1.3</pdop></trkpt>
<trkpt lat="34.30977014" lon="132.30416348"><ele>23.0</ele><time>2018-10-27T05:33:04.000Z</time><speed>0.0</speed><geoidheight>30.0</geoidheight><src>gps</src><sat>11</sat><hdop>0.7</hdop><vdop>0.8</vdop><pdop>1.0</pdop></trkpt>
<trkpt lat="34.30977105" lon="132.30416544"><ele>23.0</ele><time>2018-10-27T05:34:05.000Z</time><speed>0.0</speed><geoidheight>30.0</geoidheight><src>gps</src><sat>12</sat><hdop>0.7</hdop><vdop>0.8</vdop><pdop>1.1</pdop></trkpt>
<trkpt lat="34.30977045" lon="132.30416627"><ele>23.0</ele><time>2018-10-27T05:35:06.000Z</time><speed>0.0</speed><geoidheight>30.0</geoidheight><src>gps</src><sat>11</sat><hdop>0.8</hdop><vdop>0.8</vdop><pdop>1.2</pdop></trkpt>
<trkpt lat="34.30977057" lon="132.30416615"><ele>23.0</ele><time>2018-10-27T05:36:07.000Z</time><speed>0.0</speed><geoidheight>30.0</geoidheight><src>gps</src><sat>9</sat><hdop>0.9</hdop><vdop>0.9</vdop><pdop>1.3</pdop></trkpt>
<trkpt lat="34.30977056" lon="132.30416657"><ele>24.0</ele><time>2018-10-27T05:37:08.000Z</time><speed>0.0</speed><geoidheight>30.0</geoidheight><src>gps</src><sat>9</sat><hdop>1.0</hdop><vdop>0.9</vdop><pdop>1.3</pdop></trkpt>
<trkpt lat="34.30977038" lon="132.30416744"><ele>24.0</ele><time>2018-10-27T05:38:09.000Z</time><speed>0.0</speed><geoidheight>30.0</geoidheight><src>gps</src><sat>9</sat><hdop>0.9</hdop><vdop>0.8</vdop><pdop>1.2</pdop></trkpt>
<trkpt lat="34.30977097" lon="132.30416764"><ele>24.0</ele><time>2018-10-27T05:39:10.000Z</time><speed>0.0</speed><geoidheight>30.0</geoidheight><src>gps</src><sat>9</sat><hdop>0.9</hdop><vdop>0.9</vdop><pdop>1.3</pdop></trkpt>
<trkpt lat="34.30977133" lon="132.30416762"><ele>24.0</ele><time>2018-10-27T05:40:11.000Z</time><speed>0.0</speed><geoidheight>30.0</geoidheight><src>gps</src><sat>8</sat><hdop>0.8</hdop><vdop>0.8</vdop><pdop>1.2</pdop></trkpt>
<trkpt lat="34.30977161" lon="132.30416814"><ele>24.0</ele><time>2018-10-27T05:41:12.000Z</time><speed>0.0</speed><geoidheight>30.0</geoidheight><src>gps</src><sat>12</sat><hdop>0.7</hdop><vdop>0.8</vdop><pdop>1.1</pdop></trkpt>
<trkpt lat="34.30977194" lon="132.30416875"><ele>24.0</ele><time>2018-10-27T05:42:13.000Z</time><speed>0.0</speed><geoidheight>30.0</geoidheight><src>gps</src><sat>11</sat><hdop>1.0</hdop><vdop>0.8</vdop><pdop>1.3</pdop></trkpt>
<trkpt lat="34.30977159" lon="132.30417014"><ele>25.0</ele><time>2018-10-27T05:43:14.000Z</time><speed>0.0</speed><geoidheight>30.0</geoidheight><src>gps</src><sat>16</sat><hdop>0.9</hdop><vdop>0.9</vdop><pdop>1.3</pdop></trkpt>
<trkpt lat="34.30977168" lon="132.30417027"><ele>25.0</ele><time>2018-10-27T05:44:15.000Z</time><speed>0.0</speed><geoidheight>30.0</geoidheight><src>gps</src><sat>16</sat><hdop>1.1</hdop><vdop>1.0</vdop><pdop>1.4</pdop></trkpt>
<trkpt lat="34.30977099" lon="132.30417065"><ele>25.0</ele><time>2018-10-27T05:45:16.000Z</time><speed>0.0</speed><geoidheight>30.0</geoidheight><src>gps</src><sat>11</sat><hdop>0.9</hdop><vdop>0.9</vdop><pdop>1.3</pdop></trkpt>
<trkpt lat="34.3097711" lon="132.30417212"><ele>25.0</ele><time>2018-10-27T05:46:17.000Z</time><speed>0.0</speed><geoidheight>30.0</geoidheight><src>gps</src><sat>16</sat><hdop>0.9</hdop><vdop>0.9</vdop><pdop>1.3</pdop></trkpt>
<trkpt lat="34.30977073" lon="132.30417254"><ele>25.0</ele><time>2018-10-27T05:47:18.000Z</time><speed>0.0</speed><geoidheight>30.0</geoidheight><src>gps</src><sat>14</sat><hdop>0.8</hdop><vdop>0.8</vdop><pdop>1.1</pdop></trkpt>
<trkpt lat="34.30977097" lon="132.30417335"><ele>25.0</ele><time>2018-10-27T05:48:19.000Z</time><speed>0.0</speed><geoidheight>30.0</geoidheight><src>gps</src><sat>11</sat><hdop>0.8</hdop><vdop>0.8</vdop><pdop>1.2</pdop></trkpt>
<trkpt lat="34.30977089" lon="132.30417365"><ele>25.0</ele><time>2018-10-27T05:49:20.000Z</time><speed>0.0</speed><geoidheight>30.0</geoidheight><src>gps</src><sat>16</sat><hdop>0.7</hdop><vdop>0.8</vdop><pdop>1.1</pdop></trkpt>
<trkpt lat="34.30975655" lon="132.30417071"><ele>33.0</ele><time>2018-10-27T05:50:21.000Z</time><speed>0.0</speed><geoidheight>30.0</geoidheight><src>gps</src><sat>8</sat><hdop>0.8</hdop><vdop>0.8</vdop><pdop>1.1</pdop></trkpt>
<trkpt lat="34.30985302" lon="132.3044064"><ele>30.0</ele><time>2018-10-27T05:51:21.000Z</time><course>148.1</course><speed>0.8077747</speed><geoidheight>30.0</geoidheight><src>gps</src><sat>9</sat><hdop>0.7</hdop><vdop>0.8</vdop><pdop>1.1</pdop></trkpt>
<trkpt lat="34.3098542" lon="132.30439588"><ele>42.0</ele><time>2018-10-27T05:52:22.000Z</time><speed>0.0</speed><geoidheight>30.0</geoidheight><src>gps</src><sat>10</sat><hdop>0.6</hdop><vdop>0.8</vdop><pdop>1.0</pdop></trkpt>
<trkpt lat="34.30987024" lon="132.30444576"><ele>28.0</ele><time>2018-10-27T05:53:23.000Z</time><speed>0.0</speed><geoidheight>30.0</geoidheight><src>gps</src><sat>15</sat><hdop>0.6</hdop><vdop>0.8</vdop><pdop>1.0</pdop></trkpt>
<trkpt lat="34.31025696" lon="132.3042231"><ele>40.0</ele><time>2018-10-27T05:54:24.000Z</time><course>71.1</course><speed>3.3853362</speed><geoidheight>30.0</geoidheight><src>gps</src><sat>14</sat><hdop>0.6</hdop><vdop>0.7</vdop><pdop>0.9</pdop></trkpt>
<trkpt lat="34.31141792" lon="132.304245"><ele>41.0</ele><time>2018-10-27T05:55:25.000Z</time><course>308.8</course><speed>2.5212696</speed><geoidheight>30.0</geoidheight><src>gps</src><sat>14</sat><hdop>0.6</hdop><vdop>0.7</vdop><pdop>0.9</pdop></trkpt>
<trkpt lat="34.31238315" lon="132.30376566"><ele>36.0</ele><time>2018-10-27T05:56:26.000Z</time><course>19.1</course><speed>4.040792</speed><geoidheight>30.0</geoidheight><src>gps</src><sat>12</sat><hdop>0.6</hdop><vdop>0.7</vdop><pdop>0.9</pdop></trkpt>
<trkpt lat="34.3149706" lon="132.305168"><ele>38.0</ele><time>2018-10-27T05:57:27.000Z</time><course>37.5</course><speed>5.710035</speed><geoidheight>30.0</geoidheight><src>gps</src><sat>14</sat><hdop>0.6</hdop><vdop>0.7</vdop><pdop>0.9</pdop></trkpt>
<trkpt lat="34.31717172" lon="132.30855058"><ele>36.0</ele><time>2018-10-27T05:58:28.000Z</time><course>55.4</course><speed>6.6607504</speed><geoidheight>30.0</geoidheight><src>gps</src><sat>15</sat><hdop>0.6</hdop><vdop>0.7</vdop><pdop>0.9</pdop></trkpt>
<trkpt lat="34.319372" lon="132.31181436"><ele>36.0</ele><time>2018-10-27T05:59:29.000Z</time><course>36.4</course><speed>6.190008</speed><geoidheight>30.0</geoidheight><src>gps</src><sat>16</sat><hdop>0.6</hdop><vdop>0.7</vdop><pdop>0.9</pdop></trkpt>
<trkpt lat="34.32192298" lon="132.31451643"><ele>35.0</ele><time>2018-10-27T06:00:30.000Z</time><course>43.6</course><speed>6.080074</speed><geoidheight>30.0</geoidheight><src>gps</src><sat>13</sat><hdop>0.6</hdop><vdop>0.7</vdop><pdop>0.9</pdop></trkpt>
<trkpt lat="34.32379228" lon="132.31655624"><ele>39.0</ele><time>2018-10-27T06:01:31.000Z</time><course>39.7</course><speed>4.031005</speed><geoidheight>30.0</geoidheight><src>gps</src><sat>13</sat><hdop>0.6</hdop><vdop>0.7</vdop><pdop>0.9</pdop></trkpt>
<trkpt lat="34.3263551" lon="132.31826605"><ele>35.0</ele><time>2018-10-27T06:02:32.000Z</time><course>1.6</course><speed>5.66</speed><geoidheight>30.0</geoidheight><src>gps</src><sat>15</sat><hdop>0.6</hdop><vdop>0.7</vdop><pdop>0.9</pdop></trkpt>
<trkpt lat="34.329297" lon="132.31897582"><ele>36.0</ele><time>2018-10-27T06:03:33.000Z</time><course>28.4</course><speed>5.03004</speed><geoidheight>30.0</geoidheight><src>gps</src><sat>14</sat><hdop>0.6</hdop><vdop>0.8</vdop><pdop>1.0</pdop></trkpt>
<trkpt lat="34.3315269" lon="132.31934393"><ele>48.0</ele><time>2018-10-27T06:04:34.000Z</time><course>337.2</course><speed>3.802223</speed><geoidheight>30.0</geoidheight><src>gps</src><sat>10</sat><hdop>0.6</hdop><vdop>0.7</vdop><pdop>0.9</pdop></trkpt>
<trkpt lat="34.33340386" lon="132.31719758"><ele>45.0</ele><time>2018-10-27T06:05:35.000Z</time><course>321.1</course><speed>6.610189</speed><geoidheight>30.0</geoidheight><src>gps</src><sat>13</sat><hdop>0.6</hdop><vdop>0.7</vdop><pdop>0.9</pdop></trkpt>
<trkpt lat="34.33637257" lon="132.31507416"><ele>42.0</ele><time>2018-10-27T06:06:37.000Z</time><course>346.1</course><speed>4.903305</speed><geoidheight>30.0</geoidheight><src>gps</src><sat>16</sat><hdop>0.6</hdop><vdop>0.7</vdop><pdop>0.9</pdop></trkpt>
<trkpt lat="34.33948958" lon="132.31505961"><ele>42.0</ele><time>2018-10-27T06:07:38.000Z</time><course>11.0</course><speed>6.72003</speed><geoidheight>30.0</geoidheight><src>gps</src><sat>14</sat><hdop>0.6</hdop><vdop>0.7</vdop><pdop>0.9</pdop></trkpt>
<trkpt lat="34.34301171" lon="132.31658568"><ele>42.0</ele><time>2018-10-27T06:08:39.000Z</time><course>16.7</course><speed>6.871863</speed><geoidheight>30.0</geoidheight><src>gps</src><sat>11</sat><hdop>0.6</hdop><vdop>0.8</vdop><pdop>1.0</pdop></trkpt>
<trkpt lat="34.34584077" lon="132.31725096"><ele>45.0</ele><time>2018-10-27T06:09:40.000Z</time><course>15.3</course><speed>5.3701487</speed><geoidheight>30.0</geoidheight><src>gps</src><sat>12</sat><hdop>0.6</hdop><vdop>0.7</vdop><pdop>0.9</pdop></trkpt>
<trkpt lat="34.3487288" lon="132.31843348"><ele>41.0</ele><time>2018-10-27T06:10:42.000Z</time><course>24.3</course><speed>5.850077</speed><geoidheight>30.0</geoidheight><src>gps</src><sat>13</sat><hdop>0.5</hdop><vdop>0.6</vdop><pdop>0.8</pdop></trkpt>
<trkpt lat="34.35159017" lon="132.32022458"><ele>43.0</ele><time>2018-10-27T06:11:43.000Z</time><course>24.4</course><speed>4.0401115</speed><geoidheight>30.0</geoidheight><src>gps</src><sat>16</sat><hdop>0.6</hdop><vdop>0.6</vdop><pdop>0.8</pdop></trkpt>
<trkpt lat="34.35329614" lon="132.32130388"><ele>53.0</ele><time>2018-10-27T06:12:44.000Z</time><course>29.2</course><speed>3.070798</speed><geoidheight>30.0</geoidheight><src>gps</src><sat>13</sat><hdop>0.8</hdop><vdop>0.8</vdop><pdop>1.1</pdop></trkpt>
<trkpt lat="34.35434209" lon="132.32200001"><ele>68.0</ele><time>2018-10-27T06:13:43.000Z</time><speed>0.0</speed><geoidheight>30.0</geoidheight><src>gps</src><sat>14</sat></trkpt>
<trkpt lat="34.3551525" lon="132.32270626"><ele>58.0</ele><time>2018-10-27T06:14:45.000Z</time><course>35.6</course><speed>5.9816384</speed><geoidheight>30.0</geoidheight><src>gps</src><sat>17</sat><hdop>0.5</hdop><vdop>0.6</vdop><pdop>0.8</pdop></trkpt>
<trkpt lat="34.35731208" lon="132.32500418"><ele>56.0</ele><time>2018-10-27T06:15:46.000Z</time><speed>0.0</speed><geoidheight>30.0</geoidheight><src>gps</src><sat>16</sat><hdop>0.6</hdop><vdop>0.7</vdop><pdop>0.9</pdop></trkpt>
<trkpt lat="34.35731681" lon="132.32500335"><ele>58.0</ele><time>2018-10-27T06:16:47.000Z</time><speed>0.0</speed><geoidheight>30.0</geoidheight><src>gps</src><sat>17</sat><hdop>0.5</hdop><vdop>0.6</vdop><pdop>0.8</pdop></trkpt>
<trkpt lat="34.35816952" lon="132.32533877"><ele>57.0</ele><time>2018-10-27T06:17:48.000Z</time><course>82.8</course><speed>2.8734124</speed><geoidheight>30.0</geoidheight><src>gps</src><sat>16</sat><hdop>0.7</hdop><vdop>0.7</vdop><pdop>1.0</pdop></trkpt>
<trkpt lat="34.35701981" lon="132.327378"><ele>51.0</ele><time>2018-10-27T06:18:49.000Z</time><course>43.7</course><speed>2.5823438</speed><geoidheight>30.0</geoidheight><src>gps</src><sat>14</sat><hdop>0.6</hdop><vdop>0.6</vdop><pdop>0.8</pdop></trkpt>
<trkpt lat="34.35698403" lon="132.32917744"><ele>45.0</ele><time>2018-10-27T06:19:50.000Z</time><course>133.6</course><speed>4.484919</speed><geoidheight>30.0</geoidheight><src>gps</src><sat>14</sat><hdop>0.7</hdop><vdop>0.7</vdop><pdop>1.0</pdop></trkpt>
<trkpt lat="34.35734534" lon="132.33175971"><ele>41.0</ele><time>2018-10-27T06:20:51.000Z</time><course>51.6</course><speed>5.2850075</speed><geoidheight>30.0</geoidheight><src>gps</src><sat>16</sat><hdop>0.6</hdop><vdop>0.7</vdop><pdop>0.9</pdop></trkpt>
<trkpt lat="34.35885653" lon="132.33428248"><ele>44.0</ele><time>2018-10-27T06:21:52.000Z</time><course>54.7</course><speed>6.071186</speed><geoidheight>30.0</geoidheight><src>gps</src><sat>15</sat><hdop>0.6</hdop><vdop>0.7</vdop><pdop>0.9</pdop></trkpt>
<trkpt lat="34.36133298" lon="132.33733754"><ele>41.0</ele><time>2018-10-27T06:22:52.000Z</time><course>37.3</course><speed>6.63</speed><geoidheight>30.0</geoidheight><src>gps</src><sat>18</sat><hdop>0.5</hdop><vdop>0.6</vdop><pdop>0.8</pdop></trkpt>
<trkpt lat="34.3624225" lon="132.3390319"><ele>46.0</ele><time>2018-10-27T06:23:53.000Z</time><course>69.2</course><speed>1.9921848</speed><geoidheight>30.0</geoidheight><src>gps</src><sat>17</sat><hdop>0.6</hdop><vdop>0.6</vdop><pdop>0.8</pdop></trkpt>
<trkpt lat="34.36160562" lon="132.34088244"><ele>45.0</ele><time>2018-10-27T06:24:54.000Z</time><course>129.7</course><speed>1.8361373</speed><geoidheight>30.0</geoidheight><src>gps</src><sat>16</sat><hdop>0.6</hdop><vdop>0.7</vdop><pdop>0.9</pdop></trkpt>
<trkpt lat="34.3621948" lon="132.3399773"><ele>50.0</ele><time>2018-10-27T06:25:55.000Z</time><speed>0.0</speed><geoidheight>30.0</geoidheight><src>gps</src><sat>17</sat><hdop>0.5</hdop><vdop>0.6</vdop><pdop>0.8</pdop></trkpt>
<trkpt lat="34.36372589" lon="132.34142348"><ele>39.0</ele><time>2018-10-27T06:26:56.000Z</time><course>50.7</course><speed>5.5915117</speed><geoidheight>30.0</geoidheight><src>gps</src><sat>16</sat><hdop>0.7</hdop><vdop>0.7</vdop><pdop>1.0</pdop></trkpt>
<trkpt lat="34.36396649" lon="132.34340913"><ele>43.0</ele><time>2018-10-27T06:27:56.000Z</time><speed>0.0</speed><geoidheight>30.0</geoidheight><src>gps</src><sat>14</sat><hdop>0.6</hdop><vdop>0.7</vdop><pdop>1.0</pdop></trkpt>
<trkpt lat="34.36391286" lon="132.34597426"><ele>35.0</ele><time>2018-10-27T06:28:56.000Z</time><course>83.0</course><speed>5.7314744</speed><geoidheight>30.0</geoidheight><src>gps</src><sat>15</sat><hdop>0.6</hdop><vdop>0.7</vdop><pdop>0.9</pdop></trkpt>
<trkpt lat="34.36406597" lon="132.34902112"><ele>38.0</ele><time>2018-10-27T06:29:57.000Z</time><course>111.1</course><speed>1.2007082</speed><geoidheight>30.0</geoidheight><src>gps</src><sat>16</sat><hdop>0.6</hdop><vdop>0.6</vdop><pdop>0.8</pdop></trkpt>
<trkpt lat="34.36371394" lon="132.35022376"><ele>39.0</ele><time>2018-10-27T06:30:58.000Z</time><course>84.9</course><speed>5.2700853</speed><geoidheight>30.0</geoidheight><src>gps</src><sat>13</sat><hdop>0.5</hdop><vdop>0.6</vdop><pdop>0.8</pdop></trkpt>
<trkpt lat="34.36413216" lon="132.35371629"><ele>42.0</ele><time>2018-10-27T06:31:59.000Z</time><course>63.1</course><speed>5.0819287</speed><geoidheight>30.0</geoidheight><src>gps</src><sat>16</sat><hdop>0.5</hdop><vdop>0.6</vdop><pdop>0.8</pdop></trkpt>
<trkpt lat="34.36452562" lon="132.35715902"><ele>43.0</ele><time>2018-10-27T06:33:00.000Z</time><course>87.8</course><speed>4.1811957</speed><geoidheight>30.0</geoidheight><src>gps</src><sat>16</sat><hdop>0.5</hdop><vdop>0.6</vdop><pdop>0.8</pdop></trkpt>
<trkpt lat="34.3646611" lon="132.3579896"><ele>54.0</ele><time>2018-10-27T06:34:01.000Z</time><course>87.6</course><speed>3.263449</speed><geoidheight>30.0</geoidheight><src>gps</src><sat>16</sat><hdop>0.5</hdop><vdop>0.6</vdop><pdop>0.8</pdop></trkpt>
<trkpt lat="34.36506257" lon="132.36152731"><ele>44.0</ele><time>2018-10-27T06:35:02.000Z</time><course>77.9</course><speed>4.549121</speed><geoidheight>30.0</geoidheight><src>gps</src><sat>16</sat><hdop>0.6</hdop><vdop>0.6</vdop><pdop>0.8</pdop></trkpt>
<trkpt lat="34.36547312" lon="132.36505577"><ele>40.0</ele><time>2018-10-27T06:36:03.000Z</time><course>76.3</course><speed>6.0102997</speed><geoidheight>30.0</geoidheight><src>gps</src><sat>15</sat><hdop>0.6</hdop><vdop>0.6</vdop><pdop>0.9</pdop></trkpt>
<trkpt lat="34.36620783" lon="132.3686751"><ele>44.0</ele><time>2018-10-27T06:37:04.000Z</time><course>68.1</course><speed>4.314638</speed><geoidheight>30.0</geoidheight><src>gps</src><sat>16</sat><hdop>0.6</hdop><vdop>0.6</vdop><pdop>0.9</pdop></trkpt>
<trkpt lat="34.36693407" lon="132.37174209"><ele>39.0</ele><time>2018-10-27T06:38:05.000Z</time><course>77.1</course><speed>4.7908454</speed><geoidheight>30.0</geoidheight><src>gps</src><sat>17</sat><hdop>0.6</hdop><vdop>0.7</vdop><pdop>0.9</pdop></trkpt>
<trkpt lat="34.36786892" lon="132.3746808"><ele>39.0</ele><time>2018-10-27T06:39:06.000Z</time><course>66.9</course><speed>6.340071</speed><geoidheight>30.0</geoidheight><src>gps</src><sat>14</sat><hdop>0.6</hdop><vdop>0.7</vdop><pdop>0.9</pdop></trkpt>
<trkpt lat="34.36911464" lon="132.3787119"><ele>37.0</ele><time>2018-10-27T06:40:07.000Z</time><course>76.3</course><speed>6.180979</speed><geoidheight>30.0</geoidheight><src>gps</src><sat>16</sat><hdop>0.6</hdop><vdop>0.6</vdop><pdop>0.9</pdop></trkpt>
<trkpt lat="34.37008642" lon="132.38269065"><ele>35.0</ele><time>2018-10-27T06:41:08.000Z</time><course>71.8</course><speed>6.5301914</speed><geoidheight>30.0</geoidheight><src>gps</src><sat>17</sat><hdop>0.6</hdop><vdop>0.6</vdop><pdop>0.9</pdop></trkpt>
<trkpt lat="34.37174133" lon="132.38595728"><ele>45.0</ele><time>2018-10-27T06:42:09.000Z</time><course>51.1</course><speed>6.0205317</speed><geoidheight>30.0</geoidheight><src>gps</src><sat>17</sat><hdop>0.6</hdop><vdop>0.7</vdop><pdop>0.9</pdop></trkpt>
<trkpt lat="34.37386155" lon="132.38962019"><ele>41.0</ele><time>2018-10-27T06:43:09.000Z</time><course>56.4</course><speed>6.940065</speed><geoidheight>30.0</geoidheight><src>gps</src><sat>17</sat><hdop>0.6</hdop><vdop>0.7</vdop><pdop>0.9</pdop></trkpt>
<trkpt lat="34.37595259" lon="132.39314033"><ele>40.0</ele><time>2018-10-27T06:44:09.000Z</time><course>62.3</course><speed>6.2842107</speed><geoidheight>30.0</geoidheight><src>gps</src><sat>16</sat><hdop>0.6</hdop><vdop>0.7</vdop><pdop>0.9</pdop></trkpt>
<trkpt lat="34.37734046" lon="132.39676177"><ele>40.0</ele><time>2018-10-27T06:45:10.000Z</time><course>77.7</course><speed>5.6112833</speed><geoidheight>30.0</geoidheight><src>gps</src><sat>12</sat><hdop>0.6</hdop><vdop>0.7</vdop><pdop>0.9</pdop></trkpt>
<trkpt lat="34.37789207" lon="132.40064068"><ele>42.0</ele><time>2018-10-27T06:46:10.000Z</time><course>76.7</course><speed>6.7521405</speed><geoidheight>30.0</geoidheight><src>gps</src><sat>11</sat><hdop>0.7</hdop><vdop>0.7</vdop><pdop>1.0</pdop></trkpt>
<trkpt lat="34.37939449" lon="132.40439155"><ele>38.0</ele><time>2018-10-27T06:47:11.000Z</time><course>63.4</course><speed>5.1711893</speed><geoidheight>30.0</geoidheight><src>gps</src><sat>14</sat><hdop>0.6</hdop><vdop>0.7</vdop><pdop>0.9</pdop></trkpt>
<trkpt lat="34.38083098" lon="132.4079517"><ele>38.0</ele><time>2018-10-27T06:48:12.000Z</time><course>67.1</course><speed>6.4101944</speed><geoidheight>30.0</geoidheight><src>gps</src><sat>15</sat><hdop>0.6</hdop><vdop>0.7</vdop><pdop>0.9</pdop></trkpt>
<trkpt lat="34.3820588" lon="132.41153759"><ele>42.0</ele><time>2018-10-27T06:49:13.000Z</time><course>71.2</course><speed>5.59473</speed><geoidheight>30.0</geoidheight><src>gps</src><sat>14</sat><hdop>0.6</hdop><vdop>0.7</vdop><pdop>0.9</pdop></trkpt>
<trkpt lat="34.38286614" lon="132.41403664"><ele>50.0</ele><time>2018-10-27T06:50:14.000Z</time><course>96.4</course><speed>3.1669703</speed><geoidheight>30.0</geoidheight><src>gps</src><sat>15</sat><hdop>0.6</hdop><vdop>0.7</vdop><pdop>0.9</pdop></trkpt>
<trkpt lat="34.38281901" lon="132.41734108"><ele>42.0</ele><time>2018-10-27T06:51:14.000Z</time><course>42.5</course><speed>6.001633</speed><geoidheight>30.0</geoidheight><src>gps</src><sat>15</sat><hdop>0.6</hdop><vdop>0.7</vdop><pdop>0.9</pdop></trkpt>
<trkpt lat="34.3850751" lon="132.41948677"><ele>44.0</ele><time>2018-10-27T06:52:15.000Z</time><course>51.5</course><speed>5.500327</speed><geoidheight>30.0</geoidheight><src>gps</src><sat>15</sat><hdop>0.6</hdop><vdop>0.7</vdop><pdop>0.9</pdop></trkpt>
<trkpt lat="34.38733798" lon="132.42137689"><ele>45.0</ele><time>2018-10-27T06:53:16.000Z</time><course>17.8</course><speed>5.510581</speed><geoidheight>30.0</geoidheight><src>gps</src><sat>15</sat><hdop>0.6</hdop><vdop>0.7</vdop><pdop>0.9</pdop></trkpt>
<trkpt lat="34.38875135" lon="132.42279367"><ele>49.0</ele><time>2018-10-27T06:54:16.000Z</time><course>77.8</course><speed>2.7002409</speed><geoidheight>30.0</geoidheight><src>gps</src><sat>15</sat><hdop>0.6</hdop><vdop>0.7</vdop><pdop>1.0</pdop></trkpt>
<trkpt lat="34.39005869" lon="132.42467288"><ele>43.0</ele><time>2018-10-27T06:55:17.000Z</time><course>45.5</course><speed>2.28</speed><geoidheight>30.0</geoidheight><src>gps</src><sat>15</sat><hdop>0.6</hdop><vdop>0.7</vdop><pdop>1.0</pdop></trkpt>
<trkpt lat="34.39039373" lon="132.42491187"><ele>41.0</ele><time>2018-10-27T06:56:18.000Z</time><speed>0.0</speed><geoidheight>30.0</geoidheight><src>gps</src><sat>15</sat><hdop>0.6</hdop><vdop>0.7</vdop><pdop>0.9</pdop></trkpt>
<trkpt lat="34.39039392" lon="132.42491277"><ele>41.0</ele><time>2018-10-27T06:57:19.000Z</time><speed>0.0</speed><geoidheight>30.0</geoidheight><src>gps</src><sat>15</sat><hdop>0.7</hdop><vdop>0.7</vdop><pdop>1.0</pdop></trkpt>
<trkpt lat="34.38919391" lon="132.42743934"><ele>47.0</ele><time>2018-10-27T06:58:20.000Z</time><course>125.6</course><speed>3.7004867</speed><geoidheight>30.0</geoidheight><src>gps</src><sat>15</sat><hdop>0.6</hdop><vdop>0.7</vdop><pdop>0.9</pdop></trkpt>
<trkpt lat="34.38869449" lon="132.42857718"><ele>37.0</ele><time>2018-10-27T06:59:21.000Z</time><course>112.4</course><speed>4.8008437</speed><geoidheight>30.0</geoidheight><src>gps</src><sat>15</sat><hdop>0.6</hdop><vdop>0.7</vdop><pdop>0.9</pdop></trkpt>
<trkpt lat="34.3875742" lon="132.43149522"><ele>24.0</ele><time>2018-10-27T07:00:22.000Z</time><course>98.9</course><speed>2.670019</speed><geoidheight>30.0</geoidheight><src>gps</src><sat>15</sat><hdop>0.6</hdop><vdop>0.7</vdop><pdop>0.9</pdop></trkpt>
<trkpt lat="34.3875355" lon="132.43174715"><ele>30.0</ele><time>2018-10-27T07:01:23.000Z</time><speed>0.0</speed><geoidheight>30.0</geoidheight><src>gps</src><sat>15</sat><hdop>0.6</hdop><vdop>0.7</vdop><pdop>0.9</pdop></trkpt>
<trkpt lat="34.38790581" lon="132.43305868"><ele>36.0</ele><time>2018-10-27T07:02:23.000Z</time><course>73.6</course><speed>5.1406226</speed><geoidheight>30.0</geoidheight><src>gps</src><sat>15</sat><hdop>0.6</hdop><vdop>0.7</vdop><pdop>0.9</pdop></trkpt>
<trkpt lat="34.38867906" lon="132.43598126"><ele>42.0</ele><time>2018-10-27T07:03:24.000Z</time><course>97.7</course><speed>0.2915476</speed><geoidheight>30.0</geoidheight><src>gps</src><sat>12</sat><hdop>0.6</hdop><vdop>0.7</vdop><pdop>0.9</pdop></trkpt>
<trkpt lat="34.38840933" lon="132.43696633"><ele>37.0</ele><time>2018-10-27T07:04:25.000Z</time><course>109.5</course><speed>5.152184</speed><geoidheight>30.0</geoidheight><src>gps</src><sat>12</sat><hdop>0.6</hdop><vdop>0.7</vdop><pdop>0.9</pdop></trkpt>
<trkpt lat="34.38739386" lon="132.44018734"><ele>40.0</ele><time>2018-10-27T07:05:26.000Z</time><course>114.6</course><speed>4.917418</speed><geoidheight>30.0</geoidheight><src>gps</src><sat>14</sat><hdop>0.6</hdop><vdop>0.7</vdop><pdop>0.9</pdop></trkpt>
<trkpt lat="34.38644792" lon="132.44280815"><ele>37.0</ele><time>2018-10-27T07:06:27.000Z</time><speed>0.0</speed><geoidheight>30.0</geoidheight><src>gps</src><sat>13</sat><hdop>0.6</hdop><vdop>0.7</vdop><pdop>1.0</pdop></trkpt>
<trkpt lat="34.38631609" lon="132.44324251"><ele>39.0</ele><time>2018-10-27T07:07:28.000Z</time><course>114.6</course><speed>4.1809688</speed><geoidheight>30.0</geoidheight><src>gps</src><sat>13</sat><hdop>0.6</hdop><vdop>0.7</vdop><pdop>0.9</pdop></trkpt>
<trkpt lat="34.38536996" lon="132.44636586"><ele>46.0</ele><time>2018-10-27T07:08:29.000Z</time><course>95.2</course><speed>3.8537514</speed><geoidheight>30.0</geoidheight><src>gps</src><sat>15</sat><hdop>0.7</hdop><vdop>0.7</vdop><pdop>1.0</pdop></trkpt>
<trkpt lat="34.38530026" lon="132.44841708"><ele>38.0</ele><time>2018-10-27T07:09:30.000Z</time><speed>0.0</speed><geoidheight>30.0</geoidheight><src>gps</src><sat>11</sat><hdop>0.6</hdop><vdop>0.7</vdop><pdop>1.0</pdop></trkpt>
<trkpt lat="34.38518271" lon="132.45009028"><ele>47.0</ele><time>2018-10-27T07:10:30.000Z</time><course>97.5</course><speed>4.7408543</speed><geoidheight>30.0</geoidheight><src>gps</src><sat>15</sat><hdop>0.6</hdop><vdop>0.7</vdop><pdop>0.9</pdop></trkpt>
<trkpt lat="34.38465007" lon="132.45441853"><ele>44.0</ele><time>2018-10-27T07:11:31.000Z</time><course>109.9</course><speed>6.7312555</speed><geoidheight>30.0</geoidheight><src>gps</src><sat>15</sat><hdop>0.6</hdop><vdop>0.7</vdop><pdop>0.9</pdop></trkpt>
<trkpt lat="34.38466711" lon="132.45696205"><ele>50.0</ele><time>2018-10-27T07:12:32.000Z</time><course>105.2</course><speed>4.7300425</speed><geoidheight>30.0</geoidheight><src>gps</src><sat>13</sat><hdop>0.7</hdop><vdop>0.7</vdop><pdop>1.0</pdop></trkpt>
<trkpt lat="34.38533998" lon="132.45954828"><ele>38.0</ele><time>2018-10-27T07:13:33.000Z</time><course>51.5</course><speed>4.430045</speed><geoidheight>30.0</geoidheight><src>gps</src><sat>16</sat><hdop>0.7</hdop><vdop>0.8</vdop><pdop>1.0</pdop></trkpt>
<trkpt lat="34.38667768" lon="132.4621138"><ele>43.0</ele><time>2018-10-27T07:14:34.000Z</time><course>56.4</course><speed>4.7402635</speed><geoidheight>30.0</geoidheight><src>gps</src><sat>15</sat><hdop>0.7</hdop><vdop>0.8</vdop><pdop>1.0</pdop></trkpt>
<trkpt lat="34.38730327" lon="132.46412653"><ele>43.0</ele><time>2018-10-27T07:15:35.000Z</time><course>39.0</course><speed>1.9267589</speed><geoidheight>30.0</geoidheight><src>gps</src><sat>17</sat><hdop>0.6</hdop><vdop>0.7</vdop><pdop>0.9</pdop></trkpt>
<trkpt lat="34.3882887" lon="132.4635495"><ele>42.0</ele><time>2018-10-27T07:16:35.000Z</time><course>293.8</course><speed>0.47434163</speed><geoidheight>30.0</geoidheight><src>gps</src><sat>12</sat><hdop>0.7</hdop><vdop>0.8</vdop><pdop>1.0</pdop></trkpt>
<trkpt lat="34.38819337" lon="132.4634076"><ele>35.0</ele><time>2018-10-27T07:17:36.000Z</time><speed>0.0</speed><geoidheight>30.0</geoidheight><src>gps</src><sat>12</sat><hdop>0.6</hdop><vdop>0.8</vdop><pdop>1.0</pdop></trkpt>
<trkpt lat="34.3881869" lon="132.46340287"><ele>34.0</ele><time>2018-10-27T07:19:04.000Z</time><speed>0.0</speed><src>gps</src><sat>7</sat></trkpt>
</trkseg></trk></gpx>