<?xml version="1.0" encoding="UTF-8" ?><gpx version="1.0" creator="GPSLogger 95 - http://gpslogger.mendhak.com/" xmlns:xsi="http://www.w3.org/2001/XMLSchema-instance" xmlns="http://www.topografix.com/GPX/1/0" xsi:schemaLocation="http://www.topografix.com/GPX/1/0 http://www.topografix.com/GPX/1/0/gpx.xsd"><time>2018-08-06T06:38:36.000Z</time><trk><trkseg><trkpt lat="43.27441712" lon="26.92508741"><ele>273.0</ele><time>2018-08-06T06:38:36.000Z</time><speed>0.07</speed><src>gps</src><sat>11</sat></trkpt>
<trkpt lat="43.27441098" lon="26.92503373"><ele>269.0</ele><time>2018-08-06T06:39:37.000Z</time><course>179.1</course><speed>0.64195013</speed><geoidheight>36.0</geoidheight><src>gps</src><sat>10</sat><hdop>0.8</hdop><vdop>0.7</vdop><pdop>1.1</pdop></trkpt>
<trkpt lat="43.2742934" lon="26.92501591"><ele>265.0</ele><time>2018-08-06T06:40:38.000Z</time><course>184.2</course><speed>0.6</speed><geoidheight>36.0</geoidheight><src>gps</src><sat>15</sat><hdop>0.7</hdop><vdop>0.7</vdop><pdop>1.0</pdop></trkpt>
<trkpt lat="43.27321458" lon="26.92501129"><ele>262.0</ele><time>2018-08-06T06:41:39.000Z</time><course>165.9</course><speed>2.5342848</speed><geoidheight>36.0</geoidheight><src>gps</src><sat>15</sat><hdop>0.7</hdop><vdop>0.7</vdop><pdop>1.0</pdop></trkpt>
<trkpt lat="43.27379783" lon="26.92934679"><ele>244.0</ele><time>2018-08-06T06:42:40.000Z</time><course>76.1</course><speed>7.010029</speed><geoidheight>36.0</geoidheight><src>gps</src><sat>15</sat><hdop>0.7</hdop><vdop>0.7</vdop><pdop>0.9</pdop></trkpt>
<trkpt lat="43.27429297" lon="26.93015951"><ele>250.0</ele><time>2018-08-06T06:43:41.000Z</time><course>356.8</course><speed>4.220959</speed><geoidheight>36.0</geoidheight><src>gps</src><sat>8</sat><hdop>0.8</hdop><vdop>0.7</vdop><pdop>1.0</pdop></trkpt>
<trkpt lat="43.27467747" lon="26.9313032"><ele>242.0</ele><time>2018-08-06T06:44:41.000Z</time><course>180.5</course><speed>3.3712013</speed><geoidheight>36.0</geoidheight><src>gps</src><sat>15</sat><hdop>0.7</hdop><vdop>0.7</vdop><pdop>1.0</pdop></trkpt>
<trkpt lat="43.27457304" lon="26.93134586"><ele>244.0</ele><time>2018-08-06T06:45:42.000Z</time><speed>0.0</speed><geoidheight>36.0</geoidheight><src>gps</src><sat>7</sat><hdop>1.1</hdop><vdop>0.8</vdop><pdop>1.4</pdop></trkpt>
<trkpt lat="43.27456327" lon="26.9313198"><ele>243.0</ele><time>2018-08-06T06:46:43.000Z</time><speed>0.0</speed><geoidheight>36.0</geoidheight><src>gps</src><sat>11</sat><hdop>0.8</hdop><vdop>0.7</vdop><pdop>1.0</pdop></trkpt>
<trkpt lat="43.27451313" lon="26.931286"><ele>250.0</ele><time>2018-08-06T06:47:44.000Z</time><speed>0.0</speed><geoidheight>36.0</geoidheight><src>gps</src><sat>5</sat><hdop>0.9</hdop><vdop>0.7</vdop><pdop>1.1</pdop></trkpt>
<trkpt lat="43.27452359" lon="26.93128863"><ele>253.0</ele><time>2018-08-06T06:48:45.000Z</time><speed>0.0</speed><geoidheight>36.0</geoidheight><src>gps</src><sat>6</sat><hdop>0.8</hdop><vdop>0.7</vdop><pdop>1.0</pdop></trkpt>
<trkpt lat="43.27453647" lon="26.93125972"><ele>255.0</ele><time>2018-08-06T06:49:46.000Z</time><speed>0.0</speed><geoidheight>36.0</geoidheight><src>gps</src><sat>12</sat><hdop>0.6</hdop><vdop>0.6</vdop><pdop>0.9</pdop></trkpt>
<trkpt lat="43.27460895" lon="26.93118434"><ele>262.0</ele><time>2018-08-06T06:50:47.000Z</time><speed>0.0</speed><geoidheight>36.0</geoidheight><src>gps</src><sat>8</sat><hdop>0.8</hdop><vdop>0.8</vdop><pdop>1.1</pdop></trkpt>
<trkpt lat="43.27444672" lon="26.93129938"><ele>252.0</ele><time>2018-08-06T06:51:48.000Z</time><speed>0.0</speed><geoidheight>36.0</geoidheight><src>gps</src><sat>14</sat><hdop>0.7</hdop><vdop>0.7</vdop><pdop>1.0</pdop></trkpt>
<trkpt lat="43.27446497" lon="26.93136459"><ele>255.0</ele><time>2018-08-06T06:52:48.000Z</time><speed>0.0</speed><geoidheight>36.0</geoidheight><src>gps</src><sat>14</sat><hdop>0.6</hdop><vdop>0.6</vdop><pdop>0.9</pdop></trkpt>
<trkpt lat="43.27447497" lon="26.93104577"><ele>247.0</ele><time>2018-08-06T06:53:48.000Z</time><course>241.8</course><speed>0.32756677</speed><geoidheight>36.0</geoidheight><src>gps</src><sat>11</sat><hdop>0.6</hdop><vdop>0.6</vdop><pdop>0.9</pdop></trkpt>
<trkpt lat="43.27453839" lon="26.93108832"><ele>246.0</ele><time>2018-08-06T06:54:49.000Z</time><speed>0.0</speed><geoidheight>36.0</geoidheight><src>gps</src><sat>8</sat><hdop>1.2</hdop><vdop>0.8</vdop><pdop>1.5</pdop></trkpt>
<trkpt lat="43.27454233" lon="26.9310866"><ele>246.0</ele><time>2018-08-06T06:55:50.000Z</time><speed>0.0</speed><geoidheight>36.0</geoidheight><src>gps</src><sat>9</sat><hdop>1.0</hdop><vdop>0.8</vdop><pdop>1.3</pdop></trkpt>
<trkpt lat="43.2745436" lon="26.93108473"><ele>246.0</ele><time>2018-08-06T06:56:50.000Z</time><speed>0.0</speed><geoidheight>36.0</geoidheight><src>gps</src><sat>8</sat><hdop>1.2</hdop><vdop>0.8</vdop><pdop>1.4</pdop></trkpt>
<trkpt lat="43.274545" lon="26.9310836"><ele>246.0</ele><time>2018-08-06T06:57:51.000Z</time><speed>0.0</speed><geoidheight>36.0</geoidheight><src>gps</src><sat>11</sat><hdop>1.0</hdop><vdop>0.8</vdop><pdop>1.3</pdop></trkpt>
<trkpt lat="43.27454911" lon="26.93108188"><ele>247.0</ele><time>2018-08-06T06:58:52.000Z</time><speed>0.0</speed><geoidheight>36.0</geoidheight><src>gps</src><sat>11</sat><hdop>0.9</hdop><vdop>0.7</vdop><pdop>1.1</pdop></trkpt>
<trkpt lat="43.2745528" lon="26.93108023"><ele>247.0</ele><time>2018-08-06T06:59:52.000Z</time><speed>0.0</speed><geoidheight>36.0</geoidheight><src>gps</src><sat>10</sat><hdop>0.8</hdop><vdop>0.7</vdop><pdop>1.1</pdop></trkpt>
<trkpt lat="43.2747204" lon="26.93086781"><ele>253.0</ele><time>2018-08-06T07:00:53.000Z</time><course>337.4</course><speed>4.100012</speed><geoidheight>36.0</geoidheight><src>gps</src><sat>10</sat><hdop>1.1</hdop><vdop>0.9</vdop><pdop>1.4</pdop></trkpt>
<trkpt lat="43.27467954" lon="26.93090435"><ele>239.0</ele><time>2018-08-06T07:01:54.000Z</time><course>193.5</course><speed>2.1402104</speed><geoidheight>36.0</geoidheight><src>gps</src><sat>13</sat><hdop>1.2</hdop><vdop>0.9</vdop><pdop>1.5</pdop></trkpt>
<trkpt lat="43.27472401" lon="26.93077064"><ele>262.0</ele><time>2018-08-06T07:02:55.000Z</time><speed>0.0</speed><geoidheight>36.0</geoidheight><src>gps</src><sat>9</sat><hdop>1.1</hdop><vdop>0.8</vdop><pdop>1.4</pdop></trkpt>
<trkpt lat="43.27459882" lon="26.93104342"><ele>262.0</ele><time>2018-08-06T07:03:56.000Z</time><course>311.9</course><speed>2.910842</speed><geoidheight>36.0</geoidheight><src>gps</src><sat>9</sat><hdop>0.8</hdop><vdop>0.7</vdop><pdop>1.1</pdop></trkpt>
<trkpt lat="43.27456217" lon="26.93119017"><ele>255.0</ele><time>2018-08-06T07:04:57.000Z</time><speed>0.0</speed><geoidheight>36.0</geoidheight><src>gps</src><sat>12</sat><hdop>0.9</hdop><vdop>0.7</vdop><pdop>1.1</pdop></trkpt>
<trkpt lat="43.27458695" lon="26.9312803"><ele>259.0</ele><time>2018-08-06T07:05:58.000Z</time><speed>0.0</speed><geoidheight>36.0</geoidheight><src>gps</src><sat>7</sat><hdop>0.8</hdop><vdop>0.7</vdop><pdop>1.0</pdop></trkpt>
<trkpt lat="43.27458451" lon="26.93135381"><ele>251.0</ele><time>2018-08-06T07:06:58.000Z</time><speed>0.0</speed><geoidheight>36.0</geoidheight><src>gps</src><sat>11</sat><hdop>0.9</hdop><vdop>0.7</vdop><pdop>1.1</pdop></trkpt>
<trkpt lat="43.2745774" lon="26.93134644"><ele>251.0</ele><time>2018-08-06T07:07:59.000Z</time><speed>0.0</speed><geoidheight>36.0</geoidheight><src>gps</src><sat>7</sat><hdop>0.9</hdop><vdop>0.7</vdop><pdop>1.1</pdop></trkpt>
<trkpt lat="43.27455671" lon="26.93129737"><ele>244.0</ele><time>2018-08-06T07:08:59.000Z</time><speed>0.45</speed><geoidheight>36.0</geoidheight><src>gps</src><sat>6</sat><hdop>0.9</hdop><vdop>0.7</vdop><pdop>1.1</pdop></trkpt>
<trkpt lat="43.27451582" lon="26.93125625"><ele>240.0</ele><time>2018-08-06T07:10:00.000Z</time><speed>0.0</speed><geoidheight>36.0</geoidheight><src>gps</src><sat>7</sat><hdop>0.9</hdop><vdop>0.7</vdop><pdop>1.2</pdop></trkpt>
<trkpt lat="43.27440198" lon="26.93123637"><ele>239.0</ele><time>2018-08-06T07:11:01.000Z</time><speed>0.0</speed><geoidheight>36.0</geoidheight><src>gps</src><sat>9</sat><hdop>0.8</hdop><vdop>0.7</vdop><pdop>1.1</pdop></trkpt>
<trkpt lat="43.27397244" lon="26.93037698"><ele>246.0</ele><time>2018-08-06T07:12:02.000Z</time><course>123.8</course><speed>3.7371914</speed><geoidheight>36.0</geoidheight><src>gps</src><sat>8</sat><hdop>0.8</hdop><vdop>0.7</vdop><pdop>1.1</pdop></trkpt>
<trkpt lat="43.27449934" lon="26.93428323"><ele>238.0</ele><time>2018-08-06T07:13:03.000Z</time><course>89.3</course><speed>4.780513</speed><geoidheight>36.0</geoidheight><src>gps</src><sat>8</sat><hdop>1.0</hdop><vdop>0.7</vdop><pdop>1.2</pdop></trkpt>
<trkpt lat="43.27451499" lon="26.93482526"><ele>235.0</ele><time>2018-08-06T07:14:04.000Z</time><speed>0.0</speed><geoidheight>36.0</geoidheight><src>gps</src><sat>7</sat><hdop>0.9</hdop><vdop>0.7</vdop><pdop>1.2</pdop></trkpt>
<trkpt lat="43.27427395" lon="26.93804609"><ele>231.0</ele><time>2018-08-06T07:15:05.000Z</time><course>85.0</course><speed>7.237472</speed><geoidheight>36.0</geoidheight><src>gps</src><sat>8</sat><hdop>0.7</hdop><vdop>0.7</vdop><pdop>1.0</pdop></trkpt>
<trkpt lat="43.27490234" lon="26.94246773"><ele>234.0</ele><time>2018-08-06T07:16:05.000Z</time><course>82.1</course><speed>4.856439</speed><geoidheight>36.0</geoidheight><src>gps</src><sat>10</sat><hdop>0.7</hdop><vdop>0.7</vdop><pdop>1.0</pdop></trkpt>
<trkpt lat="43.27565405" lon="26.94629805"><ele>235.0</ele><time>2018-08-06T07:17:06.000Z</time><course>70.0</course><speed>6.0690117</speed><geoidheight>36.0</geoidheight><src>gps</src><sat>11</sat><hdop>0.7</hdop><vdop>0.7</vdop><pdop>1.0</pdop></trkpt>
<trkpt lat="43.27656386" lon="26.9504613"><ele>242.0</ele><time>2018-08-06T07:18:07.000Z</time><course>77.8</course><speed>4.951454</speed><geoidheight>36.0</geoidheight><src>gps</src><sat>8</sat><hdop>0.7</hdop><vdop>0.7</vdop><pdop>1.0</pdop></trkpt>
<trkpt lat="43.27733249" lon="26.95392235"><ele>240.0</ele><time>2018-08-06T07:19:08.000Z</time><course>77.8</course><speed>4.4246693</speed><geoidheight>36.0</geoidheight><src>gps</src><sat>7</sat><hdop>0.8</hdop><vdop>0.7</vdop><pdop>1.1</pdop></trkpt>
<trkpt lat="43.27807392" lon="26.95776064"><ele>244.0</ele><time>2018-08-06T07:20:09.000Z</time><course>72.2</course><speed>7.113684</speed><geoidheight>36.0</geoidheight><src>gps</src><sat>10</sat><hdop>0.8</hdop><vdop>0.7</vdop><pdop>1.1</pdop></trkpt>
<trkpt lat="43.27907918" lon="26.96264147"><ele>239.0</ele><time>2018-08-06T07:21:10.000Z</time><course>72.7</course><speed>6.500031</speed><geoidheight>36.0</geoidheight><src>gps</src><sat>7</sat><hdop>0.8</hdop><vdop>0.7</vdop><pdop>1.1</pdop></trkpt>
<trkpt lat="43.28004727" lon="26.96752345"><ele>240.0</ele><time>2018-08-06T07:22:11.000Z</time><course>77.7</course><speed>6.31</speed><geoidheight>36.0</geoidheight><src>gps</src><sat>11</sat><hdop>0.7</hdop><vdop>0.7</vdop><pdop>1.0</pdop></trkpt>
<trkpt lat="43.28066054" lon="26.97280438"><ele>238.0</ele><time>2018-08-06T07:23:12.000Z</time><course>93.7</course><speed>6.5606403</speed><geoidheight>36.0</geoidheight><src>gps</src><sat>11</sat><hdop>0.7</hdop><vdop>0.7</vdop><pdop>1.0</pdop></trkpt>
<trkpt lat="43.28136912" lon="26.97958436"><ele>210.0</ele><time>2018-08-06T07:24:13.000Z</time><course>77.1</course><speed>9.400346</speed><geoidheight>36.0</geoidheight><src>gps</src><sat>10</sat><hdop>0.7</hdop><vdop>0.7</vdop><pdop>1.0</pdop></trkpt>
<trkpt lat="43.2818429" lon="26.98275152"><ele>223.0</ele><time>2018-08-06T07:25:14.000Z</time><course>76.6</course><speed>3.970617</speed><geoidheight>36.0</geoidheight><src>gps</src><sat>7</sat><hdop>0.7</hdop><vdop>0.7</vdop><pdop>1.0</pdop></trkpt>
<trkpt lat="43.28172847" lon="26.98409824"><ele>220.0</ele><time>2018-08-06T07:26:16.000Z</time><speed>0.0</speed><geoidheight>36.0</geoidheight><src>gps</src><sat>12</sat><hdop>0.8</hdop><vdop>0.8</vdop><pdop>1.1</pdop></trkpt>
<trkpt lat="43.28112056" lon="26.98364564"><ele>219.0</ele><time>2018-08-06T07:27:16.000Z</time><course>253.2</course><speed>4.1005974</speed><geoidheight>36.0</geoidheight><src>gps</src><sat>11</sat><hdop>0.7</hdop><vdop>0.7</vdop><pdop>1.0</pdop></trkpt>
<trkpt lat="43.28304488" lon="26.98227975"><ele>236.0</ele><time>2018-08-06T07:28:17.000Z</time><course>352.5</course><speed>3.7222707</speed><geoidheight>36.0</geoidheight><src>gps</src><sat>12</sat><hdop>0.7</hdop><vdop>0.7</vdop><pdop>1.0</pdop></trkpt>
<trkpt lat="43.28533984" lon="26.9825317"><ele>239.0</ele><time>2018-08-06T07:29:18.000Z</time><course>7.3</course><speed>4.411134</speed><geoidheight>36.0</geoidheight><src>gps</src><sat>12</sat><hdop>0.7</hdop><vdop>0.7</vdop><pdop>1.0</pdop></trkpt>
<trkpt lat="43.28812251" lon="26.98310089"><ele>237.0</ele><time>2018-08-06T07:30:19.000Z</time><course>19.0</course><speed>5.707889</speed><geoidheight>36.0</geoidheight><src>gps</src><sat>12</sat><hdop>0.7</hdop><vdop>0.7</vdop><pdop>1.0</pdop></trkpt>
<trkpt lat="43.29076873" lon="26.98433703"><ele>241.0</ele><time>2018-08-06T07:31:20.000Z</time><course>62.8</course><speed>4.1691484</speed><geoidheight>36.0</geoidheight><src>gps</src><sat>11</sat><hdop>0.7</hdop><vdop>0.7</vdop><pdop>1.0</pdop></trkpt>
<trkpt lat="43.29085541" lon="26.98774895"><ele>242.0</ele><time>2018-08-06T07:32:21.000Z</time><course>80.8</course><speed>4.1857853</speed><geoidheight>36.0</geoidheight><src>gps</src><sat>13</sat><hdop>0.7</hdop><vdop>0.7</vdop><pdop>1.0</pdop></trkpt>
<trkpt lat="43.28943063" lon="26.991395"><ele>248.0</ele><time>2018-08-06T07:33:22.000Z</time><course>104.9</course><speed>6.74</speed><geoidheight>36.0</geoidheight><src>gps</src><sat>13</sat><hdop>0.7</hdop><vdop>0.7</vdop><pdop>1.0</pdop></trkpt>
<trkpt lat="43.28849419" lon="26.99562619"><ele>250.0</ele><time>2018-08-06T07:34:23.000Z</time><course>106.1</course><speed>5.680035</speed><geoidheight>36.0</geoidheight><src>gps</src><sat>13</sat><hdop>0.7</hdop><vdop>0.7</vdop><pdop>1.0</pdop></trkpt>
<trkpt lat="43.28768755" lon="26.99968634"><ele>245.0</ele><time>2018-08-06T07:35:23.000Z</time><course>103.9</course><speed>5.780216</speed><geoidheight>36.0</geoidheight><src>gps</src><sat>13</sat><hdop>0.7</hdop><vdop>0.7</vdop><pdop>1.0</pdop></trkpt>
<trkpt lat="43.28679431" lon="27.00387533"><ele>248.0</ele><time>2018-08-06T07:36:24.000Z</time><course>109.4</course><speed>6.780266</speed><geoidheight>36.0</geoidheight><src>gps</src><sat>13</sat><hdop>0.7</hdop><vdop>0.7</vdop><pdop>1.0</pdop></trkpt>
<trkpt lat="43.28582896" lon="27.00844472"><ele>247.0</ele><time>2018-08-06T07:37:25.000Z</time><course>104.5</course><speed>6.580615</speed><geoidheight>36.0</geoidheight><src>gps</src><sat>10</sat><hdop>0.8</hdop><vdop>0.7</vdop><pdop>1.1</pdop></trkpt>
<trkpt lat="43.28501062" lon="27.01412269"><ele>241.0</ele><time>2018-08-06T07:38:26.000Z</time><course>93.8</course><speed>8.290296</speed><geoidheight>36.0</geoidheight><src>gps</src><sat>12</sat><hdop>0.7</hdop><vdop>0.7</vdop><pdop>1.0</pdop></trkpt>
<trkpt lat="43.28513631" lon="27.01906432"><ele>240.0</ele><time>2018-08-06T07:39:26.000Z</time><course>88.2</course><speed>5.701096</speed><geoidheight>36.0</geoidheight><src>gps</src><sat>9</sat><hdop>0.7</hdop><vdop>0.7</vdop><pdop>1.0</pdop></trkpt>
<trkpt lat="43.28562681" lon="27.02311551"><ele>241.0</ele><time>2018-08-06T07:40:27.000Z</time><course>79.0</course><speed>6.900877</speed><geoidheight>36.0</geoidheight><src>gps</src><sat>12</sat><hdop>0.7</hdop><vdop>0.7</vdop><pdop>1.0</pdop></trkpt>
<trkpt lat="43.28685425" lon="27.0291674"><ele>229.0</ele><time>2018-08-06T07:41:28.000Z</time><course>75.2</course><speed>8.46029</speed><geoidheight>36.0</geoidheight><src>gps</src><sat>12</sat><hdop>0.7</hdop><vdop>0.7</vdop><pdop>1.0</pdop></trkpt>
<trkpt lat="43.28806429" lon="27.03481708"><ele>221.0</ele><time>2018-08-06T07:42:29.000Z</time><course>73.2</course><speed>7.760316</speed><geoidheight>36.0</geoidheight><src>gps</src><sat>11</sat><hdop>0.7</hdop><vdop>0.7</vdop><pdop>1.0</pdop></trkpt>
<trkpt lat="43.28963336" lon="27.04162818"><ele>198.0</ele><time>2018-08-06T07:43:30.000Z</time><course>73.0</course><speed>10.770075</speed><geoidheight>36.0</geoidheight><src>gps</src><sat>10</sat><hdop>0.7</hdop><vdop>0.7</vdop><pdop>1.0</pdop></trkpt>
<trkpt lat="43.29113906" lon="27.04758914"><ele>188.0</ele><time>2018-08-06T07:44:31.000Z</time><course>66.5</course><speed>4.7061877</speed><geoidheight>36.0</geoidheight><src>gps</src><sat>10</sat><hdop>0.7</hdop><vdop>0.7</vdop><pdop>1.0</pdop></trkpt>
<trkpt lat="43.2920292" lon="27.05063683"><ele>197.0</ele><time>2018-08-06T07:45:31.000Z</time><course>68.1</course><speed>4.180586</speed><geoidheight>36.0</geoidheight><src>gps</src><sat>12</sat><hdop>0.7</hdop><vdop>0.7</vdop><pdop>1.0</pdop></trkpt>
<trkpt lat="43.29290911" lon="27.05365601"><ele>200.0</ele><time>2018-08-06T07:46:32.000Z</time><course>69.4</course><speed>4.6601715</speed><geoidheight>36.0</geoidheight><src>gps</src><sat>11</sat><hdop>0.7</hdop><vdop>0.7</vdop><pdop>1.0</pdop></trkpt>
<trkpt lat="43.29384361" lon="27.0571331"><ele>202.0</ele><time>2018-08-06T07:47:32.000Z</time><course>65.3</course><speed>5.3273635</speed><geoidheight>36.0</geoidheight><src>gps</src><sat>10</sat><hdop>0.7</hdop><vdop>0.7</vdop><pdop>1.0</pdop></trkpt>
<trkpt lat="43.29479607" lon="27.06073602"><ele>206.0</ele><time>2018-08-06T07:48:33.000Z</time><course>70.1</course><speed>5.0800395</speed><geoidheight>36.0</geoidheight><src>gps</src><sat>13</sat><hdop>0.7</hdop><vdop>0.7</vdop><pdop>1.0</pdop></trkpt>
<trkpt lat="43.29561518" lon="27.0640252"><ele>213.0</ele><time>2018-08-06T07:49:33.000Z</time><course>70.3</course><speed>4.3603325</speed><geoidheight>36.0</geoidheight><src>gps</src><sat>12</sat><hdop>0.8</hdop><vdop>0.7</vdop><pdop>1.1</pdop></trkpt>
<trkpt lat="43.2963165" lon="27.06693021"><ele>224.0</ele><time>2018-08-06T07:50:34.000Z</time><course>70.8</course><speed>4.2307563</speed><geoidheight>36.0</geoidheight><src>gps</src><sat>12</sat><hdop>0.7</hdop><vdop>0.8</vdop><pdop>1.1</pdop></trkpt>
<trkpt lat="43.29712543" lon="27.07007626"><ele>232.0</ele><time>2018-08-06T07:51:35.000Z</time><course>73.7</course><speed>4.1669173</speed><geoidheight>36.0</geoidheight><src>gps</src><sat>11</sat><hdop>0.7</hdop><vdop>0.8</vdop><pdop>1.1</pdop></trkpt>
<trkpt lat="43.29788567" lon="27.07337645"><ele>241.0</ele><time>2018-08-06T07:52:36.000Z</time><course>71.6</course><speed>4.520398</speed><geoidheight>36.0</geoidheight><src>gps</src><sat>11</sat><hdop>0.7</hdop><vdop>0.8</vdop><pdop>1.1</pdop></trkpt>
<trkpt lat="43.29864241" lon="27.07638959"><ele>245.0</ele><time>2018-08-06T07:53:37.000Z</time><course>72.9</course><speed>5.0528607</speed><geoidheight>36.0</geoidheight><src>gps</src><sat>11</sat><hdop>0.7</hdop><vdop>0.7</vdop><pdop>1.0</pdop></trkpt>
<trkpt lat="43.29954203" lon="27.08107849"><ele>242.0</ele><time>2018-08-06T07:54:38.000Z</time><course>77.8</course><speed>9.041792</speed><geoidheight>36.0</geoidheight><src>gps</src><sat>9</sat><hdop>0.7</hdop><vdop>0.7</vdop><pdop>1.0</pdop></trkpt>
<trkpt lat="43.30061873" lon="27.08772298"><ele>226.0</ele><time>2018-08-06T07:55:39.000Z</time><course>78.2</course><speed>9.312148</speed><geoidheight>36.0</geoidheight><src>gps</src><sat>11</sat><hdop>0.7</hdop><vdop>0.7</vdop><pdop>1.0</pdop></trkpt>
<trkpt lat="43.30171445" lon="27.0944553"><ele>213.0</ele><time>2018-08-06T07:56:40.000Z</time><course>71.9</course><speed>8.03376</speed><geoidheight>36.0</geoidheight><src>gps</src><sat>11</sat><hdop>0.7</hdop><vdop>0.7</vdop><pdop>1.0</pdop></trkpt>
<trkpt lat="43.30267973" lon="27.0996135"><ele>208.0</ele><time>2018-08-06T07:57:41.000Z</time><course>77.5</course><speed>5.7628117</speed><geoidheight>36.0</geoidheight><src>gps</src><sat>11</sat><hdop>0.7</hdop><vdop>0.7</vdop><pdop>1.0</pdop></trkpt>
<trkpt lat="43.303508" lon="27.10409399"><ele>209.0</ele><time>2018-08-06T07:58:42.000Z</time><course>75.2</course><speed>6.920029</speed><geoidheight>36.0</geoidheight><src>gps</src><sat>10</sat><hdop>0.7</hdop><vdop>0.8</vdop><pdop>1.1</pdop></trkpt>
<trkpt lat="43.3048308" lon="27.10914656"><ele>199.0</ele><time>2018-08-06T07:59:42.000Z</time><course>64.0</course><speed>7.6804166</speed><geoidheight>36.0</geoidheight><src>gps</src><sat>11</sat><hdop>0.7</hdop><vdop>0.7</vdop><pdop>1.0</pdop></trkpt>
<trkpt lat="43.30669397" lon="27.11335771"><ele>202.0</ele><time>2018-08-06T08:00:43.000Z</time><course>57.7</course><speed>6.1326423</speed><geoidheight>36.0</geoidheight><src>gps</src><sat>10</sat><hdop>0.7</hdop><vdop>0.7</vdop><pdop>1.0</pdop></trkpt>
<trkpt lat="43.30847326" lon="27.11788424"><ele>202.0</ele><time>2018-08-06T08:01:44.000Z</time><course>63.4</course><speed>8.039956</speed><geoidheight>36.0</geoidheight><src>gps</src><sat>10</sat><hdop>0.7</hdop><vdop>0.7</vdop><pdop>1.0</pdop></trkpt>
<trkpt lat="43.3100249" lon="27.12238761"><ele>201.0</ele><time>2018-08-06T08:02:45.000Z</time><course>63.9</course><speed>6.0201325</speed><geoidheight>36.0</geoidheight><src>gps</src><sat>10</sat><hdop>0.7</hdop><vdop>0.7</vdop><pdop>1.0</pdop></trkpt>
<trkpt lat="43.31111526" lon="27.12636823"><ele>206.0</ele><time>2018-08-06T08:03:45.000Z</time><course>79.9</course><speed>5.84309</speed><geoidheight>36.0</geoidheight><src>gps</src><sat>10</sat><hdop>0.7</hdop><vdop>0.7</vdop><pdop>1.0</pdop></trkpt>
<trkpt lat="43.3112976" lon="27.13191282"><ele>192.0</ele><time>2018-08-06T08:04:46.000Z</time><course>87.8</course><speed>7.98682</speed><geoidheight>36.0</geoidheight><src>gps</src><sat>9</sat><hdop>0.7</hdop><vdop>0.7</vdop><pdop>1.0</pdop></trkpt>
<trkpt lat="43.3112988" lon="27.13777164"><ele>181.0</ele><time>2018-08-06T08:05:47.000Z</time><course>85.6</course><speed>10.112868</speed><geoidheight>36.0</geoidheight><src>gps</src><sat>10</sat><hdop>0.7</hdop><vdop>0.7</vdop><pdop>1.0</pdop></trkpt>
<trkpt lat="43.3125935" lon="27.14707102"><ele>142.0</ele><time>2018-08-06T08:06:48.000Z</time><course>49.0</course><speed>13.330941</speed><geoidheight>36.0</geoidheight><src>gps</src><sat>9</sat><hdop>0.7</hdop><vdop>0.8</vdop><pdop>1.0</pdop></trkpt>
<trkpt lat="43.3157107" lon="27.15112013"><ele>142.0</ele><time>2018-08-06T08:07:49.000Z</time><course>47.2</course><speed>3.0941396</speed><geoidheight>36.0</geoidheight><src>gps</src><sat>10</sat><hdop>0.7</hdop><vdop>0.8</vdop><pdop>1.1</pdop></trkpt>
<trkpt lat="43.31730346" lon="27.15319082"><ele>146.0</ele><time>2018-08-06T08:08:50.000Z</time><course>45.2</course><speed>4.7423725</speed><geoidheight>36.0</geoidheight><src>gps</src><sat>10</sat><hdop>0.7</hdop><vdop>0.8</vdop><pdop>1.1</pdop></trkpt>
<trkpt lat="43.31914935" lon="27.15556413"><ele>154.0</ele><time>2018-08-06T08:09:51.000Z</time><course>40.1</course><speed>3.9306235</speed><geoidheight>36.0</geoidheight><src>gps</src><sat>10</sat><hdop>0.7</hdop><vdop>0.8</vdop><pdop>1.0</pdop></trkpt>
<trkpt lat="43.3205006" lon="27.15728926"><ele>163.0</ele><time>2018-08-06T08:10:52.000Z</time><course>42.2</course><speed>3.263449</speed><geoidheight>36.0</geoidheight><src>gps</src><sat>10</sat><hdop>0.7</hdop><vdop>0.8</vdop><pdop>1.0</pdop></trkpt>
<trkpt lat="43.32173228" lon="27.15887375"><ele>173.0</ele><time>2018-08-06T08:11:53.000Z</time><course>38.9</course><speed>2.8717415</speed><geoidheight>36.0</geoidheight><src>gps</src><sat>10</sat><hdop>0.8</hdop><vdop>0.8</vdop><pdop>1.1</pdop></trkpt>
<trkpt lat="43.32306387" lon="27.16057257"><ele>181.0</ele><time>2018-08-06T08:12:54.000Z</time><course>44.4</course><speed>3.3861187</speed><geoidheight>36.0</geoidheight><src>gps</src><sat>8</sat><hdop>0.7</hdop><vdop>0.8</vdop><pdop>1.1</pdop></trkpt>
<trkpt lat="43.32477224" lon="27.16288716"><ele>186.0</ele><time>2018-08-06T08:13:55.000Z</time><course>51.2</course><speed>4.6245</speed><geoidheight>36.0</geoidheight><src>gps</src><sat>10</sat><hdop>0.7</hdop><vdop>0.8</vdop><pdop>1.1</pdop></trkpt>
<trkpt lat="43.32599345" lon="27.16694741"><ele>183.0</ele><time>2018-08-06T08:14:56.000Z</time><course>72.7</course><speed>7.090346</speed><geoidheight>36.0</geoidheight><src>gps</src><sat>10</sat><hdop>0.7</hdop><vdop>0.8</vdop><pdop>1.1</pdop></trkpt>
<trkpt lat="43.32721873" lon="27.17220257"><ele>177.0</ele><time>2018-08-06T08:15:57.000Z</time><course>62.9</course><speed>9.764308</speed><geoidheight>36.0</geoidheight><src>gps</src><sat>10</sat><hdop>0.7</hdop><vdop>0.8</vdop><pdop>1.1</pdop></trkpt>
<trkpt lat="43.32991942" lon="27.17931001"><ele>154.0</ele><time>2018-08-06T08:16:58.000Z</time><course>60.2</course><speed>9.702969</speed><geoidheight>36.0</geoidheight><src>gps</src><sat>10</sat><hdop>0.7</hdop><vdop>0.8</vdop><pdop>1.1</pdop></trkpt>
<trkpt lat="43.33197846" lon="27.18475439"><ele>145.0</ele><time>2018-08-06T08:17:59.000Z</time><course>64.1</course><speed>7.520166</speed><geoidheight>36.0</geoidheight><src>gps</src><sat>10</sat><hdop>0.7</hdop><vdop>0.8</vdop><pdop>1.1</pdop></trkpt>
<trkpt lat="43.33390947" lon="27.18977781"><ele>141.0</ele><time>2018-08-06T08:19:00.000Z</time><course>62.3</course><speed>7.3516393</speed><geoidheight>36.0</geoidheight><src>gps</src><sat>8</sat><hdop>0.7</hdop><vdop>0.7</vdop><pdop>1.0</pdop></trkpt>
<trkpt lat="43.33544173" lon="27.19386083"><ele>136.0</ele><time>2018-08-06T08:20:01.000Z</time><course>67.5</course><speed>5.8710303</speed><geoidheight>36.0</geoidheight><src>gps</src><sat>7</sat><hdop>0.7</hdop><vdop>0.7</vdop><pdop>1.0</pdop></trkpt>
<trkpt lat="43.33711183" lon="27.19812464"><ele>134.0</ele><time>2018-08-06T08:21:01.000Z</time><course>64.4</course><speed>5.4632316</speed><geoidheight>36.0</geoidheight><src>gps</src><sat>10</sat><hdop>0.7</hdop><vdop>0.7</vdop><pdop>1.0</pdop></trkpt>
<trkpt lat="43.3386138" lon="27.20212155"><ele>134.0</ele><time>2018-08-06T08:22:02.000Z</time><course>62.5</course><speed>5.360084</speed><geoidheight>36.0</geoidheight><src>gps</src><sat>8</sat><hdop>0.7</hdop><vdop>0.8</vdop><pdop>1.1</pdop></trkpt>
<trkpt lat="43.33952641" lon="27.20476832"><ele>143.0</ele><time>2018-08-06T08:23:03.000Z</time><course>81.8</course><speed>3.7816002</speed><geoidheight>36.0</geoidheight><src>gps</src><sat>10</sat><hdop>0.8</hdop><vdop>0.8</vdop><pdop>1.1</pdop></trkpt>
<trkpt lat="43.33944208" lon="27.20678337"><ele>156.0</ele><time>2018-08-06T08:24:04.000Z</time><course>102.5</course><speed>2.7502909</speed><geoidheight>36.0</geoidheight><src>gps</src><sat>13</sat><hdop>0.7</hdop><vdop>0.7</vdop><pdop>1.0</pdop></trkpt>
<trkpt lat="43.33921664" lon="27.20879002"><ele>167.0</ele><time>2018-08-06T08:25:05.000Z</time><course>99.2</course><speed>2.640038</speed><geoidheight>36.0</geoidheight><src>gps</src><sat>15</sat><hdop>0.6</hdop><vdop>0.7</vdop><pdop>1.0</pdop></trkpt>
<trkpt lat="43.33908955" lon="27.21094644"><ele>175.0</ele><time>2018-08-06T08:26:06.000Z</time><course>87.0</course><speed>2.8419185</speed><geoidheight>36.0</geoidheight><src>gps</src><sat>13</sat><hdop>0.6</hdop><vdop>0.7</vdop><pdop>0.9</pdop></trkpt>
<trkpt lat="43.33904363" lon="27.21316786"><ele>180.0</ele><time>2018-08-06T08:27:07.000Z</time><course>89.6</course><speed>3.3201356</speed><geoidheight>36.0</geoidheight><src>gps</src><sat>15</sat><hdop>0.6</hdop><vdop>0.7</vdop><pdop>0.9</pdop></trkpt>
<trkpt lat="43.33872482" lon="27.21646293"><ele>184.0</ele><time>2018-08-06T08:28:08.000Z</time><course>108.8</course><speed>5.836609</speed><geoidheight>36.0</geoidheight><src>gps</src><sat>13</sat><hdop>0.6</hdop><vdop>0.7</vdop><pdop>0.9</pdop></trkpt>
<trkpt lat="43.3375814" lon="27.2215262"><ele>176.0</ele><time>2018-08-06T08:29:09.000Z</time><course>108.5</course><speed>8.00428</speed><geoidheight>36.0</geoidheight><src>gps</src><sat>12</sat><hdop>0.7</hdop><vdop>0.7</vdop><pdop>1.0</pdop></trkpt>
<trkpt lat="43.33634749" lon="27.22713112"><ele>166.0</ele><time>2018-08-06T08:30:10.000Z</time><course>106.0</course><speed>7.610164</speed><geoidheight>36.0</geoidheight><src>gps</src><sat>14</sat><hdop>0.7</hdop><vdop>0.7</vdop><pdop>1.0</pdop></trkpt>
<trkpt lat="43.33590553" lon="27.23252138"><ele>160.0</ele><time>2018-08-06T08:31:11.000Z</time><course>91.6</course><speed>8.030056</speed><geoidheight>36.0</geoidheight><src>gps</src><sat>14</sat><hdop>0.6</hdop><vdop>0.7</vdop><pdop>0.9</pdop></trkpt>
<trkpt lat="43.33589921" lon="27.23515994"><ele>161.0</ele><time>2018-08-06T08:32:12.000Z</time><speed>0.0</speed><geoidheight>36.0</geoidheight><src>gps</src><sat>14</sat><hdop>0.7</hdop><vdop>0.8</vdop><pdop>1.1</pdop></trkpt>
<trkpt lat="43.33590004" lon="27.23514983"><ele>161.0</ele><time>2018-08-06T08:33:13.000Z</time><speed>0.0</speed><geoidheight>36.0</geoidheight><src>gps</src><sat>14</sat><hdop>0.8</hdop><vdop>0.8</vdop><pdop>1.2</pdop></trkpt>
<trkpt lat="43.33590662" lon="27.23516065"><ele>161.0</ele><time>2018-08-06T08:34:14.000Z</time><speed>0.0</speed><geoidheight>36.0</geoidheight><src>gps</src><sat>10</sat><hdop>0.8</hdop><vdop>0.8</vdop><pdop>1.2</pdop></trkpt>
<trkpt lat="43.3359226" lon="27.23515486"><ele>162.0</ele><time>2018-08-06T08:35:15.000Z</time><course>316.7</course><speed>0.3337664</speed><geoidheight>36.0</geoidheight><src>gps</src><sat>9</sat><hdop>0.8</hdop><vdop>0.8</vdop><pdop>1.1</pdop></trkpt>
<trkpt lat="43.33618169" lon="27.23670243"><ele>167.0</ele><time>2018-08-06T08:36:16.000Z</time><course>76.4</course><speed>3.820471</speed><geoidheight>36.0</geoidheight><src>gps</src><sat>12</sat><hdop>0.6</hdop><vdop>0.7</vdop><pdop>0.9</pdop></trkpt>
<trkpt lat="43.3366697" lon="27.23956656"><ele>176.0</ele><time>2018-08-06T08:37:17.000Z</time><course>74.6</course><speed>4.1291766</speed><geoidheight>36.0</geoidheight><src>gps</src><sat>12</sat><hdop>0.6</hdop><vdop>0.7</vdop><pdop>0.9</pdop></trkpt>
<trkpt lat="43.33720579" lon="27.24235325"><ele>190.0</ele><time>2018-08-06T08:38:18.000Z</time><course>75.5</course><speed>3.0302806</speed><geoidheight>36.0</geoidheight><src>gps</src><sat>12</sat><hdop>0.6</hdop><vdop>0.7</vdop><pdop>0.9</pdop></trkpt>
<trkpt lat="43.338191" lon="27.24556352"><ele>183.0</ele><time>2018-08-06T08:39:19.000Z</time><course>69.9</course><speed>5.301849</speed><geoidheight>36.0</geoidheight><src>gps</src><sat>11</sat><hdop>0.6</hdop><vdop>0.7</vdop><pdop>0.9</pdop></trkpt>
<trkpt lat="43.33909031" lon="27.24922156"><ele>187.0</ele><time>2018-08-06T08:40:20.000Z</time><course>79.1</course><speed>5.2711477</speed><geoidheight>36.0</geoidheight><src>gps</src><sat>12</sat><hdop>0.6</hdop><vdop>0.7</vdop><pdop>0.9</pdop></trkpt>
<trkpt lat="43.33899272" lon="27.25308929"><ele>191.0</ele><time>2018-08-06T08:41:21.000Z</time><course>100.7</course><speed>5.2238297</speed><geoidheight>36.0</geoidheight><src>gps</src><sat>10</sat><hdop>0.6</hdop><vdop>0.7</vdop><pdop>0.9</pdop></trkpt>
<trkpt lat="43.33799882" lon="27.25651049"><ele>193.0</ele><time>2018-08-06T08:42:22.000Z</time><course>114.6</course><speed>4.4159937</speed><geoidheight>36.0</geoidheight><src>gps</src><sat>14</sat><hdop>0.6</hdop><vdop>0.7</vdop><pdop>0.9</pdop></trkpt>
<trkpt lat="43.33709795" lon="27.25921684"><ele>207.0</ele><time>2018-08-06T08:43:23.000Z</time><course>112.7</course><speed>3.7402139</speed><geoidheight>36.0</geoidheight><src>gps</src><sat>10</sat><hdop>0.6</hdop><vdop>0.7</vdop><pdop>0.9</pdop></trkpt>
<trkpt lat="43.33599146" lon="27.26216272"><ele>213.0</ele><time>2018-08-06T08:44:23.000Z</time><course>121.6</course><speed>4.8592696</speed><geoidheight>36.0</geoidheight><src>gps</src><sat>12</sat><hdop>0.6</hdop><vdop>0.7</vdop><pdop>0.9</pdop></trkpt>
<trkpt lat="43.33426592" lon="27.26532494"><ele>209.0</ele><time>2018-08-06T08:45:24.000Z</time><course>133.0</course><speed>4.800667</speed><geoidheight>36.0</geoidheight><src>gps</src><sat>12</sat><hdop>0.7</hdop><vdop>0.7</vdop><pdop>1.0</pdop></trkpt>
<trkpt lat="43.3316268" lon="27.26786968"><ele>209.0</ele><time>2018-08-06T08:46:25.000Z</time><course>151.7</course><speed>6.910586</speed><geoidheight>36.0</geoidheight><src>gps</src><sat>9</sat><hdop>0.6</hdop><vdop>0.7</vdop><pdop>0.9</pdop></trkpt>
<trkpt lat="43.32800151" lon="27.27148848"><ele>194.0</ele><time>2018-08-06T08:47:26.000Z</time><course>134.1</course><speed>10.91542</speed><geoidheight>36.0</geoidheight><src>gps</src><sat>10</sat><hdop>0.6</hdop><vdop>0.7</vdop><pdop>0.9</pdop></trkpt>
<trkpt lat="43.32499714" lon="27.27604021"><ele>189.0</ele><time>2018-08-06T08:48:27.000Z</time><course>130.3</course><speed>7.0447993</speed><geoidheight>36.0</geoidheight><src>gps</src><sat>9</sat><hdop>0.6</hdop><vdop>0.7</vdop><pdop>0.9</pdop></trkpt>
<trkpt lat="43.32209761" lon="27.27894824"><ele>186.0</ele><time>2018-08-06T08:49:28.000Z</time><course>157.0</course><speed>5.2410398</speed><geoidheight>36.0</geoidheight><src>gps</src><sat>12</sat><hdop>0.7</hdop><vdop>0.7</vdop><pdop>1.0</pdop></trkpt>
<trkpt lat="43.31977732" lon="27.280249"><ele>193.0</ele><time>2018-08-06T08:50:29.000Z</time><course>152.3</course><speed>3.304376</speed><geoidheight>36.0</geoidheight><src>gps</src><sat>8</sat><hdop>0.7</hdop><vdop>0.7</vdop><pdop>1.0</pdop></trkpt>
<trkpt lat="43.3182589" lon="27.28118333"><ele>195.0</ele><time>2018-08-06T08:51:29.000Z</time><course>140.6</course><speed>2.8339725</speed><geoidheight>36.0</geoidheight><src>gps</src><sat>8</sat><hdop>0.7</hdop><vdop>0.7</vdop><pdop>1.0</pdop></trkpt>
<trkpt lat="43.31701124" lon="27.28248894"><ele>197.0</ele><time>2018-08-06T08:52:30.000Z</time><course>133.2</course><speed>2.6508868</speed><geoidheight>36.0</geoidheight><src>gps</src><sat>11</sat><hdop>0.7</hdop><vdop>0.8</vdop><pdop>1.1</pdop></trkpt>
<trkpt lat="43.31599221" lon="27.28443343"><ele>218.0</ele><time>2018-08-06T08:53:31.000Z</time><course>114.4</course><speed>3.4184353</speed><geoidheight>36.0</geoidheight><src>gps</src><sat>11</sat><hdop>0.7</hdop><vdop>0.8</vdop><pdop>1.1</pdop></trkpt>
<trkpt lat="43.31529669" lon="27.28702838"><ele>219.0</ele><time>2018-08-06T08:54:32.000Z</time><course>97.5</course><speed>4.1501927</speed><geoidheight>36.0</geoidheight><src>gps</src><sat>15</sat><hdop>0.6</hdop><vdop>0.7</vdop><pdop>1.0</pdop></trkpt>
<trkpt lat="43.31527963" lon="27.29152043"><ele>223.0</ele><time>2018-08-06T08:55:33.000Z</time><course>89.1</course><speed>7.1922736</speed><geoidheight>36.0</geoidheight><src>gps</src><sat>11</sat><hdop>0.6</hdop><vdop>0.7</vdop><pdop>0.9</pdop></trkpt>
<trkpt lat="43.31549466" lon="27.29730552"><ele>216.0</ele><time>2018-08-06T08:56:35.000Z</time><course>86.5</course><speed>6.8836403</speed><geoidheight>36.0</geoidheight><src>gps</src><sat>10</sat><hdop>0.6</hdop><vdop>0.7</vdop><pdop>0.9</pdop></trkpt>
<trkpt lat="43.31563975" lon="27.3020236"><ele>213.0</ele><time>2018-08-06T08:57:34.000Z</time><course>82.8</course><speed>6.3745193</speed><geoidheight>36.0</geoidheight><src>gps</src><sat>9</sat><hdop>0.6</hdop><vdop>0.7</vdop><pdop>0.9</pdop></trkpt>
<trkpt lat="43.31572477" lon="27.30602039"><ele>218.0</ele><time>2018-08-06T08:58:35.000Z</time><course>90.4</course><speed>5.030159</speed><geoidheight>36.0</geoidheight><src>gps</src><sat>12</sat><hdop>0.7</hdop><vdop>0.7</vdop><pdop>1.0</pdop></trkpt>
<trkpt lat="43.31582445" lon="27.3096094"><ele>220.0</ele><time>2018-08-06T08:59:35.000Z</time><course>90.8</course><speed>4.460045</speed><geoidheight>36.0</geoidheight><src>gps</src><sat>11</sat><hdop>0.6</hdop><vdop>0.7</vdop><pdop>1.0</pdop></trkpt>
<trkpt lat="43.31593227" lon="27.31286504"><ele>225.0</ele><time>2018-08-06T09:00:36.000Z</time><course>95.3</course><speed>4.4502807</speed><geoidheight>36.0</geoidheight><src>gps</src><sat>7</sat><hdop>0.6</hdop><vdop>0.7</vdop><pdop>1.0</pdop></trkpt>
<trkpt lat="43.31606323" lon="27.31626716"><ele>232.0</ele><time>2018-08-06T09:01:37.000Z</time><course>86.4</course><speed>3.8002105</speed><geoidheight>36.0</geoidheight><src>gps</src><sat>9</sat><hdop>0.7</hdop><vdop>0.7</vdop><pdop>1.0</pdop></trkpt>
<trkpt lat="43.31629214" lon="27.31981148"><ele>237.0</ele><time>2018-08-06T09:02:38.000Z</time><course>84.6</course><speed>5.1316466</speed><geoidheight>36.0</geoidheight><src>gps</src><sat>8</sat><hdop>0.7</hdop><vdop>0.7</vdop><pdop>1.0</pdop></trkpt>
<trkpt lat="43.31669777" lon="27.32412516"><ele>237.0</ele><time>2018-08-06T09:03:38.000Z</time><course>82.5</course><speed>7.273321</speed><geoidheight>36.0</geoidheight><src>gps</src><sat>9</sat><hdop>0.6</hdop><vdop>0.7</vdop><pdop>1.0</pdop></trkpt>
<trkpt lat="43.31726407" lon="27.32994866"><ele>224.0</ele><time>2018-08-06T09:04:38.000Z</time><course>81.8</course><speed>6.7442713</speed><geoidheight>36.0</geoidheight><src>gps</src><sat>8</sat><hdop>0.6</hdop><vdop>0.7</vdop><pdop>1.0</pdop></trkpt>
<trkpt lat="43.31780569" lon="27.33585987"><ele>222.0</ele><time>2018-08-06T09:05:39.000Z</time><course>88.2</course><speed>8.010643</speed><geoidheight>36.0</geoidheight><src>gps</src><sat>9</sat><hdop>0.7</hdop><vdop>0.8</vdop><pdop>1.0</pdop></trkpt>
<trkpt lat="43.31823093" lon="27.34093036"><ele>213.0</ele><time>2018-08-06T09:06:40.000Z</time><course>83.1</course><speed>6.5306206</speed><geoidheight>36.0</geoidheight><src>gps</src><sat>9</sat><hdop>0.6</hdop><vdop>0.7</vdop><pdop>1.0</pdop></trkpt>
<trkpt lat="43.318655" lon="27.34604507"><ele>216.0</ele><time>2018-08-06T09:07:40.000Z</time><course>84.3</course><speed>7.163693</speed><geoidheight>36.0</geoidheight><src>gps</src><sat>9</sat><hdop>0.6</hdop><vdop>0.7</vdop><pdop>1.0</pdop></trkpt>
<trkpt lat="43.319116" lon="27.35122554"><ele>213.0</ele><time>2018-08-06T09:08:40.000Z</time><course>83.5</course><speed>6.9518414</speed><geoidheight>36.0</geoidheight><src>gps</src><sat>9</sat><hdop>0.6</hdop><vdop>0.7</vdop><pdop>1.0</pdop></trkpt>
<trkpt lat="43.31957003" lon="27.35665458"><ele>206.0</ele><time>2018-08-06T09:09:41.000Z</time><course>80.7</course><speed>6.3315477</speed><geoidheight>36.0</geoidheight><src>gps</src><sat>8</sat><hdop>0.7</hdop><vdop>0.8</vdop><pdop>1.0</pdop></trkpt>
<trkpt lat="43.31989372" lon="27.361473"><ele>205.0</ele><time>2018-08-06T09:10:42.000Z</time><course>86.5</course><speed>6.4706254</speed><geoidheight>36.0</geoidheight><src>gps</src><sat>9</sat><hdop>0.6</hdop><vdop>0.7</vdop><pdop>1.0</pdop></trkpt>
<trkpt lat="43.31943523" lon="27.36674052"><ele>190.0</ele><time>2018-08-06T09:11:43.000Z</time><course>112.2</course><speed>7.993028</speed><geoidheight>36.0</geoidheight><src>gps</src><sat>9</sat><hdop>0.6</hdop><vdop>0.7</vdop><pdop>1.0</pdop></trkpt>
<trkpt lat="43.31837586" lon="27.37004001"><ele>194.0</ele><time>2018-08-06T09:12:44.000Z</time><course>111.3</course><speed>4.173787</speed><geoidheight>36.0</geoidheight><src>gps</src><sat>9</sat><hdop>0.6</hdop><vdop>0.7</vdop><pdop>1.0</pdop></trkpt>
<trkpt lat="43.31754874" lon="27.37294003"><ele>201.0</ele><time>2018-08-06T09:13:45.000Z</time><course>107.3</course><speed>3.7438617</speed><geoidheight>36.0</geoidheight><src>gps</src><sat>9</sat><hdop>0.6</hdop><vdop>0.8</vdop><pdop>1.0</pdop></trkpt>
<trkpt lat="43.31704971" lon="27.37602165"><ele>210.0</ele><time>2018-08-06T09:14:46.000Z</time><course>104.0</course><speed>3.791596</speed><geoidheight>36.0</geoidheight><src>gps</src><sat>9</sat><hdop>0.6</hdop><vdop>0.8</vdop><pdop>1.0</pdop></trkpt>
<trkpt lat="43.31662024" lon="27.37888643"><ele>215.0</ele><time>2018-08-06T09:15:47.000Z</time><course>99.8</course><speed>4.032431</speed><geoidheight>36.0</geoidheight><src>gps</src><sat>9</sat><hdop>0.6</hdop><vdop>0.8</vdop><pdop>1.0</pdop></trkpt>
<trkpt lat="43.31591928" lon="27.38255871"><ele>222.0</ele><time>2018-08-06T09:16:47.000Z</time><course>110.1</course><speed>4.992564</speed><geoidheight>36.0</geoidheight><src>gps</src><sat>9</sat><hdop>0.7</hdop><vdop>0.8</vdop><pdop>1.0</pdop></trkpt>
<trkpt lat="43.3153542" lon="27.38545252"><ele>223.0</ele><time>2018-08-06T09:17:48.000Z</time><course>100.7</course><speed>3.5855823</speed><geoidheight>36.0</geoidheight><src>gps</src><sat>8</sat><hdop>0.6</hdop><vdop>0.8</vdop><pdop>1.0</pdop></trkpt>
<trkpt lat="43.3149339" lon="27.38797182"><ele>229.0</ele><time>2018-08-06T09:18:49.000Z</time><course>100.3</course><speed>3.022995</speed><geoidheight>36.0</geoidheight><src>gps</src><sat>9</sat><hdop>0.6</hdop><vdop>0.8</vdop><pdop>1.0</pdop></trkpt>
<trkpt lat="43.31461627" lon="27.39111746"><ele>233.0</ele><time>2018-08-06T09:19:50.000Z</time><course>92.8</course><speed>5.170155</speed><geoidheight>36.0</geoidheight><src>gps</src><sat>9</sat><hdop>0.6</hdop><vdop>0.8</vdop><pdop>1.0</pdop></trkpt>
<trkpt lat="43.3143552" lon="27.39465922"><ele>239.0</ele><time>2018-08-06T09:20:51.000Z</time><course>92.5</course><speed>4.6010866</speed><geoidheight>36.0</geoidheight><src>gps</src><sat>9</sat><hdop>0.7</hdop><vdop>0.8</vdop><pdop>1.0</pdop></trkpt>
<trkpt lat="43.3141228" lon="27.39805987"><ele>239.0</ele><time>2018-08-06T09:21:52.000Z</time><course>94.4</course><speed>4.54</speed><geoidheight>36.0</geoidheight><src>gps</src><sat>8</sat><hdop>0.7</hdop><vdop>0.8</vdop><pdop>1.0</pdop></trkpt>
<trkpt lat="43.3139097" lon="27.40096061"><ele>247.0</ele><time>2018-08-06T09:22:52.000Z</time><course>99.2</course><speed>3.7403343</speed><geoidheight>36.0</geoidheight><src>gps</src><sat>9</sat><hdop>0.6</hdop><vdop>0.8</vdop><pdop>1.0</pdop></trkpt>
<trkpt lat="43.31369248" lon="27.40387411"><ele>253.0</ele><time>2018-08-06T09:23:53.000Z</time><course>93.5</course><speed>3.6956732</speed><geoidheight>36.0</geoidheight><src>gps</src><sat>9</sat><hdop>0.6</hdop><vdop>0.8</vdop><pdop>1.0</pdop></trkpt>
<trkpt lat="43.31345139" lon="27.40741419"><ele>255.0</ele><time>2018-08-06T09:24:54.000Z</time><course>99.1</course><speed>6.732971</speed><geoidheight>36.0</geoidheight><src>gps</src><sat>9</sat><hdop>0.7</hdop><vdop>0.8</vdop><pdop>1.0</pdop></trkpt>
<trkpt lat="43.31309311" lon="27.4123418"><ele>252.0</ele><time>2018-08-06T09:25:55.000Z</time><course>96.9</course><speed>5.4179883</speed><geoidheight>36.0</geoidheight><src>gps</src><sat>9</sat><hdop>0.7</hdop><vdop>0.8</vdop><pdop>1.0</pdop></trkpt>
<trkpt lat="43.31280057" lon="27.41658893"><ele>254.0</ele><time>2018-08-06T09:26:56.000Z</time><course>99.4</course><speed>5.5643506</speed><geoidheight>36.0</geoidheight><src>gps</src><sat>9</sat><hdop>0.7</hdop><vdop>0.8</vdop><pdop>1.0</pdop></trkpt>
<trkpt lat="43.31240758" lon="27.42170069"><ele>245.0</ele><time>2018-08-06T09:27:57.000Z</time><course>98.8</course><speed>7.11</speed><geoidheight>36.0</geoidheight><src>gps</src><sat>8</sat><hdop>0.7</hdop><vdop>0.8</vdop><pdop>1.0</pdop></trkpt>
<trkpt lat="43.31202087" lon="27.42617514"><ele>252.0</ele><time>2018-08-06T09:28:58.000Z</time><course>98.7</course><speed>5.6155677</speed><geoidheight>36.0</geoidheight><src>gps</src><sat>9</sat><hdop>0.7</hdop><vdop>0.8</vdop><pdop>1.0</pdop></trkpt>
<trkpt lat="43.31158899" lon="27.43093078"><ele>246.0</ele><time>2018-08-06T09:29:59.000Z</time><course>100.8</course><speed>5.5465755</speed><geoidheight>36.0</geoidheight><src>gps</src><sat>9</sat><hdop>0.7</hdop><vdop>0.8</vdop><pdop>1.0</pdop></trkpt>
<trkpt lat="43.31124643" lon="27.43437518"><ele>257.0</ele><time>2018-08-06T09:31:00.000Z</time><course>108.5</course><speed>6.2323833</speed><geoidheight>36.0</geoidheight><src>gps</src><sat>9</sat><hdop>0.7</hdop><vdop>0.8</vdop><pdop>1.0</pdop></trkpt>
<trkpt lat="43.31060405" lon="27.43885696"><ele>246.0</ele><time>2018-08-06T09:32:01.000Z</time><course>115.1</course><speed>7.295156</speed><geoidheight>36.0</geoidheight><src>gps</src><sat>8</sat><hdop>0.7</hdop><vdop>0.8</vdop><pdop>1.0</pdop></trkpt>
<trkpt lat="43.30814211" lon="27.44580282"><ele>222.0</ele><time>2018-08-06T09:33:02.000Z</time><course>115.3</course><speed>10.472527</speed><geoidheight>36.0</geoidheight><src>gps</src><sat>9</sat><hdop>0.7</hdop><vdop>0.8</vdop><pdop>1.0</pdop></trkpt>
<trkpt lat="43.30627556" lon="27.45107914"><ele>216.0</ele><time>2018-08-06T09:34:03.000Z</time><course>115.7</course><speed>7.3703322</speed><geoidheight>36.0</geoidheight><src>gps</src><sat>8</sat><hdop>0.7</hdop><vdop>0.8</vdop><pdop>1.0</pdop></trkpt>
<trkpt lat="43.30489599" lon="27.45491207"><ele>218.0</ele><time>2018-08-06T09:35:04.000Z</time><course>114.1</course><speed>3.7703316</speed><geoidheight>36.0</geoidheight><src>gps</src><sat>10</sat><hdop>0.7</hdop><vdop>0.8</vdop><pdop>1.0</pdop></trkpt>
<trkpt lat="43.30415854" lon="27.45696566"><ele>226.0</ele><time>2018-08-06T09:36:05.000Z</time><course>121.5</course><speed>3.360729</speed><geoidheight>36.0</geoidheight><src>gps</src><sat>8</sat><hdop>0.7</hdop><vdop>0.8</vdop><pdop>1.0</pdop></trkpt>
<trkpt lat="43.30334552" lon="27.45938299"><ele>234.0</ele><time>2018-08-06T09:37:06.000Z</time><course>119.3</course><speed>3.3018327</speed><geoidheight>36.0</geoidheight><src>gps</src><sat>11</sat><hdop>0.7</hdop><vdop>0.7</vdop><pdop>1.0</pdop></trkpt>
<trkpt lat="43.30216089" lon="27.4626358"><ele>236.0</ele><time>2018-08-06T09:38:07.000Z</time><course>112.1</course><speed>4.983252</speed><geoidheight>36.0</geoidheight><src>gps</src><sat>13</sat><hdop>0.6</hdop><vdop>0.7</vdop><pdop>0.9</pdop></trkpt>
<trkpt lat="43.30095261" lon="27.46603818"><ele>235.0</ele><time>2018-08-06T09:39:08.000Z</time><course>114.4</course><speed>5.2934113</speed><geoidheight>36.0</geoidheight><src>gps</src><sat>12</sat><hdop>0.6</hdop><vdop>0.7</vdop><pdop>0.9</pdop></trkpt>
<trkpt lat="43.29974881" lon="27.46920489"><ele>239.0</ele><time>2018-08-06T09:40:09.000Z</time><course>119.8</course><speed>4.4501796</speed><geoidheight>36.0</geoidheight><src>gps</src><sat>12</sat><hdop>0.6</hdop><vdop>0.7</vdop><pdop>0.9</pdop></trkpt>
<trkpt lat="43.29841164" lon="27.47245666"><ele>239.0</ele><time>2018-08-06T09:41:10.000Z</time><course>121.9</course><speed>5.1216497</speed><geoidheight>36.0</geoidheight><src>gps</src><sat>13</sat><hdop>0.6</hdop><vdop>0.7</vdop><pdop>0.9</pdop></trkpt>
<trkpt lat="43.2970293" lon="27.47541732"><ele>242.0</ele><time>2018-08-06T09:42:11.000Z</time><course>124.3</course><speed>4.6510754</speed><geoidheight>36.0</geoidheight><src>gps</src><sat>12</sat><hdop>0.6</hdop><vdop>0.7</vdop><pdop>0.9</pdop></trkpt>
<trkpt lat="43.29567492" lon="27.47819828"><ele>250.0</ele><time>2018-08-06T09:43:12.000Z</time><course>128.8</course><speed>4.204759</speed><geoidheight>36.0</geoidheight><src>gps</src><sat>10</sat><hdop>0.7</hdop><vdop>0.7</vdop><pdop>1.0</pdop></trkpt>
<trkpt lat="43.29301743" lon="27.48198297"><ele>238.0</ele><time>2018-08-06T09:44:13.000Z</time><course>138.1</course><speed>9.0018</speed><geoidheight>36.0</geoidheight><src>gps</src><sat>12</sat><hdop>0.7</hdop><vdop>0.7</vdop><pdop>1.0</pdop></trkpt>
<trkpt lat="43.28981219" lon="27.48605499"><ele>229.0</ele><time>2018-08-06T09:45:14.000Z</time><course>145.7</course><speed>6.766343</speed><geoidheight>36.0</geoidheight><src>gps</src><sat>12</sat><hdop>0.7</hdop><vdop>0.7</vdop><pdop>1.0</pdop></trkpt>
<trkpt lat="43.28715046" lon="27.48936939"><ele>220.0</ele><time>2018-08-06T09:46:15.000Z</time><course>140.1</course><speed>6.305363</speed><geoidheight>36.0</geoidheight><src>gps</src><sat>11</sat><hdop>0.7</hdop><vdop>0.7</vdop><pdop>1.0</pdop></trkpt>
<trkpt lat="43.28465051" lon="27.49228446"><ele>222.0</ele><time>2018-08-06T09:47:16.000Z</time><course>136.0</course><speed>5.643908</speed><geoidheight>36.0</geoidheight><src>gps</src><sat>11</sat><hdop>0.7</hdop><vdop>0.7</vdop><pdop>1.0</pdop></trkpt>
<trkpt lat="43.28221371" lon="27.49510886"><ele>220.0</ele><time>2018-08-06T09:48:16.000Z</time><course>141.1</course><speed>5.583234</speed><geoidheight>36.0</geoidheight><src>gps</src><sat>13</sat><hdop>0.7</hdop><vdop>0.7</vdop><pdop>1.0</pdop></trkpt>
<trkpt lat="43.28001468" lon="27.49774102"><ele>221.0</ele><time>2018-08-06T09:49:16.000Z</time><course>140.0</course><speed>3.4249818</speed><geoidheight>36.0</geoidheight><src>gps</src><sat>12</sat><hdop>0.7</hdop><vdop>0.7</vdop><pdop>1.0</pdop></trkpt>
<trkpt lat="43.27776852" lon="27.5002558"><ele>221.0</ele><time>2018-08-06T09:50:17.000Z</time><course>144.6</course><speed>5.770078</speed><geoidheight>36.0</geoidheight><src>gps</src><sat>11</sat><hdop>0.7</hdop><vdop>0.7</vdop><pdop>0.9</pdop></trkpt>
<trkpt lat="43.2743767" lon="27.50308462"><ele>213.0</ele><time>2018-08-06T09:51:17.000Z</time><course>150.1</course><speed>7.8004107</speed><geoidheight>36.0</geoidheight><src>gps</src><sat>13</sat><hdop>0.7</hdop><vdop>0.7</vdop><pdop>0.9</pdop></trkpt>
<trkpt lat="43.27088792" lon="27.50594971"><ele>207.0</ele><time>2018-08-06T09:52:18.000Z</time><course>151.1</course><speed>7.1128125</speed><geoidheight>36.0</geoidheight><src>gps</src><sat>12</sat><hdop>0.7</hdop><vdop>0.7</vdop><pdop>0.9</pdop></trkpt>
<trkpt lat="43.26751371" lon="27.50871723"><ele>199.0</ele><time>2018-08-06T09:53:19.000Z</time><course>147.4</course><speed>7.3593073</speed><geoidheight>36.0</geoidheight><src>gps</src><sat>13</sat><hdop>0.7</hdop><vdop>0.7</vdop><pdop>0.9</pdop></trkpt>
<trkpt lat="43.26412369" lon="27.51169698"><ele>193.0</ele><time>2018-08-06T09:54:20.000Z</time><course>142.8</course><speed>7.6357384</speed><geoidheight>36.0</geoidheight><src>gps</src><sat>12</sat><hdop>0.7</hdop><vdop>0.7</vdop><pdop>0.9</pdop></trkpt>
<trkpt lat="43.26098003" lon="27.51589876"><ele>182.0</ele><time>2018-08-06T09:55:21.000Z</time><course>132.4</course><speed>8.350599</speed><geoidheight>36.0</geoidheight><src>gps</src><sat>14</sat><hdop>0.6</hdop><vdop>0.7</vdop><pdop>0.9</pdop></trkpt>
<trkpt lat="43.25896707" lon="27.51917966"><ele>183.0</ele><time>2018-08-06T09:56:22.000Z</time><course>131.8</course><speed>4.0144987</speed><geoidheight>36.0</geoidheight><src>gps</src><sat>10</sat><hdop>0.7</hdop><vdop>0.7</vdop><pdop>1.0</pdop></trkpt>
<trkpt lat="43.25786393" lon="27.52097723"><ele>191.0</ele><time>2018-08-06T09:57:22.000Z</time><course>130.0</course><speed>3.6843588</speed><geoidheight>36.0</geoidheight><src>gps</src><sat>9</sat><hdop>0.6</hdop><vdop>0.7</vdop><pdop>0.9</pdop></trkpt>
<trkpt lat="43.25666434" lon="27.52285231"><ele>195.0</ele><time>2018-08-06T09:58:23.000Z</time><course>131.5</course><speed>3.5069075</speed><geoidheight>36.0</geoidheight><src>gps</src><sat>12</sat><hdop>0.6</hdop><vdop>0.7</vdop><pdop>0.9</pdop></trkpt>
<trkpt lat="43.25508094" lon="27.52443306"><ele>204.0</ele><time>2018-08-06T09:59:24.000Z</time><course>154.9</course><speed>3.535661</speed><geoidheight>36.0</geoidheight><src>gps</src><sat>13</sat><hdop>0.6</hdop><vdop>0.7</vdop><pdop>0.9</pdop></trkpt>
<trkpt lat="43.25343997" lon="27.52548825"><ele>209.0</ele><time>2018-08-06T10:00:24.000Z</time><course>153.3</course><speed>3.1248841</speed><geoidheight>36.0</geoidheight><src>gps</src><sat>13</sat><hdop>0.7</hdop><vdop>0.7</vdop><pdop>1.0</pdop></trkpt>
<trkpt lat="43.25169434" lon="27.52662828"><ele>217.0</ele><time>2018-08-06T10:01:25.000Z</time><course>152.9</course><speed>3.4247336</speed><geoidheight>36.0</geoidheight><src>gps</src><sat>10</sat><hdop>0.6</hdop><vdop>0.7</vdop><pdop>0.9</pdop></trkpt>
<trkpt lat="43.25002209" lon="27.52778852"><ele>224.0</ele><time>2018-08-06T10:02:26.000Z</time><course>155.1</course><speed>3.5203693</speed><geoidheight>36.0</geoidheight><src>gps</src><sat>12</sat><hdop>0.6</hdop><vdop>0.7</vdop><pdop>0.9</pdop></trkpt>
<trkpt lat="43.24752158" lon="27.5296382"><ele>220.0</ele><time>2018-08-06T10:03:27.000Z</time><course>150.9</course><speed>6.4301944</speed><geoidheight>36.0</geoidheight><src>gps</src><sat>11</sat><hdop>0.6</hdop><vdop>0.7</vdop><pdop>0.9</pdop></trkpt>
<trkpt lat="43.24730758" lon="27.52984945"><ele>222.0</ele><time>2018-08-06T10:04:28.000Z</time><course>329.0</course><speed>0.5554278</speed><geoidheight>36.0</geoidheight><src>gps</src><sat>11</sat><hdop>0.6</hdop><vdop>0.7</vdop><pdop>0.9</pdop></trkpt>
<trkpt lat="43.24463747" lon="27.53176467"><ele>215.0</ele><time>2018-08-06T10:05:28.000Z</time><course>149.0</course><speed>6.3620124</speed><geoidheight>36.0</geoidheight><src>gps</src><sat>12</sat><hdop>0.7</hdop><vdop>0.7</vdop><pdop>1.0</pdop></trkpt>
<trkpt lat="43.24138096" lon="27.53488672"><ele>205.0</ele><time>2018-08-06T10:06:29.000Z</time><course>143.2</course><speed>8.60021</speed><geoidheight>36.0</geoidheight><src>gps</src><sat>12</sat><hdop>0.6</hdop><vdop>0.7</vdop><pdop>0.9</pdop></trkpt>
<trkpt lat="43.23792079" lon="27.53800843"><ele>191.0</ele><time>2018-08-06T10:07:30.000Z</time><course>153.5</course><speed>7.4126983</speed><geoidheight>36.0</geoidheight><src>gps</src><sat>11</sat><hdop>0.6</hdop><vdop>0.7</vdop><pdop>0.9</pdop></trkpt>
<trkpt lat="43.23374457" lon="27.54078269"><ele>175.0</ele><time>2018-08-06T10:08:31.000Z</time><course>153.6</course><speed>8.060007</speed><geoidheight>36.0</geoidheight><src>gps</src><sat>11</sat><hdop>0.6</hdop><vdop>0.7</vdop><pdop>0.9</pdop></trkpt>
<trkpt lat="43.23046765" lon="27.54544573"><ele>154.0</ele><time>2018-08-06T10:09:32.000Z</time><course>119.9</course><speed>9.385803</speed><geoidheight>36.0</geoidheight><src>gps</src><sat>12</sat><hdop>0.6</hdop><vdop>0.7</vdop><pdop>0.9</pdop></trkpt>
<trkpt lat="43.22841867" lon="27.55106356"><ele>141.0</ele><time>2018-08-06T10:10:32.000Z</time><course>111.2</course><speed>7.9000254</speed><geoidheight>36.0</geoidheight><src>gps</src><sat>13</sat><hdop>0.6</hdop><vdop>0.7</vdop><pdop>0.9</pdop></trkpt>
<trkpt lat="43.22712725" lon="27.55587503"><ele>135.0</ele><time>2018-08-06T10:11:33.000Z</time><course>108.9</course><speed>6.970007</speed><geoidheight>36.0</geoidheight><src>gps</src><sat>13</sat><hdop>0.6</hdop><vdop>0.7</vdop><pdop>0.9</pdop></trkpt>
<trkpt lat="43.22630072" lon="27.56192234"><ele>112.0</ele><time>2018-08-06T10:12:34.000Z</time><course>98.2</course><speed>7.971411</speed><geoidheight>36.0</geoidheight><src>gps</src><sat>13</sat><hdop>0.6</hdop><vdop>0.7</vdop><pdop>0.9</pdop></trkpt>
<trkpt lat="43.22565349" lon="27.56799522"><ele>106.0</ele><time>2018-08-06T10:13:35.000Z</time><course>99.0</course><speed>8.100007</speed><geoidheight>36.0</geoidheight><src>gps</src><sat>8</sat><hdop>0.8</hdop><vdop>0.7</vdop><pdop>1.1</pdop></trkpt>
<trkpt lat="43.22512126" lon="27.57328941"><ele>91.0</ele><time>2018-08-06T10:14:36.000Z</time><course>97.7</course><speed>6.710745</speed><geoidheight>36.0</geoidheight><src>gps</src><sat>14</sat><hdop>0.6</hdop><vdop>0.7</vdop><pdop>0.9</pdop></trkpt>
<trkpt lat="43.22573578" lon="27.57900214"><ele>75.0</ele><time>2018-08-06T10:15:37.000Z</time><course>56.2</course><speed>9.430763</speed><geoidheight>36.0</geoidheight><src>gps</src><sat>14</sat><hdop>0.6</hdop><vdop>0.7</vdop><pdop>0.9</pdop></trkpt>
<trkpt lat="43.22705151" lon="27.58571658"><ele>57.0</ele><time>2018-08-06T10:16:38.000Z</time><course>87.4</course><speed>8.440479</speed><geoidheight>36.0</geoidheight><src>gps</src><sat>13</sat><hdop>0.7</hdop><vdop>0.7</vdop><pdop>1.0</pdop></trkpt>
<trkpt lat="43.22678187" lon="27.58942544"><ele>60.0</ele><time>2018-08-06T10:17:39.000Z</time><course>93.2</course><speed>3.1137276</speed><geoidheight>36.0</geoidheight><src>gps</src><sat>12</sat><hdop>0.6</hdop><vdop>0.7</vdop><pdop>0.9</pdop></trkpt>
<trkpt lat="43.22697837" lon="27.5914857"><ele>72.0</ele><time>2018-08-06T10:18:40.000Z</time><course>89.7</course><speed>2.7833793</speed><geoidheight>36.0</geoidheight><src>gps</src><sat>12</sat><hdop>0.6</hdop><vdop>0.7</vdop><pdop>0.9</pdop></trkpt>
<trkpt lat="43.22702778" lon="27.59524425"><ele>71.0</ele><time>2018-08-06T10:19:40.000Z</time><course>94.2</course><speed>6.912894</speed><geoidheight>36.0</geoidheight><src>gps</src><sat>13</sat><hdop>0.6</hdop><vdop>0.7</vdop><pdop>0.9</pdop></trkpt>
<trkpt lat="43.22713774" lon="27.59901556"><ele>80.0</ele><time>2018-08-06T10:20:41.000Z</time><course>87.2</course><speed>4.494441</speed><geoidheight>36.0</geoidheight><src>gps</src><sat>11</sat><hdop>0.6</hdop><vdop>0.7</vdop><pdop>0.9</pdop></trkpt>
<trkpt lat="43.22721221" lon="27.60270927"><ele>75.0</ele><time>2018-08-06T10:21:42.000Z</time><course>103.3</course><speed>4.130012</speed><geoidheight>36.0</geoidheight><src>gps</src><sat>12</sat><hdop>0.7</hdop><vdop>0.7</vdop><pdop>1.0</pdop></trkpt>
<trkpt lat="43.22413531" lon="27.60433878"><ele>75.0</ele><time>2018-08-06T10:22:43.000Z</time><course>161.8</course><speed>6.5303755</speed><geoidheight>36.0</geoidheight><src>gps</src><sat>14</sat><hdop>0.7</hdop><vdop>0.7</vdop><pdop>0.9</pdop></trkpt>
<trkpt lat="43.22104102" lon="27.60579941"><ele>69.0</ele><time>2018-08-06T10:23:44.000Z</time><course>159.7</course><speed>5.681065</speed><geoidheight>36.0</geoidheight><src>gps</src><sat>14</sat><hdop>0.7</hdop><vdop>0.7</vdop><pdop>1.0</pdop></trkpt>
<trkpt lat="43.21798018" lon="27.60723048"><ele>69.0</ele><time>2018-08-06T10:24:45.000Z</time><course>163.9</course><speed>5.44034</speed><geoidheight>36.0</geoidheight><src>gps</src><sat>13</sat><hdop>0.7</hdop><vdop>0.7</vdop><pdop>1.0</pdop></trkpt>
<trkpt lat="43.21721477" lon="27.60907475"><ele>73.0</ele><time>2018-08-06T10:25:46.000Z</time><course>103.3</course><speed>5.4404507</speed><geoidheight>36.0</geoidheight><src>gps</src><sat>11</sat><hdop>0.7</hdop><vdop>0.7</vdop><pdop>1.0</pdop></trkpt>
<trkpt lat="43.21664742" lon="27.61199014"><ele>77.0</ele><time>2018-08-06T10:26:47.000Z</time><course>137.7</course><speed>4.6908636</speed><geoidheight>36.0</geoidheight><src>gps</src><sat>12</sat><hdop>0.8</hdop><vdop>0.8</vdop><pdop>1.1</pdop></trkpt>
<trkpt lat="43.21415647" lon="27.61380458"><ele>80.0</ele><time>2018-08-06T10:27:48.000Z</time><course>154.5</course><speed>4.993245</speed><geoidheight>36.0</geoidheight><src>gps</src><sat>10</sat><hdop>0.8</hdop><vdop>0.8</vdop><pdop>1.1</pdop></trkpt>
<trkpt lat="43.21154651" lon="27.6156083"><ele>81.0</ele><time>2018-08-06T10:28:49.000Z</time><course>148.1</course><speed>5.3905935</speed><geoidheight>36.0</geoidheight><src>gps</src><sat>13</sat><hdop>0.7</hdop><vdop>0.7</vdop><pdop>1.0</pdop></trkpt>
<trkpt lat="43.20988737" lon="27.61811455"><ele>81.0</ele><time>2018-08-06T10:29:49.000Z</time><course>119.1</course><speed>4.430045</speed><geoidheight>36.0</geoidheight><src>gps</src><sat>10</sat><hdop>0.7</hdop><vdop>0.7</vdop><pdop>1.0</pdop></trkpt>
<trkpt lat="43.20829284" lon="27.62106026"><ele>85.0</ele><time>2018-08-06T10:30:50.000Z</time><course>123.9</course><speed>4.6305294</speed><geoidheight>36.0</geoidheight><src>gps</src><sat>13</sat><hdop>0.7</hdop><vdop>0.8</vdop><pdop>1.0</pdop></trkpt>
<trkpt lat="43.20721737" lon="27.6247053"><ele>93.0</ele><time>2018-08-06T10:31:51.000Z</time><course>112.1</course><speed>5.170155</speed><geoidheight>36.0</geoidheight><src>gps</src><sat>11</sat><hdop>0.7</hdop><vdop>0.8</vdop><pdop>1.0</pdop></trkpt>
<trkpt lat="43.20623002" lon="27.62811693"><ele>94.0</ele><time>2018-08-06T10:32:52.000Z</time><course>118.5</course><speed>4.882008</speed><geoidheight>36.0</geoidheight><src>gps</src><sat>11</sat><hdop>0.7</hdop><vdop>0.7</vdop><pdop>1.0</pdop></trkpt>
<trkpt lat="43.20577958" lon="27.6327637"><ele>85.0</ele><time>2018-08-06T10:33:53.000Z</time><course>95.3</course><speed>6.41</speed><geoidheight>36.0</geoidheight><src>gps</src><sat>11</sat><hdop>0.7</hdop><vdop>0.7</vdop><pdop>1.0</pdop></trkpt>
<trkpt lat="43.20562016" lon="27.63824293"><ele>77.0</ele><time>2018-08-06T10:34:53.000Z</time><course>85.6</course><speed>10.071985</speed><geoidheight>36.0</geoidheight><src>gps</src><sat>12</sat><hdop>0.8</hdop><vdop>0.8</vdop><pdop>1.1</pdop></trkpt>
<trkpt lat="43.20587482" lon="27.64380845"><ele>69.0</ele><time>2018-08-06T10:35:55.000Z</time><course>82.9</course><speed>6.0600743</speed><geoidheight>36.0</geoidheight><src>gps</src><sat>10</sat><hdop>0.7</hdop><vdop>0.7</vdop><pdop>1.0</pdop></trkpt>
<trkpt lat="43.20609697" lon="27.64819554"><ele>72.0</ele><time>2018-08-06T10:36:56.000Z</time><course>90.7</course><speed>5.4915385</speed><geoidheight>36.0</geoidheight><src>gps</src><sat>10</sat><hdop>0.7</hdop><vdop>0.7</vdop><pdop>1.0</pdop></trkpt>
<trkpt lat="43.20591918" lon="27.65234082"><ele>75.0</ele><time>2018-08-06T10:37:57.000Z</time><course>102.0</course><speed>5.525215</speed><geoidheight>36.0</geoidheight><src>gps</src><sat>9</sat><hdop>0.7</hdop><vdop>0.7</vdop><pdop>1.0</pdop></trkpt>
<trkpt lat="43.20513367" lon="27.65627024"><ele>80.0</ele><time>2018-08-06T10:38:57.000Z</time><course>103.2</course><speed>5.5500813</speed><geoidheight>36.0</geoidheight><src>gps</src><sat>9</sat><hdop>0.7</hdop><vdop>0.7</vdop><pdop>1.0</pdop></trkpt>
<trkpt lat="43.20443784" lon="27.65963921"><ele>80.0</ele><time>2018-08-06T10:39:58.000Z</time><course>114.5</course><speed>4.500011</speed><geoidheight>36.0</geoidheight><src>gps</src><sat>10</sat><hdop>0.7</hdop><vdop>0.7</vdop><pdop>1.0</pdop></trkpt>
<trkpt lat="43.20367421" lon="27.66355842"><ele>81.0</ele><time>2018-08-06T10:40:59.000Z</time><course>103.0</course><speed>5.6335154</speed><geoidheight>36.0</geoidheight><src>gps</src><sat>10</sat><hdop>0.7</hdop><vdop>0.7</vdop><pdop>1.0</pdop></trkpt>
<trkpt lat="43.20278378" lon="27.66788754"><ele>78.0</ele><time>2018-08-06T10:42:00.000Z</time><course>107.5</course><speed>7.545197</speed><geoidheight>36.0</geoidheight><src>gps</src><sat>9</sat><hdop>0.7</hdop><vdop>0.7</vdop><pdop>1.0</pdop></trkpt>
<trkpt lat="43.20093239" lon="27.67291856"><ele>65.0</ele><time>2018-08-06T10:43:00.000Z</time><course>116.3</course><speed>7.5516953</speed><geoidheight>36.0</geoidheight><src>gps</src><sat>11</sat><hdop>0.7</hdop><vdop>0.7</vdop><pdop>1.0</pdop></trkpt>
<trkpt lat="43.19836421" lon="27.67957256"><ele>34.0</ele><time>2018-08-06T10:44:01.000Z</time><course>108.2</course><speed>9.187862</speed><geoidheight>36.0</geoidheight><src>gps</src><sat>10</sat><hdop>0.7</hdop><vdop>0.7</vdop><pdop>1.0</pdop></trkpt>
<trkpt lat="43.19801092" lon="27.68413778"><ele>40.0</ele><time>2018-08-06T10:45:02.000Z</time><course>86.0</course><speed>4.921016</speed><geoidheight>36.0</geoidheight><src>gps</src><sat>10</sat><hdop>0.7</hdop><vdop>0.7</vdop><pdop>1.0</pdop></trkpt>
<trkpt lat="43.19861948" lon="27.68793039"><ele>35.0</ele><time>2018-08-06T10:46:03.000Z</time><course>76.3</course><speed>5.135601</speed><geoidheight>36.0</geoidheight><src>gps</src><sat>10</sat><hdop>0.7</hdop><vdop>0.7</vdop><pdop>1.0</pdop></trkpt>
<trkpt lat="43.19957569" lon="27.69236901"><ele>37.0</ele><time>2018-08-06T10:47:04.000Z</time><course>76.5</course><speed>5.7905526</speed><geoidheight>36.0</geoidheight><src>gps</src><sat>9</sat><hdop>0.8</hdop><vdop>0.8</vdop><pdop>1.1</pdop></trkpt>
<trkpt lat="43.19985653" lon="27.69657947"><ele>44.0</ele><time>2018-08-06T10:48:05.000Z</time><course>91.9</course><speed>4.6456966</speed><geoidheight>36.0</geoidheight><src>gps</src><sat>10</sat><hdop>0.7</hdop><vdop>0.7</vdop><pdop>1.0</pdop></trkpt>
<trkpt lat="43.19951566" lon="27.69971463"><ele>48.0</ele><time>2018-08-06T10:49:06.000Z</time><course>98.5</course><speed>4.592788</speed><geoidheight>36.0</geoidheight><src>gps</src><sat>10</sat><hdop>0.8</hdop><vdop>0.8</vdop><pdop>1.1</pdop></trkpt>
<trkpt lat="43.19927885" lon="27.70376436"><ele>46.0</ele><time>2018-08-06T10:50:07.000Z</time><course>81.9</course><speed>6.4100075</speed><geoidheight>36.0</geoidheight><src>gps</src><sat>10</sat><hdop>0.8</hdop><vdop>0.8</vdop><pdop>1.1</pdop></trkpt>
<trkpt lat="43.19907328" lon="27.70814174"><ele>51.0</ele><time>2018-08-06T10:51:08.000Z</time><course>111.4</course><speed>5.3427057</speed><geoidheight>36.0</geoidheight><src>gps</src><sat>10</sat><hdop>0.7</hdop><vdop>0.7</vdop><pdop>1.0</pdop></trkpt>
<trkpt lat="43.19938865" lon="27.70983962"><ele>44.0</ele><time>2018-08-06T10:52:09.000Z</time><course>344.3</course><speed>0.25806975</speed><geoidheight>36.0</geoidheight><src>gps</src><sat>8</sat><hdop>0.8</hdop><vdop>0.8</vdop><pdop>1.1</pdop></trkpt>
<trkpt lat="43.19938331" lon="27.70986054"><ele>51.0</ele><time>2018-08-06T10:53:10.000Z</time><speed>0.0</speed><geoidheight>36.0</geoidheight><src>gps</src><sat>9</sat><hdop>0.9</hdop><vdop>0.8</vdop><pdop>1.2</pdop></trkpt>
<trkpt lat="43.19936118" lon="27.70985867"><ele>46.0</ele><time>2018-08-06T10:54:11.000Z</time><speed>0.0</speed><geoidheight>36.0</geoidheight><src>gps</src><sat>9</sat><hdop>0.8</hdop><vdop>0.8</vdop><pdop>1.2</pdop></trkpt>
<trkpt lat="43.19935784" lon="27.70985249"><ele>46.0</ele><time>2018-08-06T10:55:12.000Z</time><speed>0.0</speed><geoidheight>36.0</geoidheight><src>gps</src><sat>8</sat><hdop>1.1</hdop><vdop>0.8</vdop><pdop>1.4</pdop></trkpt>
<trkpt lat="43.19934498" lon="27.70986073"><ele>52.0</ele><time>2018-08-06T10:56:13.000Z</time><speed>0.0</speed><geoidheight>36.0</geoidheight><src>gps</src><sat>8</sat><hdop>1.2</hdop><vdop>0.9</vdop><pdop>1.5</pdop></trkpt>
<trkpt lat="43.19941356" lon="27.70986719"><ele>61.0</ele><time>2018-08-06T10:57:16.405Z</time><course>333.4</course><speed>0.17262676</speed><src>gps</src><sat>8</sat></trkpt>
<trkpt lat="43.19937698" lon="27.70984234"><ele>51.0</ele><time>2018-08-06T10:58:25.000Z</time><speed>0.0</speed><src>gps</src><sat>11</sat></trkpt>
<trkpt lat="43.19936562" lon="27.70985478"><ele>52.0</ele><time>2018-08-06T10:59:26.000Z</time><speed>0.0</speed><geoidheight>36.0</geoidheight><src>gps</src><sat>10</sat><hdop>1.0</hdop><vdop>0.8</vdop><pdop>1.3</pdop></trkpt>
<trkpt lat="43.19940383" lon="27.70986015"><ele>59.0</ele><time>2018-08-06T11:00:27.000Z</time><course>351.0</course><speed>0.6789698</speed><geoidheight>36.0</geoidheight><src>gps</src><sat>9</sat><hdop>0.9</hdop><vdop>0.8</vdop><pdop>1.2</pdop></trkpt>
<trkpt lat="43.19946571" lon="27.70992341"><ele>52.0</ele><time>2018-08-06T11:01:28.000Z</time><speed>0.0</speed><geoidheight>36.0</geoidheight><src>gps</src><sat>9</sat><hdop>1.0</hdop><vdop>0.9</vdop><pdop>1.3</pdop></trkpt>
<trkpt lat="43.19937124" lon="27.70989545"><ele>48.0</ele><time>2018-08-06T11:02:28.000Z</time><speed>0.0</speed><geoidheight>36.0</geoidheight><src>gps</src><sat>6</sat><hdop>1.6</hdop><vdop>0.9</vdop><pdop>1.8</pdop></trkpt>
<trkpt lat="43.19935694" lon="27.70989327"><ele>43.0</ele><time>2018-08-06T11:03:29.000Z</time><speed>0.0</speed><geoidheight>36.0</geoidheight><src>gps</src><sat>7</sat><hdop>1.1</hdop><vdop>0.8</vdop><pdop>1.4</pdop></trkpt>
<trkpt lat="43.19938154" lon="27.7099148"><ele>50.0</ele><time>2018-08-06T11:04:30.000Z</time><course>176.6</course><speed>0.7156815</speed><geoidheight>36.0</geoidheight><src>gps</src><sat>9</sat><hdop>0.8</hdop><vdop>0.8</vdop><pdop>1.1</pdop></trkpt>
<trkpt lat="43.19938471" lon="27.7099118"><ele>53.0</ele><time>2018-08-06T11:05:30.000Z</time><speed>0.0</speed><geoidheight>36.0</geoidheight><src>gps</src><sat>6</sat><hdop>1.2</hdop><vdop>0.9</vdop><pdop>1.5</pdop></trkpt>
<trkpt lat="43.19936625" lon="27.70994681"><ele>49.0</ele><time>2018-08-06T11:06:31.000Z</time><speed>0.0</speed><geoidheight>36.0</geoidheight><src>gps</src><sat>7</sat><hdop>0.8</hdop><vdop>0.8</vdop><pdop>1.2</pdop></trkpt>
<trkpt lat="43.19935852" lon="27.70989476"><ele>48.0</ele><time>2018-08-06T11:07:32.000Z</time><speed>0.0</speed><geoidheight>36.0</geoidheight><src>gps</src><sat>7</sat><hdop>1.2</hdop><vdop>0.9</vdop><pdop>1.5</pdop></trkpt>
<trkpt lat="43.19937508" lon="27.70992311"><ele>43.0</ele><time>2018-08-06T11:08:33.000Z</time><course>77.1</course><speed>0.41340053</speed><geoidheight>36.0</geoidheight><src>gps</src><sat>6</sat><hdop>1.6</hdop><vdop>0.9</vdop><pdop>1.9</pdop></trkpt>
<trkpt lat="43.19935751" lon="27.70989704"><ele>47.0</ele><time>2018-08-06T11:09:34.000Z</time><speed>0.0</speed><geoidheight>36.0</geoidheight><src>gps</src><sat>9</sat><hdop>0.8</hdop><vdop>0.8</vdop><pdop>1.1</pdop></trkpt>
<trkpt lat="43.19934448" lon="27.7098771"><ele>48.0</ele><time>2018-08-06T11:10:34.000Z</time><course>357.3</course><speed>0.44283178</speed><geoidheight>36.0</geoidheight><src>gps</src><sat>9</sat><hdop>1.1</hdop><vdop>0.9</vdop><pdop>1.4</pdop></trkpt>
<trkpt lat="43.19934792" lon="27.70981384"><ele>49.0</ele><time>2018-08-06T11:11:35.000Z</time><course>226.6</course><speed>0.82006097</speed><geoidheight>36.0</geoidheight><src>gps</src><sat>7</sat><hdop>1.0</hdop><vdop>0.8</vdop><pdop>1.3</pdop></trkpt>
<trkpt lat="43.19934625" lon="27.70986012"><ele>48.0</ele><time>2018-08-06T11:12:35.000Z</time><speed>0.0</speed><geoidheight>36.0</geoidheight><src>gps</src><sat>10</sat><hdop>0.9</hdop><vdop>0.8</vdop><pdop>1.2</pdop></trkpt>
<trkpt lat="43.19934755" lon="27.70986002"><ele>48.0</ele><time>2018-08-06T11:13:35.000Z</time><speed>0.0</speed><geoidheight>36.0</geoidheight><src>gps</src><sat>11</sat><hdop>0.9</hdop><vdop>0.8</vdop><pdop>1.2</pdop></trkpt>
<trkpt lat="43.19934576" lon="27.70987095"><ele>49.0</ele><time>2018-08-06T11:14:36.000Z</time><speed>0.0</speed><geoidheight>36.0</geoidheight><src>gps</src><sat>8</sat><hdop>1.2</hdop><vdop>0.9</vdop><pdop>1.5</pdop></trkpt>
<trkpt lat="43.19929224" lon="27.70987568"><ele>53.0</ele><time>2018-08-06T11:15:37.000Z</time><speed>0.0</speed><geoidheight>36.0</geoidheight><src>gps</src><sat>8</sat><hdop>1.0</hdop><vdop>0.9</vdop><pdop>1.3</pdop></trkpt>
<trkpt lat="43.19932038" lon="27.70989269"><ele>56.0</ele><time>2018-08-06T11:16:38.000Z</time><speed>0.0</speed><geoidheight>36.0</geoidheight><src>gps</src><sat>6</sat><hdop>1.4</hdop><vdop>0.9</vdop><pdop>1.7</pdop></trkpt>
<trkpt lat="43.19937471" lon="27.7099436"><ele>57.0</ele><time>2018-08-06T11:17:39.000Z</time><course>53.1</course><speed>0.17720045</speed><geoidheight>36.0</geoidheight><src>gps</src><sat>6</sat><hdop>1.3</hdop><vdop>0.9</vdop><pdop>1.6</pdop></trkpt>
<trkpt lat="43.19937429" lon="27.70995121"><ele>54.0</ele><time>2018-08-06T11:18:40.000Z</time><course>103.9</course><speed>0.44011363</speed><geoidheight>36.0</geoidheight><src>gps</src><sat>6</sat><hdop>1.5</hdop><vdop>0.9</vdop><pdop>1.7</pdop></trkpt>
<trkpt lat="43.19937589" lon="27.70995481"><ele>50.0</ele><time>2018-08-06T11:19:41.000Z</time><speed>0.0</speed><geoidheight>36.0</geoidheight><src>gps</src><sat>10</sat><hdop>1.3</hdop><vdop>0.9</vdop><pdop>1.6</pdop></trkpt>
<trkpt lat="43.19940249" lon="27.7099198"><ele>49.0</ele><time>2018-08-06T11:20:42.000Z</time><speed>0.0</speed><geoidheight>36.0</geoidheight><src>gps</src><sat>7</sat><hdop>1.6</hdop><vdop>0.9</vdop><pdop>1.8</pdop></trkpt>
<trkpt lat="43.19937689" lon="27.70992773"><ele>50.0</ele><time>2018-08-06T11:21:43.000Z</time><speed>0.0</speed><geoidheight>36.0</geoidheight><src>gps</src><sat>8</sat><hdop>1.1</hdop><vdop>0.9</vdop><pdop>1.4</pdop></trkpt>
<trkpt lat="43.199349" lon="27.70991414"><ele>50.0</ele><time>2018-08-06T11:22:43.000Z</time><course>182.6</course><speed>0.7340981</speed><geoidheight>36.0</geoidheight><src>gps</src><sat>8</sat><hdop>1.0</hdop><vdop>0.8</vdop><pdop>1.3</pdop></trkpt>
<trkpt lat="43.1993861" lon="27.70991043"><ele>44.0</ele><time>2018-08-06T11:23:44.000Z</time><speed>0.0</speed><geoidheight>36.0</geoidheight><src>gps</src><sat>10</sat><hdop>1.0</hdop><vdop>0.8</vdop><pdop>1.3</pdop></trkpt>
<trkpt lat="43.19936992" lon="27.70991687"><ele>43.0</ele><time>2018-08-06T11:24:45.000Z</time><speed>0.0</speed><geoidheight>36.0</geoidheight><src>gps</src><sat>8</sat><hdop>1.2</hdop><vdop>0.9</vdop><pdop>1.5</pdop></trkpt>
<trkpt lat="43.19939026" lon="27.70991659"><ele>43.0</ele><time>2018-08-06T11:25:46.000Z</time><speed>0.0</speed><geoidheight>36.0</geoidheight><src>gps</src><sat>7</sat><hdop>1.3</hdop><vdop>0.9</vdop><pdop>1.6</pdop></trkpt>
<trkpt lat="43.1993675" lon="27.70990607"><ele>46.0</ele><time>2018-08-06T11:26:47.000Z</time><speed>0.0</speed><geoidheight>36.0</geoidheight><src>gps</src><sat>10</sat><hdop>1.0</hdop><vdop>0.8</vdop><pdop>1.3</pdop></trkpt>
<trkpt lat="43.19936608" lon="27.70990775"><ele>46.0</ele><time>2018-08-06T11:27:48.000Z</time><speed>0.0</speed><geoidheight>36.0</geoidheight><src>gps</src><sat>12</sat><hdop>0.8</hdop><vdop>0.8</vdop><pdop>1.2</pdop></trkpt>
<trkpt lat="43.19936625" lon="27.70990907"><ele>47.0</ele><time>2018-08-06T11:28:49.000Z</time><speed>0.0</speed><geoidheight>36.0</geoidheight><src>gps</src><sat>12</sat><hdop>0.8</hdop><vdop>0.8</vdop><pdop>1.1</pdop></trkpt>
<trkpt lat="43.19935222" lon="27.70988578"><ele>51.0</ele><time>2018-08-06T11:29:50.000Z</time><speed>0.0</speed><geoidheight>36.0</geoidheight><src>gps</src><sat>12</sat><hdop>1.3</hdop><vdop>0.9</vdop><pdop>1.6</pdop></trkpt>
<trkpt lat="43.19935217" lon="27.70988493"><ele>51.0</ele><time>2018-08-06T11:30:51.000Z</time><speed>0.0</speed><geoidheight>36.0</geoidheight><src>gps</src><sat>11</sat><hdop>1.3</hdop><vdop>0.9</vdop><pdop>1.5</pdop></trkpt>
<trkpt lat="43.19935303" lon="27.7098858"><ele>51.0</ele><time>2018-08-06T11:31:52.000Z</time><speed>0.0</speed><geoidheight>36.0</geoidheight><src>gps</src><sat>14</sat><hdop>0.8</hdop><vdop>0.8</vdop><pdop>1.1</pdop></trkpt>
<trkpt lat="43.19935484" lon="27.70988846"><ele>51.0</ele><time>2018-08-06T11:32:53.000Z</time><speed>0.0</speed><geoidheight>36.0</geoidheight><src>gps</src><sat>9</sat><hdop>1.9</hdop><vdop>0.9</vdop><pdop>2.1</pdop></trkpt>
<trkpt lat="43.19935549" lon="27.70989027"><ele>51.0</ele><time>2018-08-06T11:33:54.000Z</time><speed>0.0</speed><geoidheight>36.0</geoidheight><src>gps</src><sat>12</sat><hdop>0.8</hdop><vdop>0.8</vdop><pdop>1.2</pdop></trkpt>
<trkpt lat="43.19935448" lon="27.70989078"><ele>51.0</ele><time>2018-08-06T11:34:55.000Z</time><speed>0.0</speed><geoidheight>36.0</geoidheight><src>gps</src><sat>9</sat><hdop>1.0</hdop><vdop>0.9</vdop><pdop>1.3</pdop></trkpt>
<trkpt lat="43.1993259" lon="27.70989124"><ele>53.0</ele><time>2018-08-06T11:35:56.000Z</time><speed>0.0</speed><geoidheight>36.0</geoidheight><src>gps</src><sat>8</sat><hdop>1.1</hdop><vdop>0.9</vdop><pdop>1.4</pdop></trkpt>
<trkpt lat="43.19932443" lon="27.70994648"><ele>51.0</ele><time>2018-08-06T11:36:57.000Z</time><speed>0.0</speed><geoidheight>36.0</geoidheight><src>gps</src><sat>9</sat><hdop>1.1</hdop><vdop>0.9</vdop><pdop>1.4</pdop></trkpt>
<trkpt lat="43.19938567" lon="27.70991216"><ele>49.0</ele><time>2018-08-06T11:37:58.000Z</time><speed>0.0</speed><geoidheight>36.0</geoidheight><src>gps</src><sat>11</sat><hdop>1.4</hdop><vdop>0.9</vdop><pdop>1.6</pdop></trkpt>
<trkpt lat="43.19938495" lon="27.70991366"><ele>49.0</ele><time>2018-08-06T11:38:59.000Z</time><speed>0.0</speed><geoidheight>36.0</geoidheight><src>gps</src><sat>9</sat><hdop>1.0</hdop><vdop>0.9</vdop><pdop>1.3</pdop></trkpt>
<trkpt lat="43.199394" lon="27.7099409"><ele>48.0</ele><time>2018-08-06T11:40:00.000Z</time><speed>0.0</speed><geoidheight>36.0</geoidheight><src>gps</src><sat>13</sat><hdop>0.8</hdop><vdop>0.8</vdop><pdop>1.2</pdop></trkpt>
<trkpt lat="43.19933951" lon="27.70993028"><ele>49.0</ele><time>2018-08-06T11:41:00.000Z</time><speed>0.0</speed><geoidheight>36.0</geoidheight><src>gps</src><sat>7</sat><hdop>1.1</hdop><vdop>0.8</vdop><pdop>1.4</pdop></trkpt>
<trkpt lat="43.19934918" lon="27.70995075"><ele>50.0</ele><time>2018-08-06T11:42:01.000Z</time><speed>0.0</speed><geoidheight>36.0</geoidheight><src>gps</src><sat>12</sat><hdop>1.3</hdop><vdop>0.9</vdop><pdop>1.6</pdop></trkpt>
<trkpt lat="43.19934348" lon="27.70994537"><ele>48.0</ele><time>2018-08-06T11:43:01.000Z</time><speed>0.0</speed><geoidheight>36.0</geoidheight><src>gps</src><sat>7</sat><hdop>1.3</hdop><vdop>0.9</vdop><pdop>1.6</pdop></trkpt>
<trkpt lat="43.19938558" lon="27.70998109"><ele>45.0</ele><time>2018-08-06T11:44:02.000Z</time><speed>0.0</speed><geoidheight>36.0</geoidheight><src>gps</src><sat>7</sat><hdop>1.2</hdop><vdop>0.8</vdop><pdop>1.4</pdop></trkpt>
<trkpt lat="43.199383" lon="27.70997146"><ele>47.0</ele><time>2018-08-06T11:45:02.000Z</time><speed>0.0</speed><geoidheight>36.0</geoidheight><src>gps</src><sat>12</sat><hdop>0.9</hdop><vdop>0.7</vdop><pdop>1.2</pdop></trkpt>
<trkpt lat="43.19939537" lon="27.70990835"><ele>56.0</ele><time>2018-08-06T11:46:03.000Z</time><speed>0.0</speed><geoidheight>36.0</geoidheight><src>gps</src><sat>10</sat><hdop>1.3</hdop><vdop>0.9</vdop><pdop>1.6</pdop></trkpt>
<trkpt lat="43.19935946" lon="27.70990453"><ele>63.0</ele><time>2018-08-06T11:47:04.000Z</time><speed>0.0</speed><geoidheight>36.0</geoidheight><src>gps</src><sat>9</sat><hdop>1.1</hdop><vdop>0.9</vdop><pdop>1.4</pdop></trkpt>
<trkpt lat="43.19934539" lon="27.70988261"><ele>65.0</ele><time>2018-08-06T11:48:05.000Z</time><course>98.4</course><speed>0.34132096</speed><geoidheight>36.0</geoidheight><src>gps</src><sat>7</sat><hdop>1.1</hdop><vdop>0.9</vdop><pdop>1.4</pdop></trkpt>
<trkpt lat="43.1993685" lon="27.70990539"><ele>64.0</ele><time>2018-08-06T11:49:06.000Z</time><speed>0.0</speed><geoidheight>36.0</geoidheight><src>gps</src><sat>10</sat><hdop>0.9</hdop><vdop>0.7</vdop><pdop>1.1</pdop></trkpt>
<trkpt lat="43.19930448" lon="27.70977574"><ele>66.0</ele><time>2018-08-06T11:50:07.000Z</time><speed>0.0</speed><geoidheight>36.0</geoidheight><src>gps</src><sat>14</sat><hdop>0.7</hdop><vdop>0.7</vdop><pdop>1.0</pdop></trkpt>
<trkpt lat="43.19930025" lon="27.7098458"><ele>63.0</ele><time>2018-08-06T11:51:08.000Z</time><speed>0.0</speed><geoidheight>36.0</geoidheight><src>gps</src><sat>14</sat><hdop>0.7</hdop><vdop>0.7</vdop><pdop>1.0</pdop></trkpt>
<trkpt lat="43.1993253" lon="27.70986847"><ele>63.0</ele><time>2018-08-06T11:52:09.000Z</time><speed>0.0</speed><geoidheight>36.0</geoidheight><src>gps</src><sat>10</sat><hdop>0.8</hdop><vdop>0.9</vdop><pdop>1.2</pdop></trkpt>
<trkpt lat="43.19864243" lon="27.71136321"><ele>52.0</ele><time>2018-08-06T11:53:10.000Z</time><course>85.9</course><speed>5.500009</speed><geoidheight>36.0</geoidheight><src>gps</src><sat>14</sat><hdop>0.7</hdop><vdop>0.8</vdop><pdop>1.0</pdop></trkpt>
<trkpt lat="43.19865566" lon="27.71529087"><ele>52.0</ele><time>2018-08-06T11:54:10.000Z</time><course>94.1</course><speed>5.160475</speed><geoidheight>36.0</geoidheight><src>gps</src><sat>10</sat><hdop>0.7</hdop><vdop>0.8</vdop><pdop>1.0</pdop></trkpt>
<trkpt lat="43.19809667" lon="27.71936924"><ele>46.0</ele><time>2018-08-06T11:55:11.000Z</time><course>114.5</course><speed>5.1903467</speed><geoidheight>36.0</geoidheight><src>gps</src><sat>12</sat><hdop>0.7</hdop><vdop>0.8</vdop><pdop>1.0</pdop></trkpt>
<trkpt lat="43.19793104" lon="27.72263805"><ele>55.0</ele><time>2018-08-06T11:56:12.000Z</time><course>83.3</course><speed>3.276736</speed><geoidheight>36.0</geoidheight><src>gps</src><sat>12</sat><hdop>0.7</hdop><vdop>0.8</vdop><pdop>1.0</pdop></trkpt>
<trkpt lat="43.1983653" lon="27.7250768"><ele>59.0</ele><time>2018-08-06T11:57:13.000Z</time><course>77.6</course><speed>3.3221679</speed><geoidheight>36.0</geoidheight><src>gps</src><sat>12</sat><hdop>0.7</hdop><vdop>0.8</vdop><pdop>1.0</pdop></trkpt>
<trkpt lat="43.19887318" lon="27.72758457"><ele>70.0</ele><time>2018-08-06T11:58:13.000Z</time><course>73.6</course><speed>3.6722746</speed><geoidheight>36.0</geoidheight><src>gps</src><sat>13</sat><hdop>0.7</hdop><vdop>0.8</vdop><pdop>1.1</pdop></trkpt>
<trkpt lat="43.1996488" lon="27.73169837"><ele>66.0</ele><time>2018-08-06T11:59:14.000Z</time><course>75.0</course><speed>6.6658907</speed><geoidheight>36.0</geoidheight><src>gps</src><sat>12</sat><hdop>0.7</hdop><vdop>0.8</vdop><pdop>1.0</pdop></trkpt>
<trkpt lat="43.20008555" lon="27.73553165"><ele>75.0</ele><time>2018-08-06T12:00:15.000Z</time><course>85.9</course><speed>4.2000117</speed><geoidheight>36.0</geoidheight><src>gps</src><sat>13</sat><hdop>0.7</hdop><vdop>0.8</vdop><pdop>1.0</pdop></trkpt>
<trkpt lat="43.20033289" lon="27.73902181"><ele>83.0</ele><time>2018-08-06T12:01:16.000Z</time><course>83.5</course><speed>5.3389983</speed><geoidheight>36.0</geoidheight><src>gps</src><sat>13</sat><hdop>0.7</hdop><vdop>0.8</vdop><pdop>1.0</pdop></trkpt>
<trkpt lat="43.2003436" lon="27.74294009"><ele>84.0</ele><time>2018-08-06T12:02:17.000Z</time><course>97.8</course><speed>4.8600926</speed><geoidheight>36.0</geoidheight><src>gps</src><sat>15</sat><hdop>0.6</hdop><vdop>0.7</vdop><pdop>1.0</pdop></trkpt>
<trkpt lat="43.19993587" lon="27.74549304"><ele>91.0</ele><time>2018-08-06T12:03:17.000Z</time><course>102.6</course><speed>3.6808696</speed><geoidheight>36.0</geoidheight><src>gps</src><sat>15</sat><hdop>0.6</hdop><vdop>0.7</vdop><pdop>0.9</pdop></trkpt>
<trkpt lat="43.1994459" lon="27.74794895"><ele>101.0</ele><time>2018-08-06T12:04:17.000Z</time><course>108.5</course><speed>3.5106978</speed><geoidheight>36.0</geoidheight><src>gps</src><sat>14</sat><hdop>0.7</hdop><vdop>0.8</vdop><pdop>1.0</pdop></trkpt>
<trkpt lat="43.19887137" lon="27.75065504"><ele>105.0</ele><time>2018-08-06T12:05:18.000Z</time><course>107.5</course><speed>4.3200464</speed><geoidheight>36.0</geoidheight><src>gps</src><sat>17</sat><hdop>0.6</hdop><vdop>0.7</vdop><pdop>0.9</pdop></trkpt>
<trkpt lat="43.19822803" lon="27.75448807"><ele>103.0</ele><time>2018-08-06T12:06:19.000Z</time><course>99.1</course><speed>6.8116517</speed><geoidheight>36.0</geoidheight><src>gps</src><sat>18</sat><hdop>0.6</hdop><vdop>0.7</vdop><pdop>0.9</pdop></trkpt>
<trkpt lat="43.19921173" lon="27.76138137"><ele>71.0</ele><time>2018-08-06T12:07:20.000Z</time><course>66.9</course><speed>9.880046</speed><geoidheight>36.0</geoidheight><src>gps</src><sat>15</sat><hdop>0.7</hdop><vdop>0.7</vdop><pdop>0.9</pdop></trkpt>
<trkpt lat="43.20208656" lon="27.76745251"><ele>53.0</ele><time>2018-08-06T12:08:21.000Z</time><course>59.2</course><speed>4.8749666</speed><geoidheight>36.0</geoidheight><src>gps</src><sat>12</sat><hdop>0.6</hdop><vdop>0.7</vdop><pdop>0.9</pdop></trkpt>
<trkpt lat="43.2028506" lon="27.76991084"><ele>63.0</ele><time>2018-08-06T12:09:22.000Z</time><course>70.7</course><speed>3.3221679</speed><geoidheight>36.0</geoidheight><src>gps</src><sat>12</sat><hdop>0.6</hdop><vdop>0.7</vdop><pdop>0.9</pdop></trkpt>
<trkpt lat="43.20336031" lon="27.77242225"><ele>65.0</ele><time>2018-08-06T12:10:23.000Z</time><course>80.6</course><speed>3.6544356</speed><geoidheight>36.0</geoidheight><src>gps</src><sat>12</sat><hdop>0.7</hdop><vdop>0.7</vdop><pdop>1.0</pdop></trkpt>
<trkpt lat="43.20358234" lon="27.77495708"><ele>72.0</ele><time>2018-08-06T12:11:23.000Z</time><course>84.7</course><speed>3.5724642</speed><geoidheight>36.0</geoidheight><src>gps</src><sat>14</sat><hdop>0.7</hdop><vdop>0.7</vdop><pdop>1.0</pdop></trkpt>
<trkpt lat="43.20355346" lon="27.77870121"><ele>72.0</ele><time>2018-08-06T12:12:24.000Z</time><course>86.1</course><speed>6.3513227</speed><geoidheight>36.0</geoidheight><src>gps</src><sat>14</sat><hdop>0.7</hdop><vdop>0.7</vdop><pdop>1.0</pdop></trkpt>
<trkpt lat="43.20447956" lon="27.7847442"><ele>57.0</ele><time>2018-08-06T12:13:24.000Z</time><course>74.3</course><speed>9.462795</speed><geoidheight>36.0</geoidheight><src>gps</src><sat>14</sat><hdop>0.7</hdop><vdop>0.7</vdop><pdop>1.0</pdop></trkpt>
<trkpt lat="43.20576915" lon="27.79100484"><ele>44.0</ele><time>2018-08-06T12:14:25.000Z</time><course>77.0</course><speed>7.8000064</speed><geoidheight>36.0</geoidheight><src>gps</src><sat>14</sat><hdop>0.7</hdop><vdop>0.7</vdop><pdop>1.0</pdop></trkpt>
<trkpt lat="43.20611078" lon="27.79522799"><ele>41.0</ele><time>2018-08-06T12:15:26.000Z</time><course>98.2</course><speed>4.3989205</speed><geoidheight>36.0</geoidheight><src>gps</src><sat>13</sat><hdop>0.7</hdop><vdop>0.7</vdop><pdop>0.9</pdop></trkpt>
<trkpt lat="43.20561534" lon="27.79794856"><ele>48.0</ele><time>2018-08-06T12:16:27.000Z</time><course>118.5</course><speed>3.4184353</speed><geoidheight>36.0</geoidheight><src>gps</src><sat>13</sat><hdop>0.7</hdop><vdop>0.7</vdop><pdop>1.0</pdop></trkpt>
<trkpt lat="43.20455083" lon="27.80084624"><ele>46.0</ele><time>2018-08-06T12:17:27.000Z</time><course>115.8</course><speed>6.2720413</speed><geoidheight>36.0</geoidheight><src>gps</src><sat>12</sat><hdop>0.7</hdop><vdop>0.7</vdop><pdop>1.0</pdop></trkpt>
<trkpt lat="43.20307846" lon="27.80454519"><ele>46.0</ele><time>2018-08-06T12:18:28.000Z</time><course>115.1</course><speed>4.4605494</speed><geoidheight>36.0</geoidheight><src>gps</src><sat>11</sat><hdop>0.7</hdop><vdop>0.7</vdop><pdop>1.0</pdop></trkpt>
<trkpt lat="43.20214269" lon="27.80730963"><ele>51.0</ele><time>2018-08-06T12:19:29.000Z</time><course>113.4</course><speed>4.4107256</speed><geoidheight>36.0</geoidheight><src>gps</src><sat>12</sat><hdop>0.7</hdop><vdop>0.7</vdop><pdop>1.0</pdop></trkpt>
<trkpt lat="43.20124337" lon="27.81012352"><ele>49.0</ele><time>2018-08-06T12:20:29.000Z</time><course>109.7</course><speed>4.2234225</speed><geoidheight>36.0</geoidheight><src>gps</src><sat>11</sat><hdop>0.6</hdop><vdop>0.7</vdop><pdop>0.9</pdop></trkpt>
<trkpt lat="43.20033584" lon="27.81334806"><ele>56.0</ele><time>2018-08-06T12:21:29.000Z</time><course>105.7</course><speed>4.8203735</speed><geoidheight>36.0</geoidheight><src>gps</src><sat>15</sat><hdop>0.6</hdop><vdop>0.7</vdop><pdop>0.9</pdop></trkpt>
<trkpt lat="43.1998959" lon="27.81739068"><ele>57.0</ele><time>2018-08-06T12:22:30.000Z</time><course>87.1</course><speed>5.2100863</speed><geoidheight>36.0</geoidheight><src>gps</src><sat>14</sat><hdop>0.6</hdop><vdop>0.7</vdop><pdop>0.9</pdop></trkpt>
<trkpt lat="43.20029392" lon="27.82164494"><ele>51.0</ele><time>2018-08-06T12:23:31.000Z</time><course>81.3</course><speed>6.071186</speed><geoidheight>36.0</geoidheight><src>gps</src><sat>14</sat><hdop>0.6</hdop><vdop>0.7</vdop><pdop>0.9</pdop></trkpt>
<trkpt lat="43.20075525" lon="27.82685936"><ele>41.0</ele><time>2018-08-06T12:24:32.000Z</time><course>84.4</course><speed>6.010075</speed><geoidheight>36.0</geoidheight><src>gps</src><sat>11</sat><hdop>0.7</hdop><vdop>0.7</vdop><pdop>1.0</pdop></trkpt>
<trkpt lat="43.20111868" lon="27.83065294"><ele>44.0</ele><time>2018-08-06T12:25:33.000Z</time><course>81.0</course><speed>5.398907</speed><geoidheight>36.0</geoidheight><src>gps</src><sat>15</sat><hdop>0.6</hdop><vdop>0.7</vdop><pdop>0.9</pdop></trkpt>
<trkpt lat="43.20181221" lon="27.83448624"><ele>46.0</ele><time>2018-08-06T12:26:34.000Z</time><course>58.1</course><speed>5.4013333</speed><geoidheight>36.0</geoidheight><src>gps</src><sat>13</sat><hdop>0.7</hdop><vdop>0.7</vdop><pdop>1.0</pdop></trkpt>
<trkpt lat="43.2034827" lon="27.83815041"><ele>49.0</ele><time>2018-08-06T12:27:35.000Z</time><course>63.8</course><speed>5.7728066</speed><geoidheight>36.0</geoidheight><src>gps</src><sat>7</sat><hdop>0.6</hdop><vdop>0.7</vdop><pdop>0.9</pdop></trkpt>
<trkpt lat="43.20573431" lon="27.84282615"><ele>40.0</ele><time>2018-08-06T12:28:36.000Z</time><course>55.3</course><speed>7.710415</speed><geoidheight>36.0</geoidheight><src>gps</src><sat>15</sat><hdop>0.6</hdop><vdop>0.7</vdop><pdop>0.9</pdop></trkpt>
<trkpt lat="43.20751519" lon="27.84654434"><ele>42.0</ele><time>2018-08-06T12:29:37.000Z</time><course>52.4</course><speed>4.713767</speed><geoidheight>36.0</geoidheight><src>gps</src><sat>9</sat><hdop>0.6</hdop><vdop>0.7</vdop><pdop>0.9</pdop></trkpt>
<trkpt lat="43.20918109" lon="27.84999941"><ele>44.0</ele><time>2018-08-06T12:30:38.000Z</time><course>57.4</course><speed>6.440194</speed><geoidheight>36.0</geoidheight><src>gps</src><sat>16</sat><hdop>0.6</hdop><vdop>0.7</vdop><pdop>0.9</pdop></trkpt>
<trkpt lat="43.21112733" lon="27.85408432"><ele>42.0</ele><time>2018-08-06T12:31:39.000Z</time><course>56.0</course><speed>6.810066</speed><geoidheight>36.0</geoidheight><src>gps</src><sat>15</sat><hdop>0.7</hdop><vdop>0.7</vdop><pdop>1.0</pdop></trkpt>
<trkpt lat="43.21186535" lon="27.85844875"><ele>37.0</ele><time>2018-08-06T12:32:40.000Z</time><course>106.0</course><speed>4.525848</speed><geoidheight>36.0</geoidheight><src>gps</src><sat>11</sat><hdop>0.6</hdop><vdop>0.7</vdop><pdop>0.9</pdop></trkpt>
<trkpt lat="43.21066094" lon="27.86213651"><ele>42.0</ele><time>2018-08-06T12:33:41.000Z</time><course>121.7</course><speed>5.4311137</speed><geoidheight>36.0</geoidheight><src>gps</src><sat>16</sat><hdop>0.6</hdop><vdop>0.7</vdop><pdop>0.9</pdop></trkpt>
<trkpt lat="43.20968196" lon="27.86631168"><ele>37.0</ele><time>2018-08-06T12:34:42.000Z</time><course>92.7</course><speed>4.8214936</speed><geoidheight>36.0</geoidheight><src>gps</src><sat>14</sat><hdop>0.7</hdop><vdop>0.7</vdop><pdop>0.9</pdop></trkpt>
<trkpt lat="43.21037101" lon="27.87074432"><ele>35.0</ele><time>2018-08-06T12:35:43.000Z</time><course>73.3</course><speed>6.2546062</speed><geoidheight>36.0</geoidheight><src>gps</src><sat>13</sat><hdop>0.6</hdop><vdop>0.7</vdop><pdop>0.9</pdop></trkpt>
<trkpt lat="43.21112501" lon="27.87474446"><ele>38.0</ele><time>2018-08-06T12:36:44.000Z</time><course>77.7</course><speed>5.170474</speed><geoidheight>36.0</geoidheight><src>gps</src><sat>13</sat><hdop>0.6</hdop><vdop>0.7</vdop><pdop>0.9</pdop></trkpt>
<trkpt lat="43.21152867" lon="27.87905996"><ele>50.0</ele><time>2018-08-06T12:37:45.000Z</time><course>99.9</course><speed>6.6019387</speed><geoidheight>36.0</geoidheight><src>gps</src><sat>9</sat><hdop>0.7</hdop><vdop>0.7</vdop><pdop>0.9</pdop></trkpt>
<trkpt lat="43.21067627" lon="27.88265532"><ele>48.0</ele><time>2018-08-06T12:38:45.000Z</time><course>116.2</course><speed>5.38</speed><geoidheight>36.0</geoidheight><src>gps</src><sat>11</sat><hdop>0.7</hdop><vdop>0.7</vdop><pdop>1.0</pdop></trkpt>
<trkpt lat="43.20976109" lon="27.88583154"><ele>47.0</ele><time>2018-08-06T12:39:46.000Z</time><course>80.8</course><speed>4.461356</speed><geoidheight>36.0</geoidheight><src>gps</src><sat>12</sat><hdop>0.6</hdop><vdop>0.7</vdop><pdop>0.9</pdop></trkpt>
<trkpt lat="43.21074646" lon="27.88609107"><ele>48.0</ele><time>2018-08-06T12:40:47.000Z</time><course>8.9</course><speed>0.45177427</speed><geoidheight>36.0</geoidheight><src>gps</src><sat>10</sat><hdop>0.7</hdop><vdop>0.7</vdop><pdop>1.0</pdop></trkpt>
<trkpt lat="43.21069284" lon="27.88607193"><ele>46.0</ele><time>2018-08-06T12:41:48.000Z</time><speed>0.0</speed><geoidheight>36.0</geoidheight><src>gps</src><sat>13</sat><hdop>0.7</hdop><vdop>0.7</vdop><pdop>1.0</pdop></trkpt>
<trkpt lat="43.21069324" lon="27.88605698"><ele>44.0</ele><time>2018-08-06T12:42:49.000Z</time><speed>0.0</speed><geoidheight>36.0</geoidheight><src>gps</src><sat>14</sat><hdop>0.6</hdop><vdop>0.7</vdop><pdop>0.9</pdop></trkpt>
<trkpt lat="43.2106389" lon="27.88609024"><ele>46.0</ele><time>2018-08-06T12:43:50.000Z</time><speed>0.0</speed><geoidheight>36.0</geoidheight><src>gps</src><sat>15</sat><hdop>0.6</hdop><vdop>0.7</vdop><pdop>0.9</pdop></trkpt>
<trkpt lat="43.21013603" lon="27.88770802"><ele>52.0</ele><time>2018-08-06T12:44:51.000Z</time><course>183.9</course><speed>2.6615222</speed><geoidheight>36.0</geoidheight><src>gps</src><sat>13</sat><hdop>0.7</hdop><vdop>0.7</vdop><pdop>1.0</pdop></trkpt>
<trkpt lat="43.20910631" lon="27.88894319"><ele>63.0</ele><time>2018-08-06T12:45:52.000Z</time><course>130.4</course><speed>2.970606</speed><geoidheight>36.0</geoidheight><src>gps</src><sat>15</sat><hdop>0.7</hdop><vdop>0.7</vdop><pdop>1.0</pdop></trkpt>
<trkpt lat="43.20816395" lon="27.89082504"><ele>70.0</ele><time>2018-08-06T12:46:53.000Z</time><course>120.2</course><speed>4.234489</speed><geoidheight>36.0</geoidheight><src>gps</src><sat>9</sat><hdop>0.6</hdop><vdop>0.7</vdop><pdop>0.9</pdop></trkpt>
<trkpt lat="43.20737205" lon="27.89496137"><ele>71.0</ele><time>2018-08-06T12:47:54.000Z</time><course>103.0</course><speed>5.5004454</speed><geoidheight>36.0</geoidheight><src>gps</src><sat>10</sat><hdop>0.7</hdop><vdop>0.6</vdop><pdop>0.9</pdop></trkpt>
<trkpt lat="43.20687176" lon="27.8982282"><ele>73.0</ele><time>2018-08-06T12:48:55.000Z</time><course>106.1</course><speed>5.066675</speed><geoidheight>36.0</geoidheight><src>gps</src><sat>9</sat><hdop>0.9</hdop><vdop>0.8</vdop><pdop>1.2</pdop></trkpt>
<trkpt lat="43.20610422" lon="27.90118884"><ele>73.0</ele><time>2018-08-06T12:49:56.000Z</time><course>151.8</course><speed>0.98061204</speed><geoidheight>36.0</geoidheight><src>gps</src><sat>9</sat><hdop>0.6</hdop><vdop>0.7</vdop><pdop>0.9</pdop></trkpt>
<trkpt lat="43.20612533" lon="27.90117485"><ele>70.0</ele><time>2018-08-06T12:50:57.000Z</time><speed>0.0</speed><geoidheight>36.0</geoidheight><src>gps</src><sat>8</sat><hdop>0.7</hdop><vdop>0.7</vdop><pdop>1.0</pdop></trkpt>
<trkpt lat="43.2054312" lon="27.90223993"><ele>70.0</ele><time>2018-08-06T12:51:58.000Z</time><course>132.2</course><speed>6.266259</speed><geoidheight>36.0</geoidheight><src>gps</src><sat>16</sat><hdop>0.8</hdop><vdop>0.7</vdop><pdop>1.0</pdop></trkpt>
<trkpt lat="43.204098" lon="27.9054004"><ele>68.0</ele><time>2018-08-06T12:52:59.000Z</time><course>72.4</course><speed>4.720519</speed><geoidheight>36.0</geoidheight><src>gps</src><sat>19</sat><hdop>0.6</hdop><vdop>0.6</vdop><pdop>0.9</pdop></trkpt>
<trkpt lat="43.20456673" lon="27.9090146"><ele>69.0</ele><time>2018-08-06T12:54:00.000Z</time><course>85.7</course><speed>5.970008</speed><geoidheight>36.0</geoidheight><src>gps</src><sat>7</sat><hdop>0.7</hdop><vdop>0.7</vdop><pdop>0.9</pdop></trkpt>
<trkpt lat="43.20564785" lon="27.913232"><ele>70.0</ele><time>2018-08-06T12:55:01.000Z</time><course>67.2</course><speed>5.1438894</speed><geoidheight>36.0</geoidheight><src>gps</src><sat>5</sat><hdop>0.9</hdop><vdop>0.7</vdop><pdop>1.1</pdop></trkpt>
<trkpt lat="43.20619889" lon="27.91463219"><ele>73.0</ele><time>2018-08-06T12:56:01.000Z</time><speed>0.0</speed><geoidheight>36.0</geoidheight><src>gps</src><sat>7</sat><hdop>1.2</hdop><vdop>0.9</vdop><pdop>1.4</pdop></trkpt>
<trkpt lat="43.20612768" lon="27.91546442"><ele>67.0</ele><time>2018-08-06T12:57:02.000Z</time><course>180.0</course><speed>3.6600547</speed><geoidheight>36.0</geoidheight><src>gps</src><sat>7</sat><hdop>0.8</hdop><vdop>0.8</vdop><pdop>1.1</pdop></trkpt>
<trkpt lat="43.20543844" lon="27.91708442"><ele>71.0</ele><time>2018-08-06T12:58:03.000Z</time><course>74.6</course><speed>0.6466065</speed><geoidheight>36.0</geoidheight><src>gps</src><sat>5</sat><hdop>1.0</hdop><vdop>0.8</vdop><pdop>1.3</pdop></trkpt>
<trkpt lat="43.20538039" lon="27.91657222"><ele>70.0</ele><time>2018-08-06T12:59:04.000Z</time><speed>0.0</speed><geoidheight>36.0</geoidheight><src>gps</src><sat>5</sat><hdop>1.2</hdop><vdop>0.9</vdop><pdop>1.5</pdop></trkpt>
</trkseg></trk></gpx>