<?xml version="1.0" encoding="UTF-8" standalone="no" ?>
<gpx xmlns="http://www.topografix.com/GPX/1/1" xmlns:gpxx="http://www.garmin.com/xmlschemas/GpxExtensions/v3" xmlns:gpxtpx="http://www.garmin.com/xmlschemas/TrackPointExtension/v1" creator="mapstogpx.com" version="1.1" xmlns:xsi="http://www.w3.org/2001/XMLSchema-instance" xsi:schemaLocation="http://www.topografix.com/GPX/1/1 http://www.topografix.com/GPX/1/1/gpx.xsd http://www.garmin.com/xmlschemas/GpxExtensions/v3 http://www.garmin.com/xmlschemas/GpxExtensionsv3.xsd http://www.garmin.com/xmlschemas/TrackPointExtension/v1 http://www.garmin.com/xmlschemas/TrackPointExtensionv1.xsd">
<trk>
  <trkseg>
  <trkpt lat="45.3223544" lon="55.1817903">
  </trkpt>
  <trkpt lat="45.32233" lon="55.18149">
  </trkpt>
  <trkpt lat="45.32228" lon="55.18079">
  </trkpt>
  <trkpt lat="45.32224" lon="55.18021">
  </trkpt>
  <trkpt lat="45.32222" lon="55.17943">
  </trkpt>
  <trkpt lat="45.32223" lon="55.1793">
  </trkpt>
  <trkpt lat="45.32224" lon="55.17901">
  </trkpt>
  <trkpt lat="45.32227" lon="55.1788">
  </trkpt>
  <trkpt lat="45.3223" lon="55.17865">
  </trkpt>
  <trkpt lat="45.32232" lon="55.17851">
  </trkpt>
  <trkpt lat="45.32241" lon="55.17827">
  </trkpt>
  <trkpt lat="45.32272" lon="55.17752">
  </trkpt>
  <trkpt lat="45.32331" lon="55.17608">
  </trkpt>
  <trkpt lat="45.3234" lon="55.17585">
  </trkpt>
  <trkpt lat="45.32348" lon="55.17566">
  </trkpt>
  <trkpt lat="45.32363" lon="55.17523">
  </trkpt>
  <trkpt lat="45.32424" lon="55.17339">
  </trkpt>
  <trkpt lat="45.325" lon="55.17082">
  </trkpt>
  <trkpt lat="45.32559" lon="55.16895">
  </trkpt>
  <trkpt lat="45.32632" lon="55.16646">
  </trkpt>
  <trkpt lat="45.32658" lon="55.16579">
  </trkpt>
  <trkpt lat="45.32691" lon="55.16478">
  </trkpt>
  <trkpt lat="45.32748" lon="55.16284">
  </trkpt>
  <trkpt lat="45.32796" lon="55.16131">
  </trkpt>
  <trkpt lat="45.3279581" lon="55.1613108">
  </trkpt>
  <trkpt lat="45.32859" lon="55.16149">
  </trkpt>
  <trkpt lat="45.33039" lon="55.162">
  </trkpt>
  <trkpt lat="45.33074" lon="55.1621">
  </trkpt>
  <trkpt lat="45.33174" lon="55.16238">
  </trkpt>
  <trkpt lat="45.33357" lon="55.16292">
  </trkpt>
  <trkpt lat="45.33394" lon="55.16303">
  </trkpt>
  <trkpt lat="45.33417" lon="55.16309">
  </trkpt>
  <trkpt lat="45.33509" lon="55.1634">
  </trkpt>
  <trkpt lat="45.33571" lon="55.16364">
  </trkpt>
  <trkpt lat="45.33607" lon="55.16382">
  </trkpt>
  <trkpt lat="45.33647" lon="55.16409">
  </trkpt>
  <trkpt lat="45.33678" lon="55.16435">
  </trkpt>
  <trkpt lat="45.33701" lon="55.16456">
  </trkpt>
  <trkpt lat="45.3373" lon="55.16486">
  </trkpt>
  <trkpt lat="45.33757" lon="55.16518">
  </trkpt>
  <trkpt lat="45.33778" lon="55.16549">
  </trkpt>
  <trkpt lat="45.33799" lon="55.16578">
  </trkpt>
  <trkpt lat="45.33812" lon="55.16601">
  </trkpt>
  <trkpt lat="45.33813" lon="55.16604">
  </trkpt>
  <trkpt lat="45.3383" lon="55.16638">
  </trkpt>
  <trkpt lat="45.3385" lon="55.16682">
  </trkpt>
  <trkpt lat="45.33869" lon="55.16727">
  </trkpt>
  <trkpt lat="45.33883" lon="55.16766">
  </trkpt>
  <trkpt lat="45.33897" lon="55.16815">
  </trkpt>
  <trkpt lat="45.33904" lon="55.16844">
  </trkpt>
  <trkpt lat="45.3391" lon="55.1687">
  </trkpt>
  <trkpt lat="45.33915" lon="55.169">
  </trkpt>
  <trkpt lat="45.33925" lon="55.16955">
  </trkpt>
  <trkpt lat="45.33939" lon="55.17036">
  </trkpt>
  <trkpt lat="45.33953" lon="55.17132">
  </trkpt>
  <trkpt lat="45.33982" lon="55.17301">
  </trkpt>
  <trkpt lat="45.34002" lon="55.17427">
  </trkpt>
  <trkpt lat="45.34036" lon="55.17634">
  </trkpt>
  <trkpt lat="45.34063" lon="55.17809">
  </trkpt>
  <trkpt lat="45.34076" lon="55.17891">
  </trkpt>
  <trkpt lat="45.340763" lon="55.1789135">
  </trkpt>
  <trkpt lat="45.34045" lon="55.1794">
  </trkpt>
  <trkpt lat="45.34085" lon="55.18041">
  </trkpt>
  <trkpt lat="45.34111" lon="55.1811">
  </trkpt>
  <trkpt lat="45.34121" lon="55.18136">
  </trkpt>
  <trkpt lat="45.34134" lon="55.18165">
  </trkpt>
  <trkpt lat="45.34136" lon="55.18171">
  </trkpt>
  <trkpt lat="45.34137" lon="55.18177">
  </trkpt>
  <trkpt lat="45.34137" lon="55.18186">
  </trkpt>
  <trkpt lat="45.34133" lon="55.18198">
  </trkpt>
  <trkpt lat="45.34122" lon="55.1821">
  </trkpt>
  <trkpt lat="45.33793" lon="55.18497">
  </trkpt>
  <trkpt lat="45.3371" lon="55.18568">
  </trkpt>
  <trkpt lat="45.33579" lon="55.18683">
  </trkpt>
  <trkpt lat="45.33412" lon="55.18819">
  </trkpt>
  <trkpt lat="45.33365" lon="55.18859">
  </trkpt>
  <trkpt lat="45.33354" lon="55.18871">
  </trkpt>
  <trkpt lat="45.33347" lon="55.18881">
  </trkpt>
  <trkpt lat="45.33344" lon="55.18891">
  </trkpt>
  <trkpt lat="45.33342" lon="55.18903">
  </trkpt>
  <trkpt lat="45.33343" lon="55.18914">
  </trkpt>
  <trkpt lat="45.33351" lon="55.18936">
  </trkpt>
  <trkpt lat="45.33428" lon="55.19113">
  </trkpt>
  <trkpt lat="45.33431" lon="55.19124">
  </trkpt>
  <trkpt lat="45.33431" lon="55.19133">
  </trkpt>
  <trkpt lat="45.3343" lon="55.1914">
  </trkpt>
  <trkpt lat="45.33425" lon="55.19149">
  </trkpt>
  <trkpt lat="45.33298" lon="55.19268">
  </trkpt>
  <trkpt lat="45.33193" lon="55.19364">
  </trkpt>
  <trkpt lat="45.33124" lon="55.19422">
  </trkpt>
  <trkpt lat="45.32993" lon="55.1954">
  </trkpt>
  <trkpt lat="45.32939" lon="55.1958">
  </trkpt>
  <trkpt lat="45.32836" lon="55.19643">
  </trkpt>
  <trkpt lat="45.32788" lon="55.19678">
  </trkpt>
  <trkpt lat="45.32606" lon="55.19809">
  </trkpt>
  <trkpt lat="45.32388" lon="55.19967">
  </trkpt>
  <trkpt lat="45.32336" lon="55.20009">
  </trkpt>
  <trkpt lat="45.32256" lon="55.20084">
  </trkpt>
  <trkpt lat="45.32148" lon="55.20179">
  </trkpt>
  <trkpt lat="45.32107" lon="55.20216">
  </trkpt>
  <trkpt lat="45.31972" lon="55.20349">
  </trkpt>
  <trkpt lat="45.31897" lon="55.20418">
  </trkpt>
  <trkpt lat="45.31866" lon="55.20441">
  </trkpt>
  <trkpt lat="45.31856" lon="55.20451">
  </trkpt>
  <trkpt lat="45.31854" lon="55.20456">
  </trkpt>
  <trkpt lat="45.31853" lon="55.20463">
  </trkpt>
  <trkpt lat="45.31853" lon="55.20469">
  </trkpt>
  <trkpt lat="45.31855" lon="55.20479">
  </trkpt>
  <trkpt lat="45.31885" lon="55.20551">
  </trkpt>
  <trkpt lat="45.31779" lon="55.20639">
  </trkpt>
  <trkpt lat="45.31727" lon="55.20683">
  </trkpt>
  <trkpt lat="45.31669" lon="55.20734">
  </trkpt>
  <trkpt lat="45.31632" lon="55.20769">
  </trkpt>
  <trkpt lat="45.31622" lon="55.20782">
  </trkpt>
  <trkpt lat="45.31608" lon="55.20788">
  </trkpt>
  <trkpt lat="45.31482" lon="55.20884">
  </trkpt>
  <trkpt lat="45.31398" lon="55.20949">
  </trkpt>
  <trkpt lat="45.31336" lon="55.21">
  </trkpt>
  <trkpt lat="45.31171" lon="55.2114">
  </trkpt>
  <trkpt lat="45.30976" lon="55.21301">
  </trkpt>
  <trkpt lat="45.30941" lon="55.21332">
  </trkpt>
  <trkpt lat="45.30903" lon="55.21369">
  </trkpt>
  <trkpt lat="45.30874" lon="55.214">
  </trkpt>
  <trkpt lat="45.30826" lon="55.2146">
  </trkpt>
  <trkpt lat="45.30679" lon="55.21643">
  </trkpt>
  <trkpt lat="45.30564" lon="55.21784">
  </trkpt>
  <trkpt lat="45.30538" lon="55.21818">
  </trkpt>
  <trkpt lat="45.30503" lon="55.21862">
  </trkpt>
  <trkpt lat="45.30481" lon="55.21892">
  </trkpt>
  <trkpt lat="45.30466" lon="55.21916">
  </trkpt>
  <trkpt lat="45.30446" lon="55.21956">
  </trkpt>
  <trkpt lat="45.3042" lon="55.22016">
  </trkpt>
  <trkpt lat="45.30394" lon="55.22082">
  </trkpt>
  <trkpt lat="45.30374" lon="55.22136">
  </trkpt>
  <trkpt lat="45.30343" lon="55.22215">
  </trkpt>
  <trkpt lat="45.30269" lon="55.22396">
  </trkpt>
  <trkpt lat="45.30203" lon="55.2256">
  </trkpt>
  <trkpt lat="45.30074" lon="55.22882">
  </trkpt>
  <trkpt lat="45.30007" lon="55.23043">
  </trkpt>
  <trkpt lat="45.29934" lon="55.23226">
  </trkpt>
  <trkpt lat="45.29886" lon="55.23346">
  </trkpt>
  <trkpt lat="45.29839" lon="55.23453">
  </trkpt>
  <trkpt lat="45.29738" lon="55.23682">
  </trkpt>
  <trkpt lat="45.29718" lon="55.23731">
  </trkpt>
  <trkpt lat="45.29651" lon="55.23899">
  </trkpt>
  <trkpt lat="45.29573" lon="55.24086">
  </trkpt>
  <trkpt lat="45.29521" lon="55.24211">
  </trkpt>
  <trkpt lat="45.29443" lon="55.24403">
  </trkpt>
  <trkpt lat="45.29368" lon="55.24586">
  </trkpt>
  <trkpt lat="45.29291" lon="55.24779">
  </trkpt>
  <trkpt lat="45.29203" lon="55.24992">
  </trkpt>
  <trkpt lat="45.29137" lon="55.25152">
  </trkpt>
  <trkpt lat="45.29071" lon="55.25316">
  </trkpt>
  <trkpt lat="45.28991" lon="55.25514">
  </trkpt>
  <trkpt lat="45.28925" lon="55.25677">
  </trkpt>
  <trkpt lat="45.28906" lon="55.25722">
  </trkpt>
  <trkpt lat="45.28847" lon="55.25867">
  </trkpt>
  <trkpt lat="45.28804" lon="55.25972">
  </trkpt>
  <trkpt lat="45.28737" lon="55.26131">
  </trkpt>
  <trkpt lat="45.28641" lon="55.26356">
  </trkpt>
  <trkpt lat="45.28576" lon="55.26496">
  </trkpt>
  <trkpt lat="45.28499" lon="55.2667">
  </trkpt>
  <trkpt lat="45.28385" lon="55.26921">
  </trkpt>
  <trkpt lat="45.28248" lon="55.27222">
  </trkpt>
  <trkpt lat="45.28183" lon="55.27368">
  </trkpt>
  <trkpt lat="45.28135" lon="55.27483">
  </trkpt>
  <trkpt lat="45.28049" lon="55.27696">
  </trkpt>
  <trkpt lat="45.27925" lon="55.27999">
  </trkpt>
  <trkpt lat="45.27788" lon="55.28335">
  </trkpt>
  <trkpt lat="45.2758" lon="55.28843">
  </trkpt>
  <trkpt lat="45.27407" lon="55.29264">
  </trkpt>
  <trkpt lat="45.27302" lon="55.29525">
  </trkpt>
  <trkpt lat="45.27188" lon="55.29803">
  </trkpt>
  <trkpt lat="45.27071" lon="55.30089">
  </trkpt>
  <trkpt lat="45.26924" lon="55.30442">
  </trkpt>
  <trkpt lat="45.26774" lon="55.30802">
  </trkpt>
  <trkpt lat="45.26654" lon="55.31173">
  </trkpt>
  <trkpt lat="45.26129" lon="55.3241">
  </trkpt>
  <trkpt lat="45.26049" lon="55.32573">
  </trkpt>
  <trkpt lat="45.25935" lon="55.32781">
  </trkpt>
  <trkpt lat="45.25627" lon="55.33318">
  </trkpt>
  <trkpt lat="45.25528" lon="55.33468">
  </trkpt>
  <trkpt lat="45.24339" lon="55.35277">
  </trkpt>
  <trkpt lat="45.23147" lon="55.37105">
  </trkpt>
  <trkpt lat="45.23007" lon="55.37358">
  </trkpt>
  <trkpt lat="45.22936" lon="55.37493">
  </trkpt>
  <trkpt lat="45.22762" lon="55.3782">
  </trkpt>
  <trkpt lat="45.22694" lon="55.37951">
  </trkpt>
  <trkpt lat="45.22662" lon="55.38015">
  </trkpt>
  <trkpt lat="45.22627" lon="55.38169">
  </trkpt>
  <trkpt lat="45.22353" lon="55.39383">
  </trkpt>
  <trkpt lat="45.22121" lon="55.4046">
  </trkpt>
  <trkpt lat="45.22104" lon="55.40517">
  </trkpt>
  <trkpt lat="45.22047" lon="55.40603">
  </trkpt>
  <trkpt lat="45.21864" lon="55.40869">
  </trkpt>
  <trkpt lat="45.21456" lon="55.41487">
  </trkpt>
  <trkpt lat="45.2097" lon="55.4232">
  </trkpt>
  <trkpt lat="45.20679" lon="55.42858">
  </trkpt>
  <trkpt lat="45.20186" lon="55.43817">
  </trkpt>
  <trkpt lat="45.20043" lon="55.44119">
  </trkpt>
  <trkpt lat="45.19732" lon="55.44744">
  </trkpt>
  <trkpt lat="45.1946" lon="55.45242">
  </trkpt>
  <trkpt lat="45.19068" lon="55.45928">
  </trkpt>
  <trkpt lat="45.18893" lon="55.46214">
  </trkpt>
  <trkpt lat="45.1855" lon="55.4677">
  </trkpt>
  <trkpt lat="45.18145" lon="55.47456">
  </trkpt>
  <trkpt lat="45.17931" lon="55.47891">
  </trkpt>
  <trkpt lat="45.17772" lon="55.48237">
  </trkpt>
  <trkpt lat="45.17599" lon="55.48612">
  </trkpt>
  <trkpt lat="45.17239" lon="55.49326">
  </trkpt>
  <trkpt lat="45.17069" lon="55.49687">
  </trkpt>
  <trkpt lat="45.16857" lon="55.50131">
  </trkpt>
  <trkpt lat="45.16685" lon="55.5046">
  </trkpt>
  <trkpt lat="45.16566" lon="55.50665">
  </trkpt>
  <trkpt lat="45.16409" lon="55.50935">
  </trkpt>
  <trkpt lat="45.16054" lon="55.51553">
  </trkpt>
  <trkpt lat="45.15602" lon="55.52326">
  </trkpt>
  <trkpt lat="45.1538" lon="55.52735">
  </trkpt>
  <trkpt lat="45.15248" lon="55.52984">
  </trkpt>
  <trkpt lat="45.12541" lon="55.58062">
  </trkpt>
  <trkpt lat="45.12449" lon="55.58227">
  </trkpt>
  <trkpt lat="45.11851" lon="55.5934">
  </trkpt>
  <trkpt lat="45.10951" lon="55.60953">
  </trkpt>
  <trkpt lat="45.10482" lon="55.61777">
  </trkpt>
  <trkpt lat="45.09726" lon="55.63013">
  </trkpt>
  <trkpt lat="45.09316" lon="55.63687">
  </trkpt>
  <trkpt lat="45.09093" lon="55.64084">
  </trkpt>
  <trkpt lat="45.08708" lon="55.64775">
  </trkpt>
  <trkpt lat="45.08116" lon="55.65828">
  </trkpt>
  <trkpt lat="45.07637" lon="55.66693">
  </trkpt>
  <trkpt lat="45.07357" lon="55.67193">
  </trkpt>
  <trkpt lat="45.06769" lon="55.68197">
  </trkpt>
  <trkpt lat="45.05899" lon="55.69697">
  </trkpt>
  <trkpt lat="45.05408" lon="55.70515">
  </trkpt>
  <trkpt lat="45.04791" lon="55.71598">
  </trkpt>
  <trkpt lat="45.0411" lon="55.72759">
  </trkpt>
  <trkpt lat="45.03755" lon="55.73358">
  </trkpt>
  <trkpt lat="45.03703" lon="55.73463">
  </trkpt>
  <trkpt lat="45.03584" lon="55.73761">
  </trkpt>
  <trkpt lat="45.03571" lon="55.73826">
  </trkpt>
  <trkpt lat="45.03527" lon="55.7407">
  </trkpt>
  <trkpt lat="45.03497" lon="55.74201">
  </trkpt>
  <trkpt lat="45.03413" lon="55.74453">
  </trkpt>
  <trkpt lat="45.03355" lon="55.74565">
  </trkpt>
  <trkpt lat="45.03122" lon="55.74956">
  </trkpt>
  <trkpt lat="45.02846" lon="55.75396">
  </trkpt>
  <trkpt lat="45.02722" lon="55.75573">
  </trkpt>
  <trkpt lat="45.02465" lon="55.75904">
  </trkpt>
  <trkpt lat="45.02002" lon="55.76486">
  </trkpt>
  <trkpt lat="45.01609" lon="55.76986">
  </trkpt>
  <trkpt lat="45.01558" lon="55.7707">
  </trkpt>
  <trkpt lat="45.01526" lon="55.77152">
  </trkpt>
  <trkpt lat="45.01498" lon="55.77231">
  </trkpt>
  <trkpt lat="45.01482" lon="55.77347">
  </trkpt>
  <trkpt lat="45.01477" lon="55.77454">
  </trkpt>
  <trkpt lat="45.01482" lon="55.77544">
  </trkpt>
  <trkpt lat="45.01512" lon="55.77694">
  </trkpt>
  <trkpt lat="45.01868" lon="55.78716">
  </trkpt>
  <trkpt lat="45.0192" lon="55.78887">
  </trkpt>
  <trkpt lat="45.01943" lon="55.79014">
  </trkpt>
  <trkpt lat="45.0195" lon="55.79136">
  </trkpt>
  <trkpt lat="45.01944" lon="55.7925">
  </trkpt>
  <trkpt lat="45.01923" lon="55.79383">
  </trkpt>
  <trkpt lat="45.01882" lon="55.79508">
  </trkpt>
  <trkpt lat="45.01768" lon="55.79731">
  </trkpt>
  <trkpt lat="45.01149" lon="55.80808">
  </trkpt>
  <trkpt lat="45.00618" lon="55.81756">
  </trkpt>
  <trkpt lat="44.99312" lon="55.84054">
  </trkpt>
  <trkpt lat="44.98225" lon="55.85973">
  </trkpt>
  <trkpt lat="44.97808" lon="55.86709">
  </trkpt>
  <trkpt lat="44.96609" lon="55.88818">
  </trkpt>
  <trkpt lat="44.96221" lon="55.89499">
  </trkpt>
  <trkpt lat="44.96001" lon="55.89803">
  </trkpt>
  <trkpt lat="44.958" lon="55.90157">
  </trkpt>
  <trkpt lat="44.95414" lon="55.90835">
  </trkpt>
  <trkpt lat="44.94518" lon="55.92412">
  </trkpt>
  <trkpt lat="44.94122" lon="55.93111">
  </trkpt>
  <trkpt lat="44.93187" lon="55.94751">
  </trkpt>
  <trkpt lat="44.92561" lon="55.95826">
  </trkpt>
  <trkpt lat="44.92331" lon="55.96165">
  </trkpt>
  <trkpt lat="44.91078" lon="55.97697">
  </trkpt>
  <trkpt lat="44.90215" lon="55.98792">
  </trkpt>
  <trkpt lat="44.89966" lon="55.99135">
  </trkpt>
  <trkpt lat="44.89279" lon="56.00212">
  </trkpt>
  <trkpt lat="44.88561" lon="56.01697">
  </trkpt>
  <trkpt lat="44.87871" lon="56.03126">
  </trkpt>
  <trkpt lat="44.87391" lon="56.04152">
  </trkpt>
  <trkpt lat="44.87339" lon="56.04263">
  </trkpt>
  <trkpt lat="44.8733892" lon="56.0426331">
  </trkpt>
  <trkpt lat="44.85882" lon="56.0734">
  </trkpt>
  <trkpt lat="44.84835" lon="56.09439">
  </trkpt>
  <trkpt lat="44.84066" lon="56.10847">
  </trkpt>
  <trkpt lat="44.83274" lon="56.12143">
  </trkpt>
  <trkpt lat="44.82136" lon="56.14044">
  </trkpt>
  <trkpt lat="44.82023" lon="56.14267">
  </trkpt>
  <trkpt lat="44.80516" lon="56.1682">
  </trkpt>
  <trkpt lat="44.7917" lon="56.19108">
  </trkpt>
  <trkpt lat="44.7824" lon="56.20688">
  </trkpt>
  <trkpt lat="44.77912" lon="56.21245">
  </trkpt>
  <trkpt lat="44.76319" lon="56.2397">
  </trkpt>
  <trkpt lat="44.73478" lon="56.28785">
  </trkpt>
  <trkpt lat="44.706" lon="56.336">
  </trkpt>
  <trkpt lat="44.67732" lon="56.38432">
  </trkpt>
  <trkpt lat="44.67421" lon="56.38954">
  </trkpt>
  <trkpt lat="44.66076" lon="56.41243">
  </trkpt>
  <trkpt lat="44.63223" lon="56.46059">
  </trkpt>
  <trkpt lat="44.60364" lon="56.50863">
  </trkpt>
  <trkpt lat="44.57499" lon="56.55674">
  </trkpt>
  <trkpt lat="44.54638" lon="56.60463">
  </trkpt>
  <trkpt lat="44.51799" lon="56.65235">
  </trkpt>
  <trkpt lat="44.48904" lon="56.7007">
  </trkpt>
  <trkpt lat="44.4603" lon="56.74868">
  </trkpt>
  <trkpt lat="44.43197" lon="56.79588">
  </trkpt>
  <trkpt lat="44.40325" lon="56.84367">
  </trkpt>
  <trkpt lat="44.37464" lon="56.89124">
  </trkpt>
  <trkpt lat="44.34583" lon="56.9389">
  </trkpt>
  <trkpt lat="44.31697" lon="56.98679">
  </trkpt>
  <trkpt lat="44.28807" lon="57.03432">
  </trkpt>
  <trkpt lat="44.26078" lon="57.07947">
  </trkpt>
  <trkpt lat="44.23176" lon="57.12734">
  </trkpt>
  <trkpt lat="44.20276" lon="57.17487">
  </trkpt>
  <trkpt lat="44.17383" lon="57.22238">
  </trkpt>
  <trkpt lat="44.14496" lon="57.26975">
  </trkpt>
  <trkpt lat="44.11808" lon="57.31364">
  </trkpt>
  <trkpt lat="44.08754" lon="57.35895">
  </trkpt>
  <trkpt lat="44.06724" lon="57.38908">
  </trkpt>
  <trkpt lat="44.05716" lon="57.40377">
  </trkpt>
  <trkpt lat="44.02682" lon="57.4488">
  </trkpt>
  <trkpt lat="43.99641" lon="57.49371">
  </trkpt>
  <trkpt lat="43.9964" lon="57.49373">
  </trkpt>
  <trkpt lat="43.9847" lon="57.511">
  </trkpt>
  <trkpt lat="43.9791" lon="57.51925">
  </trkpt>
  <trkpt lat="43.97175" lon="57.53007">
  </trkpt>
  <trkpt lat="43.96063" lon="57.54642">
  </trkpt>
  <trkpt lat="43.94962" lon="57.56261">
  </trkpt>
  <trkpt lat="43.91905" lon="57.60761">
  </trkpt>
  <trkpt lat="43.90866" lon="57.62287">
  </trkpt>
  <trkpt lat="43.90251" lon="57.63191">
  </trkpt>
  <trkpt lat="43.89914" lon="57.63687">
  </trkpt>
  <trkpt lat="43.88976" lon="57.65063">
  </trkpt>
  <trkpt lat="43.88835" lon="57.65244">
  </trkpt>
  <trkpt lat="43.88295" lon="57.66037">
  </trkpt>
  <trkpt lat="43.87947" lon="57.66548">
  </trkpt>
  <trkpt lat="43.87433" lon="57.67301">
  </trkpt>
  <trkpt lat="43.86786" lon="57.68248">
  </trkpt>
  <trkpt lat="43.8661" lon="57.68509">
  </trkpt>
  <trkpt lat="43.86296" lon="57.6896">
  </trkpt>
  <trkpt lat="43.8596" lon="57.69396">
  </trkpt>
  <trkpt lat="43.85608" lon="57.69849">
  </trkpt>
  <trkpt lat="43.85255" lon="57.70303">
  </trkpt>
  <trkpt lat="43.84708" lon="57.71003">
  </trkpt>
  <trkpt lat="43.8423" lon="57.7162">
  </trkpt>
  <trkpt lat="43.83547" lon="57.72497">
  </trkpt>
  <trkpt lat="43.829" lon="57.73326">
  </trkpt>
  <trkpt lat="43.8233" lon="57.74062">
  </trkpt>
  <trkpt lat="43.81652" lon="57.74933">
  </trkpt>
  <trkpt lat="43.81016" lon="57.75748">
  </trkpt>
  <trkpt lat="43.77926" lon="57.7971">
  </trkpt>
  <trkpt lat="43.77081" lon="57.80841">
  </trkpt>
  <trkpt lat="43.73796" lon="57.85044">
  </trkpt>
  <trkpt lat="43.70606" lon="57.89124">
  </trkpt>
  <trkpt lat="43.67398" lon="57.93215">
  </trkpt>
  <trkpt lat="43.64115" lon="57.97401">
  </trkpt>
  <trkpt lat="43.6357" lon="57.98095">
  </trkpt>
  <trkpt lat="43.61514" lon="58.00721">
  </trkpt>
  <trkpt lat="43.6078" lon="58.01434">
  </trkpt>
  <trkpt lat="43.60078" lon="58.01966">
  </trkpt>
  <trkpt lat="43.58617" lon="58.02996">
  </trkpt>
  <trkpt lat="43.571" lon="58.04154">
  </trkpt>
  <trkpt lat="43.56404" lon="58.04644">
  </trkpt>
  <trkpt lat="43.5506" lon="58.05631">
  </trkpt>
  <trkpt lat="43.53175" lon="58.07038">
  </trkpt>
  <trkpt lat="43.53007" lon="58.07167">
  </trkpt>
  <trkpt lat="43.51009" lon="58.08652">
  </trkpt>
  <trkpt lat="43.49278" lon="58.09888">
  </trkpt>
  <trkpt lat="43.48425" lon="58.10514">
  </trkpt>
  <trkpt lat="43.4665" lon="58.11802">
  </trkpt>
  <trkpt lat="43.46513" lon="58.11896">
  </trkpt>
  <trkpt lat="43.46339" lon="58.11956">
  </trkpt>
  <trkpt lat="43.4617" lon="58.11965">
  </trkpt>
  <trkpt lat="43.46052" lon="58.11905">
  </trkpt>
  <trkpt lat="43.45354" lon="58.11484">
  </trkpt>
  <trkpt lat="43.45261" lon="58.11424">
  </trkpt>
  <trkpt lat="43.45174" lon="58.11407">
  </trkpt>
  <trkpt lat="43.44264" lon="58.11785">
  </trkpt>
  <trkpt lat="43.4235" lon="58.12541">
  </trkpt>
  <trkpt lat="43.4235035" lon="58.1254056">
  </trkpt>
  <trkpt lat="43.42425" lon="58.12901">
  </trkpt>
  <trkpt lat="43.42961" lon="58.13682">
  </trkpt>
  <trkpt lat="43.43154" lon="58.14179">
  </trkpt>
  <trkpt lat="43.43355" lon="58.14648">
  </trkpt>
  <trkpt lat="43.43655" lon="58.15188">
  </trkpt>
  <trkpt lat="43.43708" lon="58.15249">
  </trkpt>
  <trkpt lat="43.43843" lon="58.1542">
  </trkpt>
  <trkpt lat="43.43927" lon="58.15754">
  </trkpt>
  <trkpt lat="43.43706" lon="58.16347">
  </trkpt>
  <trkpt lat="43.43083" lon="58.17677">
  </trkpt>
  <trkpt lat="43.42562" lon="58.19037">
  </trkpt>
  <trkpt lat="43.41297" lon="58.21595">
  </trkpt>
  <trkpt lat="43.41141" lon="58.22604">
  </trkpt>
  <trkpt lat="43.41053" lon="58.23114">
  </trkpt>
  <trkpt lat="43.40704" lon="58.23784">
  </trkpt>
  <trkpt lat="43.38671" lon="58.2817">
  </trkpt>
  <trkpt lat="43.37511" lon="58.30513">
  </trkpt>
  <trkpt lat="43.36369" lon="58.32908">
  </trkpt>
  <trkpt lat="43.36123" lon="58.33212">
  </trkpt>
  <trkpt lat="43.36091" lon="58.33363">
  </trkpt>
  <trkpt lat="43.35854" lon="58.33611">
  </trkpt>
  <trkpt lat="43.3563" lon="58.33693">
  </trkpt>
  <trkpt lat="43.3542" lon="58.33865">
  </trkpt>
  <trkpt lat="43.35158" lon="58.34118">
  </trkpt>
  <trkpt lat="43.33951" lon="58.35629">
  </trkpt>
  <trkpt lat="43.32758" lon="58.37216">
  </trkpt>
  <trkpt lat="43.3086" lon="58.39688">
  </trkpt>
  <trkpt lat="43.29532" lon="58.41461">
  </trkpt>
  <trkpt lat="43.29164" lon="58.41916">
  </trkpt>
  <trkpt lat="43.28305" lon="58.43066">
  </trkpt>
  <trkpt lat="43.27655" lon="58.43928">
  </trkpt>
  <trkpt lat="43.26308" lon="58.45675">
  </trkpt>
  <trkpt lat="43.25796" lon="58.46332">
  </trkpt>
  <trkpt lat="43.25252" lon="58.47057">
  </trkpt>
  <trkpt lat="43.24211" lon="58.48443">
  </trkpt>
  <trkpt lat="43.23163" lon="58.49808">
  </trkpt>
  <trkpt lat="43.2206" lon="58.51228">
  </trkpt>
  <trkpt lat="43.2119" lon="58.52378">
  </trkpt>
  <trkpt lat="43.19923" lon="58.54043">
  </trkpt>
  <trkpt lat="43.18976" lon="58.55349">
  </trkpt>
  <trkpt lat="43.17933" lon="58.56685">
  </trkpt>
  <trkpt lat="43.17744" lon="58.56951">
  </trkpt>
  <trkpt lat="43.17644" lon="58.57083">
  </trkpt>
  <trkpt lat="43.17597" lon="58.57149">
  </trkpt>
  <trkpt lat="43.1758" lon="58.57183">
  </trkpt>
  <trkpt lat="43.17569" lon="58.57217">
  </trkpt>
  <trkpt lat="43.17487" lon="58.57869">
  </trkpt>
  <trkpt lat="43.17461" lon="58.57997">
  </trkpt>
  <trkpt lat="43.17461" lon="58.58028">
  </trkpt>
  <trkpt lat="43.175" lon="58.5809">
  </trkpt>
  <trkpt lat="43.17505" lon="58.58119">
  </trkpt>
  <trkpt lat="43.17501" lon="58.58137">
  </trkpt>
  <trkpt lat="43.17494" lon="58.58152">
  </trkpt>
  <trkpt lat="43.17343" lon="58.58436">
  </trkpt>
  <trkpt lat="43.1727" lon="58.58565">
  </trkpt>
  <trkpt lat="43.16565" lon="58.60022">
  </trkpt>
  <trkpt lat="43.16011" lon="58.61116">
  </trkpt>
  <trkpt lat="43.1516" lon="58.62863">
  </trkpt>
  <trkpt lat="43.14346" lon="58.64571">
  </trkpt>
  <trkpt lat="43.13444" lon="58.66107">
  </trkpt>
  <trkpt lat="43.12561" lon="58.67849">
  </trkpt>
  <trkpt lat="43.12404" lon="58.68165">
  </trkpt>
  <trkpt lat="43.11181" lon="58.70596">
  </trkpt>
  <trkpt lat="43.10965" lon="58.7104">
  </trkpt>
  <trkpt lat="43.10719" lon="58.71557">
  </trkpt>
  <trkpt lat="43.10418" lon="58.72149">
  </trkpt>
  <trkpt lat="43.10029" lon="58.72885">
  </trkpt>
  <trkpt lat="43.09417" lon="58.74117">
  </trkpt>
  <trkpt lat="43.09338" lon="58.7433">
  </trkpt>
  <trkpt lat="43.09069" lon="58.75066">
  </trkpt>
  <trkpt lat="43.08965" lon="58.75357">
  </trkpt>
  <trkpt lat="43.0889" lon="58.75514">
  </trkpt>
  <trkpt lat="43.08632" lon="58.76029">
  </trkpt>
  <trkpt lat="43.0855" lon="58.76203">
  </trkpt>
  <trkpt lat="43.0827" lon="58.76763">
  </trkpt>
  <trkpt lat="43.08251" lon="58.76801">
  </trkpt>
  <trkpt lat="43.07917" lon="58.77497">
  </trkpt>
  <trkpt lat="43.0782" lon="58.7772">
  </trkpt>
  <trkpt lat="43.0764" lon="58.78087">
  </trkpt>
  <trkpt lat="43.07596" lon="58.7817">
  </trkpt>
  <trkpt lat="43.07249" lon="58.78882">
  </trkpt>
  <trkpt lat="43.07045" lon="58.79295">
  </trkpt>
  <trkpt lat="43.06741" lon="58.79915">
  </trkpt>
  <trkpt lat="43.06541" lon="58.80327">
  </trkpt>
  <trkpt lat="43.06288" lon="58.80833">
  </trkpt>
  <trkpt lat="43.06121" lon="58.81183">
  </trkpt>
  <trkpt lat="43.06102" lon="58.81224">
  </trkpt>
  <trkpt lat="43.05807" lon="58.81823">
  </trkpt>
  <trkpt lat="43.05593" lon="58.82257">
  </trkpt>
  <trkpt lat="43.05519" lon="58.82408">
  </trkpt>
  <trkpt lat="43.05396" lon="58.82657">
  </trkpt>
  <trkpt lat="43.05378" lon="58.82691">
  </trkpt>
  <trkpt lat="43.0528" lon="58.8287">
  </trkpt>
  <trkpt lat="43.05188" lon="58.83034">
  </trkpt>
  <trkpt lat="43.05156" lon="58.83094">
  </trkpt>
  <trkpt lat="43.05149" lon="58.83108">
  </trkpt>
  <trkpt lat="43.05129" lon="58.83131">
  </trkpt>
  <trkpt lat="43.0511" lon="58.83149">
  </trkpt>
  <trkpt lat="43.0510974" lon="58.8314894">
  </trkpt>
  <trkpt lat="43.05091" lon="58.83129">
  </trkpt>
  <trkpt lat="43.05062" lon="58.83094">
  </trkpt>
  <trkpt lat="43.05034" lon="58.83036">
  </trkpt>
  <trkpt lat="43.05007" lon="58.82985">
  </trkpt>
  <trkpt lat="43.04974" lon="58.82916">
  </trkpt>
  <trkpt lat="43.04948" lon="58.82863">
  </trkpt>
  <trkpt lat="43.04928" lon="58.82834">
  </trkpt>
  <trkpt lat="43.04894" lon="58.82796">
  </trkpt>
  <trkpt lat="43.04888" lon="58.82789">
  </trkpt>
  <trkpt lat="43.04849" lon="58.82745">
  </trkpt>
  <trkpt lat="43.04848" lon="58.82744">
  </trkpt>
  <trkpt lat="43.0479" lon="58.82682">
  </trkpt>
  <trkpt lat="43.04742" lon="58.82638">
  </trkpt>
  <trkpt lat="43.04715" lon="58.82621">
  </trkpt>
  <trkpt lat="43.04688" lon="58.82607">
  </trkpt>
  <trkpt lat="43.04655" lon="58.82592">
  </trkpt>
  <trkpt lat="43.04615" lon="58.82581">
  </trkpt>
  <trkpt lat="43.04557" lon="58.82572">
  </trkpt>
  <trkpt lat="43.04506" lon="58.82567">
  </trkpt>
  <trkpt lat="43.04481" lon="58.82564">
  </trkpt>
  <trkpt lat="43.04453" lon="58.8256">
  </trkpt>
  <trkpt lat="43.04452" lon="58.8256">
  </trkpt>
  <trkpt lat="43.0445227" lon="58.8255952">
  </trkpt>
  <trkpt lat="43.04453" lon="58.82557">
  </trkpt>
  <trkpt lat="43.04453" lon="58.82545">
  </trkpt>
  <trkpt lat="43.0445" lon="58.82536">
  </trkpt>
  <trkpt lat="43.04446" lon="58.82531">
  </trkpt>
  <trkpt lat="43.04441" lon="58.82527">
  </trkpt>
  <trkpt lat="43.04431" lon="58.82529">
  </trkpt>
  <trkpt lat="43.04427" lon="58.8253">
  </trkpt>
  <trkpt lat="43.04424" lon="58.82534">
  </trkpt>
  <trkpt lat="43.0442" lon="58.8254">
  </trkpt>
  <trkpt lat="43.04418" lon="58.82547">
  </trkpt>
  <trkpt lat="43.04419" lon="58.82556">
  </trkpt>
  <trkpt lat="43.04422" lon="58.82564">
  </trkpt>
  <trkpt lat="43.04425" lon="58.82569">
  </trkpt>
  <trkpt lat="43.04408" lon="58.82586">
  </trkpt>
  <trkpt lat="43.04377" lon="58.8261">
  </trkpt>
  <trkpt lat="43.04297" lon="58.82662">
  </trkpt>
  <trkpt lat="43.04141" lon="58.82761">
  </trkpt>
  <trkpt lat="43.0413" lon="58.82768">
  </trkpt>
  <trkpt lat="43.04067" lon="58.82807">
  </trkpt>
  <trkpt lat="43.03959" lon="58.82875">
  </trkpt>
  <trkpt lat="43.03878" lon="58.82924">
  </trkpt>
  <trkpt lat="43.03748" lon="58.83008">
  </trkpt>
  <trkpt lat="43.03647" lon="58.83071">
  </trkpt>
  <trkpt lat="43.03603" lon="58.83098">
  </trkpt>
  <trkpt lat="43.03491" lon="58.83168">
  </trkpt>
  <trkpt lat="43.03355" lon="58.83252">
  </trkpt>
  <trkpt lat="43.03278" lon="58.833">
  </trkpt>
  <trkpt lat="43.03097" lon="58.83413">
  </trkpt>
  <trkpt lat="43.03021" lon="58.83458">
  </trkpt>
  <trkpt lat="43.03016" lon="58.83462">
  </trkpt>
  <trkpt lat="43.02904" lon="58.83531">
  </trkpt>
  <trkpt lat="43.02837" lon="58.83572">
  </trkpt>
  <trkpt lat="43.02834" lon="58.83574">
  </trkpt>
  <trkpt lat="43.02742" lon="58.83626">
  </trkpt>
  <trkpt lat="43.02685" lon="58.83656">
  </trkpt>
  <trkpt lat="43.02615" lon="58.83685">
  </trkpt>
  <trkpt lat="43.02525" lon="58.83712">
  </trkpt>
  <trkpt lat="43.02499" lon="58.83719">
  </trkpt>
  <trkpt lat="43.02443" lon="58.83732">
  </trkpt>
  <trkpt lat="43.02337" lon="58.83758">
  </trkpt>
  <trkpt lat="43.02233" lon="58.83782">
  </trkpt>
  <trkpt lat="43.02145" lon="58.83804">
  </trkpt>
  <trkpt lat="43.02021" lon="58.83833">
  </trkpt>
  <trkpt lat="43.01957" lon="58.83848">
  </trkpt>
  <trkpt lat="43.01899" lon="58.83862">
  </trkpt>
  <trkpt lat="43.01862" lon="58.83871">
  </trkpt>
  <trkpt lat="43.01854" lon="58.83873">
  </trkpt>
  <trkpt lat="43.01761" lon="58.83895">
  </trkpt>
  <trkpt lat="43.01741" lon="58.83899">
  </trkpt>
  <trkpt lat="43.01702" lon="58.83908">
  </trkpt>
  <trkpt lat="43.01643" lon="58.83923">
  </trkpt>
  <trkpt lat="43.01541" lon="58.83946">
  </trkpt>
  <trkpt lat="43.01421" lon="58.83975">
  </trkpt>
  <trkpt lat="43.01359" lon="58.8399">
  </trkpt>
  <trkpt lat="43.01253" lon="58.84015">
  </trkpt>
  <trkpt lat="43.01221" lon="58.84022">
  </trkpt>
  <trkpt lat="43.01116" lon="58.84046">
  </trkpt>
  <trkpt lat="43.00967" lon="58.84082">
  </trkpt>
  <trkpt lat="43.00831" lon="58.84112">
  </trkpt>
  <trkpt lat="43.00734" lon="58.84136">
  </trkpt>
  <trkpt lat="43.00617" lon="58.84165">
  </trkpt>
  <trkpt lat="43.00549" lon="58.84181">
  </trkpt>
  <trkpt lat="43.00511" lon="58.8419">
  </trkpt>
  <trkpt lat="43.00405" lon="58.84216">
  </trkpt>
  <trkpt lat="43.00403" lon="58.84216">
  </trkpt>
  <trkpt lat="43.00335" lon="58.84236">
  </trkpt>
  <trkpt lat="43.00284" lon="58.84253">
  </trkpt>
  <trkpt lat="43.00204" lon="58.8429">
  </trkpt>
  <trkpt lat="43.00131" lon="58.84326">
  </trkpt>
  <trkpt lat="43.00073" lon="58.84359">
  </trkpt>
  <trkpt lat="43.00039" lon="58.84381">
  </trkpt>
  <trkpt lat="42.99999" lon="58.84408">
  </trkpt>
  <trkpt lat="42.99969" lon="58.84429">
  </trkpt>
  <trkpt lat="42.99879" lon="58.84501">
  </trkpt>
  <trkpt lat="42.99791" lon="58.8457">
  </trkpt>
  <trkpt lat="42.99618" lon="58.84716">
  </trkpt>
  <trkpt lat="42.99596" lon="58.84733">
  </trkpt>
  <trkpt lat="42.99454" lon="58.84851">
  </trkpt>
  <trkpt lat="42.99311" lon="58.8497">
  </trkpt>
  <trkpt lat="42.99267" lon="58.85006">
  </trkpt>
  <trkpt lat="42.99126" lon="58.8512">
  </trkpt>
  <trkpt lat="42.98945" lon="58.85268">
  </trkpt>
  <trkpt lat="42.98771" lon="58.85408">
  </trkpt>
  <trkpt lat="42.98652" lon="58.85506">
  </trkpt>
  <trkpt lat="42.98616" lon="58.85536">
  </trkpt>
  <trkpt lat="42.98538" lon="58.85599">
  </trkpt>
  <trkpt lat="42.98352" lon="58.8575">
  </trkpt>
  <trkpt lat="42.98176" lon="58.85894">
  </trkpt>
  <trkpt lat="42.98038" lon="58.86006">
  </trkpt>
  <trkpt lat="42.9801" lon="58.86029">
  </trkpt>
  <trkpt lat="42.97888" lon="58.86131">
  </trkpt>
  <trkpt lat="42.97806" lon="58.86197">
  </trkpt>
  <trkpt lat="42.97653" lon="58.8632">
  </trkpt>
  <trkpt lat="42.97595" lon="58.86369">
  </trkpt>
  <trkpt lat="42.9743" lon="58.86505">
  </trkpt>
  <trkpt lat="42.97411" lon="58.8652">
  </trkpt>
  <trkpt lat="42.97316" lon="58.86597">
  </trkpt>
  <trkpt lat="42.97141" lon="58.86741">
  </trkpt>
  <trkpt lat="42.97043" lon="58.8682">
  </trkpt>
  <trkpt lat="42.96863" lon="58.86968">
  </trkpt>
  <trkpt lat="42.96816" lon="58.87006">
  </trkpt>
  <trkpt lat="42.96694" lon="58.87106">
  </trkpt>
  <trkpt lat="42.9659" lon="58.87191">
  </trkpt>
  <trkpt lat="42.96433" lon="58.87318">
  </trkpt>
  <trkpt lat="42.96202" lon="58.87507">
  </trkpt>
  <trkpt lat="42.9612" lon="58.87574">
  </trkpt>
  <trkpt lat="42.96043" lon="58.87635">
  </trkpt>
  <trkpt lat="42.95975" lon="58.87689">
  </trkpt>
  <trkpt lat="42.95883" lon="58.87765">
  </trkpt>
  <trkpt lat="42.95731" lon="58.87891">
  </trkpt>
  <trkpt lat="42.95638" lon="58.87967">
  </trkpt>
  <trkpt lat="42.95477" lon="58.88098">
  </trkpt>
  <trkpt lat="42.9543" lon="58.88137">
  </trkpt>
  <trkpt lat="42.95384" lon="58.88175">
  </trkpt>
  <trkpt lat="42.95238" lon="58.88293">
  </trkpt>
  <trkpt lat="42.95124" lon="58.88386">
  </trkpt>
  <trkpt lat="42.9502" lon="58.8847">
  </trkpt>
  <trkpt lat="42.94921" lon="58.88554">
  </trkpt>
  <trkpt lat="42.94816" lon="58.88637">
  </trkpt>
  <trkpt lat="42.94783" lon="58.88663">
  </trkpt>
  <trkpt lat="42.94625" lon="58.88792">
  </trkpt>
  <trkpt lat="42.94536" lon="58.88865">
  </trkpt>
  <trkpt lat="42.94389" lon="58.88986">
  </trkpt>
  <trkpt lat="42.94314" lon="58.89047">
  </trkpt>
  <trkpt lat="42.94202" lon="58.89138">
  </trkpt>
  <trkpt lat="42.94158" lon="58.89174">
  </trkpt>
  <trkpt lat="42.94045" lon="58.89264">
  </trkpt>
  <trkpt lat="42.93968" lon="58.89327">
  </trkpt>
  <trkpt lat="42.93828" lon="58.89441">
  </trkpt>
  <trkpt lat="42.93739" lon="58.89514">
  </trkpt>
  <trkpt lat="42.93602" lon="58.89625">
  </trkpt>
  <trkpt lat="42.93587" lon="58.89637">
  </trkpt>
  <trkpt lat="42.93518" lon="58.89693">
  </trkpt>
  <trkpt lat="42.93361" lon="58.89821">
  </trkpt>
  <trkpt lat="42.93219" lon="58.89936">
  </trkpt>
  <trkpt lat="42.93199" lon="58.89952">
  </trkpt>
  <trkpt lat="42.9319" lon="58.89959">
  </trkpt>
  <trkpt lat="42.93118" lon="58.90017">
  </trkpt>
  <trkpt lat="42.92973" lon="58.90138">
  </trkpt>
  <trkpt lat="42.92921" lon="58.90181">
  </trkpt>
  <trkpt lat="42.92755" lon="58.90316">
  </trkpt>
  <trkpt lat="42.92653" lon="58.904">
  </trkpt>
  <trkpt lat="42.92509" lon="58.90515">
  </trkpt>
  <trkpt lat="42.92359" lon="58.90637">
  </trkpt>
  <trkpt lat="42.92328" lon="58.90662">
  </trkpt>
  <trkpt lat="42.922" lon="58.90765">
  </trkpt>
  <trkpt lat="42.92182" lon="58.9078">
  </trkpt>
  <trkpt lat="42.92055" lon="58.90886">
  </trkpt>
  <trkpt lat="42.91933" lon="58.90984">
  </trkpt>
  <trkpt lat="42.91823" lon="58.91074">
  </trkpt>
  <trkpt lat="42.91706" lon="58.9117">
  </trkpt>
  <trkpt lat="42.91608" lon="58.91251">
  </trkpt>
  <trkpt lat="42.91587" lon="58.91268">
  </trkpt>
  <trkpt lat="42.91455" lon="58.91375">
  </trkpt>
  <trkpt lat="42.91366" lon="58.91448">
  </trkpt>
  <trkpt lat="42.91237" lon="58.91551">
  </trkpt>
  <trkpt lat="42.91139" lon="58.91634">
  </trkpt>
  <trkpt lat="42.91013" lon="58.91734">
  </trkpt>
  <trkpt lat="42.90973" lon="58.91768">
  </trkpt>
  <trkpt lat="42.90859" lon="58.91862">
  </trkpt>
  <trkpt lat="42.90785" lon="58.91922">
  </trkpt>
  <trkpt lat="42.90681" lon="58.92007">
  </trkpt>
  <trkpt lat="42.90606" lon="58.9207">
  </trkpt>
  <trkpt lat="42.90465" lon="58.92185">
  </trkpt>
  <trkpt lat="42.90382" lon="58.92252">
  </trkpt>
  <trkpt lat="42.90359" lon="58.9227">
  </trkpt>
  <trkpt lat="42.90244" lon="58.92363">
  </trkpt>
  <trkpt lat="42.901" lon="58.92479">
  </trkpt>
  <trkpt lat="42.9002" lon="58.92543">
  </trkpt>
  <trkpt lat="42.899" lon="58.92642">
  </trkpt>
  <trkpt lat="42.89815" lon="58.92711">
  </trkpt>
  <trkpt lat="42.89745" lon="58.92769">
  </trkpt>
  <trkpt lat="42.89673" lon="58.92827">
  </trkpt>
  <trkpt lat="42.8958" lon="58.92904">
  </trkpt>
  <trkpt lat="42.89434" lon="58.93021">
  </trkpt>
  <trkpt lat="42.89306" lon="58.93126">
  </trkpt>
  <trkpt lat="42.89245" lon="58.93176">
  </trkpt>
  <trkpt lat="42.89131" lon="58.93269">
  </trkpt>
  <trkpt lat="42.89122" lon="58.93276">
  </trkpt>
  <trkpt lat="42.89032" lon="58.93349">
  </trkpt>
  <trkpt lat="42.88892" lon="58.93461">
  </trkpt>
  <trkpt lat="42.88798" lon="58.93538">
  </trkpt>
  <trkpt lat="42.88673" lon="58.9364">
  </trkpt>
  <trkpt lat="42.88516" lon="58.93767">
  </trkpt>
  <trkpt lat="42.8849" lon="58.93789">
  </trkpt>
  <trkpt lat="42.88422" lon="58.93844">
  </trkpt>
  <trkpt lat="42.88244" lon="58.93987">
  </trkpt>
  <trkpt lat="42.88137" lon="58.94074">
  </trkpt>
  <trkpt lat="42.88119" lon="58.94089">
  </trkpt>
  <trkpt lat="42.88022" lon="58.94167">
  </trkpt>
  <trkpt lat="42.87981" lon="58.94199">
  </trkpt>
  <trkpt lat="42.87827" lon="58.94326">
  </trkpt>
  <trkpt lat="42.87764" lon="58.94379">
  </trkpt>
  <trkpt lat="42.87667" lon="58.94459">
  </trkpt>
  <trkpt lat="42.87576" lon="58.9453">
  </trkpt>
  <trkpt lat="42.87522" lon="58.94573">
  </trkpt>
  <trkpt lat="42.87439" lon="58.9464">
  </trkpt>
  <trkpt lat="42.87337" lon="58.94722">
  </trkpt>
  <trkpt lat="42.87251" lon="58.9479">
  </trkpt>
  <trkpt lat="42.86984" lon="58.95007">
  </trkpt>
  <trkpt lat="42.86908" lon="58.95069">
  </trkpt>
  <trkpt lat="42.86499" lon="58.95401">
  </trkpt>
  <trkpt lat="42.86335" lon="58.95534">
  </trkpt>
  <trkpt lat="42.86285" lon="58.95543">
  </trkpt>
  <trkpt lat="42.8624" lon="58.95579">
  </trkpt>
  <trkpt lat="42.86088" lon="58.95701">
  </trkpt>
  <trkpt lat="42.85984" lon="58.95787">
  </trkpt>
  <trkpt lat="42.85846" lon="58.95897">
  </trkpt>
  <trkpt lat="42.85779" lon="58.95951">
  </trkpt>
  <trkpt lat="42.85669" lon="58.96038">
  </trkpt>
  <trkpt lat="42.85643" lon="58.96058">
  </trkpt>
  <trkpt lat="42.85608" lon="58.96088">
  </trkpt>
  <trkpt lat="42.85506" lon="58.96171">
  </trkpt>
  <trkpt lat="42.85358" lon="58.96291">
  </trkpt>
  <trkpt lat="42.85184" lon="58.96427">
  </trkpt>
  <trkpt lat="42.85133" lon="58.96473">
  </trkpt>
  <trkpt lat="42.85113" lon="58.96505">
  </trkpt>
  <trkpt lat="42.85093" lon="58.96546">
  </trkpt>
  <trkpt lat="42.85062" lon="58.96629">
  </trkpt>
  <trkpt lat="42.8506" lon="58.96635">
  </trkpt>
  <trkpt lat="42.85025" lon="58.96734">
  </trkpt>
  <trkpt lat="42.85009" lon="58.96767">
  </trkpt>
  <trkpt lat="42.84995" lon="58.96789">
  </trkpt>
  <trkpt lat="42.84962" lon="58.9682">
  </trkpt>
  <trkpt lat="42.84829" lon="58.9693">
  </trkpt>
  <trkpt lat="42.84664" lon="58.97062">
  </trkpt>
  <trkpt lat="42.84575" lon="58.97136">
  </trkpt>
  <trkpt lat="42.84495" lon="58.972">
  </trkpt>
  <trkpt lat="42.84431" lon="58.9725">
  </trkpt>
  <trkpt lat="42.84284" lon="58.97368">
  </trkpt>
  <trkpt lat="42.84179" lon="58.97452">
  </trkpt>
  <trkpt lat="42.84051" lon="58.97555">
  </trkpt>
  <trkpt lat="42.839" lon="58.97676">
  </trkpt>
  <trkpt lat="42.83878" lon="58.97693">
  </trkpt>
  <trkpt lat="42.83801" lon="58.97754">
  </trkpt>
  <trkpt lat="42.8368" lon="58.9785">
  </trkpt>
  <trkpt lat="42.83583" lon="58.97928">
  </trkpt>
  <trkpt lat="42.83441" lon="58.98041">
  </trkpt>
  <trkpt lat="42.83373" lon="58.98096">
  </trkpt>
  <trkpt lat="42.83261" lon="58.98185">
  </trkpt>
  <trkpt lat="42.83231" lon="58.98209">
  </trkpt>
  <trkpt lat="42.83156" lon="58.98269">
  </trkpt>
  <trkpt lat="42.8303" lon="58.98368">
  </trkpt>
  <trkpt lat="42.82905" lon="58.98469">
  </trkpt>
  <trkpt lat="42.82795" lon="58.98557">
  </trkpt>
  <trkpt lat="42.82767" lon="58.98579">
  </trkpt>
  <trkpt lat="42.82729" lon="58.98612">
  </trkpt>
  <trkpt lat="42.82644" lon="58.98678">
  </trkpt>
  <trkpt lat="42.82575" lon="58.98732">
  </trkpt>
  <trkpt lat="42.82469" lon="58.98817">
  </trkpt>
  <trkpt lat="42.82386" lon="58.98917">
  </trkpt>
  <trkpt lat="42.8229" lon="58.98997">
  </trkpt>
  <trkpt lat="42.82169" lon="58.99097">
  </trkpt>
  <trkpt lat="42.82067" lon="58.99178">
  </trkpt>
  <trkpt lat="42.82041" lon="58.99198">
  </trkpt>
  <trkpt lat="42.81955" lon="58.99263">
  </trkpt>
  <trkpt lat="42.8194" lon="58.99275">
  </trkpt>
  <trkpt lat="42.81878" lon="58.99323">
  </trkpt>
  <trkpt lat="42.81767" lon="58.99402">
  </trkpt>
  <trkpt lat="42.81735" lon="58.99428">
  </trkpt>
  <trkpt lat="42.81558" lon="58.99574">
  </trkpt>
  <trkpt lat="42.81423" lon="58.99688">
  </trkpt>
  <trkpt lat="42.814" lon="58.99709">
  </trkpt>
  <trkpt lat="42.8136" lon="58.9974">
  </trkpt>
  <trkpt lat="42.81244" lon="58.9984">
  </trkpt>
  <trkpt lat="42.81135" lon="58.99934">
  </trkpt>
  <trkpt lat="42.81082" lon="58.9998">
  </trkpt>
  <trkpt lat="42.80939" lon="59.00099">
  </trkpt>
  <trkpt lat="42.80878" lon="59.00147">
  </trkpt>
  <trkpt lat="42.80736" lon="59.00263">
  </trkpt>
  <trkpt lat="42.80639" lon="59.00346">
  </trkpt>
  <trkpt lat="42.80525" lon="59.00442">
  </trkpt>
  <trkpt lat="42.80478" lon="59.0048">
  </trkpt>
  <trkpt lat="42.80404" lon="59.00541">
  </trkpt>
  <trkpt lat="42.80255" lon="59.00665">
  </trkpt>
  <trkpt lat="42.80182" lon="59.00725">
  </trkpt>
  <trkpt lat="42.80041" lon="59.00843">
  </trkpt>
  <trkpt lat="42.79913" lon="59.00947">
  </trkpt>
  <trkpt lat="42.79826" lon="59.01019">
  </trkpt>
  <trkpt lat="42.79749" lon="59.01082">
  </trkpt>
  <trkpt lat="42.79725" lon="59.01102">
  </trkpt>
  <trkpt lat="42.79602" lon="59.01203">
  </trkpt>
  <trkpt lat="42.79483" lon="59.01304">
  </trkpt>
  <trkpt lat="42.79383" lon="59.01388">
  </trkpt>
  <trkpt lat="42.79247" lon="59.015">
  </trkpt>
  <trkpt lat="42.79166" lon="59.01568">
  </trkpt>
  <trkpt lat="42.79139" lon="59.01591">
  </trkpt>
  <trkpt lat="42.79019" lon="59.01692">
  </trkpt>
  <trkpt lat="42.78917" lon="59.01773">
  </trkpt>
  <trkpt lat="42.78792" lon="59.01875">
  </trkpt>
  <trkpt lat="42.78696" lon="59.01954">
  </trkpt>
  <trkpt lat="42.78566" lon="59.02055">
  </trkpt>
  <trkpt lat="42.78525" lon="59.02089">
  </trkpt>
  <trkpt lat="42.7845" lon="59.02148">
  </trkpt>
  <trkpt lat="42.78322" lon="59.02251">
  </trkpt>
  <trkpt lat="42.78234" lon="59.02323">
  </trkpt>
  <trkpt lat="42.781" lon="59.02432">
  </trkpt>
  <trkpt lat="42.7799" lon="59.0252">
  </trkpt>
  <trkpt lat="42.77909" lon="59.02584">
  </trkpt>
  <trkpt lat="42.77863" lon="59.02622">
  </trkpt>
  <trkpt lat="42.7775" lon="59.02711">
  </trkpt>
  <trkpt lat="42.77614" lon="59.02822">
  </trkpt>
  <trkpt lat="42.77541" lon="59.02881">
  </trkpt>
  <trkpt lat="42.77388" lon="59.03006">
  </trkpt>
  <trkpt lat="42.77295" lon="59.03083">
  </trkpt>
  <trkpt lat="42.77287" lon="59.03089">
  </trkpt>
  <trkpt lat="42.77166" lon="59.03189">
  </trkpt>
  <trkpt lat="42.77013" lon="59.0331">
  </trkpt>
  <trkpt lat="42.76927" lon="59.03376">
  </trkpt>
  <trkpt lat="42.76793" lon="59.03485">
  </trkpt>
  <trkpt lat="42.76678" lon="59.03575">
  </trkpt>
  <trkpt lat="42.76554" lon="59.03673">
  </trkpt>
  <trkpt lat="42.76429" lon="59.03774">
  </trkpt>
  <trkpt lat="42.76335" lon="59.03847">
  </trkpt>
  <trkpt lat="42.76199" lon="59.03955">
  </trkpt>
  <trkpt lat="42.76059" lon="59.04066">
  </trkpt>
  <trkpt lat="42.75929" lon="59.04168">
  </trkpt>
  <trkpt lat="42.75916" lon="59.04178">
  </trkpt>
  <trkpt lat="42.75839" lon="59.04239">
  </trkpt>
  <trkpt lat="42.75693" lon="59.04354">
  </trkpt>
  <trkpt lat="42.75597" lon="59.04428">
  </trkpt>
  <trkpt lat="42.75444" lon="59.04548">
  </trkpt>
  <trkpt lat="42.75333" lon="59.04634">
  </trkpt>
  <trkpt lat="42.75296" lon="59.04662">
  </trkpt>
  <trkpt lat="42.75212" lon="59.04727">
  </trkpt>
  <trkpt lat="42.75098" lon="59.04815">
  </trkpt>
  <trkpt lat="42.74959" lon="59.04923">
  </trkpt>
  <trkpt lat="42.74853" lon="59.05005">
  </trkpt>
  <trkpt lat="42.74734" lon="59.051">
  </trkpt>
  <trkpt lat="42.74675" lon="59.05145">
  </trkpt>
  <trkpt lat="42.74639" lon="59.05173">
  </trkpt>
  <trkpt lat="42.74529" lon="59.05259">
  </trkpt>
  <trkpt lat="42.74422" lon="59.0534">
  </trkpt>
  <trkpt lat="42.74284" lon="59.05449">
  </trkpt>
  <trkpt lat="42.74192" lon="59.05519">
  </trkpt>
  <trkpt lat="42.74077" lon="59.05609">
  </trkpt>
  <trkpt lat="42.74054" lon="59.05627">
  </trkpt>
  <trkpt lat="42.73994" lon="59.05673">
  </trkpt>
  <trkpt lat="42.73853" lon="59.05783">
  </trkpt>
  <trkpt lat="42.73721" lon="59.05885">
  </trkpt>
  <trkpt lat="42.73602" lon="59.05977">
  </trkpt>
  <trkpt lat="42.73529" lon="59.06033">
  </trkpt>
  <trkpt lat="42.73433" lon="59.06108">
  </trkpt>
  <trkpt lat="42.73363" lon="59.06163">
  </trkpt>
  <trkpt lat="42.73264" lon="59.06239">
  </trkpt>
  <trkpt lat="42.73132" lon="59.06344">
  </trkpt>
  <trkpt lat="42.73052" lon="59.06407">
  </trkpt>
  <trkpt lat="42.72881" lon="59.06538">
  </trkpt>
  <trkpt lat="42.72812" lon="59.06592">
  </trkpt>
  <trkpt lat="42.72799" lon="59.06603">
  </trkpt>
  <trkpt lat="42.72693" lon="59.06686">
  </trkpt>
  <trkpt lat="42.72603" lon="59.06755">
  </trkpt>
  <trkpt lat="42.72544" lon="59.06797">
  </trkpt>
  <trkpt lat="42.72469" lon="59.0684">
  </trkpt>
  <trkpt lat="42.72395" lon="59.06877">
  </trkpt>
  <trkpt lat="42.72362" lon="59.06891">
  </trkpt>
  <trkpt lat="42.72339" lon="59.06897">
  </trkpt>
  <trkpt lat="42.72284" lon="59.06908">
  </trkpt>
  <trkpt lat="42.72152" lon="59.06934">
  </trkpt>
  <trkpt lat="42.72102" lon="59.06941">
  </trkpt>
  <trkpt lat="42.72085" lon="59.06945">
  </trkpt>
  <trkpt lat="42.71939" lon="59.06968">
  </trkpt>
  <trkpt lat="42.71896" lon="59.06975">
  </trkpt>
  <trkpt lat="42.71835" lon="59.06984">
  </trkpt>
  <trkpt lat="42.71797" lon="59.0699">
  </trkpt>
  <trkpt lat="42.71768" lon="59.06999">
  </trkpt>
  <trkpt lat="42.71678" lon="59.07041">
  </trkpt>
  <trkpt lat="42.71606" lon="59.07077">
  </trkpt>
  <trkpt lat="42.71571" lon="59.07097">
  </trkpt>
  <trkpt lat="42.71539" lon="59.07119">
  </trkpt>
  <trkpt lat="42.71511" lon="59.07144">
  </trkpt>
  <trkpt lat="42.71467" lon="59.07189">
  </trkpt>
  <trkpt lat="42.71384" lon="59.07279">
  </trkpt>
  <trkpt lat="42.71296" lon="59.07375">
  </trkpt>
  <trkpt lat="42.7127" lon="59.07396">
  </trkpt>
  <trkpt lat="42.71189" lon="59.07484">
  </trkpt>
  <trkpt lat="42.71064" lon="59.07623">
  </trkpt>
  <trkpt lat="42.70961" lon="59.07735">
  </trkpt>
  <trkpt lat="42.7086" lon="59.07847">
  </trkpt>
  <trkpt lat="42.70742" lon="59.07977">
  </trkpt>
  <trkpt lat="42.70714" lon="59.08008">
  </trkpt>
  <trkpt lat="42.70613" lon="59.08119">
  </trkpt>
  <trkpt lat="42.70503" lon="59.08241">
  </trkpt>
  <trkpt lat="42.70369" lon="59.08388">
  </trkpt>
  <trkpt lat="42.70264" lon="59.08502">
  </trkpt>
  <trkpt lat="42.70157" lon="59.0862">
  </trkpt>
  <trkpt lat="42.70057" lon="59.08731">
  </trkpt>
  <trkpt lat="42.7001" lon="59.08784">
  </trkpt>
  <trkpt lat="42.69913" lon="59.08892">
  </trkpt>
  <trkpt lat="42.69814" lon="59.09003">
  </trkpt>
  <trkpt lat="42.697" lon="59.09133">
  </trkpt>
  <trkpt lat="42.69574" lon="59.09274">
  </trkpt>
  <trkpt lat="42.69506" lon="59.0935">
  </trkpt>
  <trkpt lat="42.69472" lon="59.09389">
  </trkpt>
  <trkpt lat="42.69356" lon="59.09521">
  </trkpt>
  <trkpt lat="42.69261" lon="59.09631">
  </trkpt>
  <trkpt lat="42.69143" lon="59.09764">
  </trkpt>
  <trkpt lat="42.6904" lon="59.0988">
  </trkpt>
  <trkpt lat="42.68958" lon="59.09973">
  </trkpt>
  <trkpt lat="42.68927" lon="59.10008">
  </trkpt>
  <trkpt lat="42.68868" lon="59.10074">
  </trkpt>
  <trkpt lat="42.6874" lon="59.10218">
  </trkpt>
  <trkpt lat="42.68645" lon="59.10328">
  </trkpt>
  <trkpt lat="42.6851" lon="59.1048">
  </trkpt>
  <trkpt lat="42.68409" lon="59.10596">
  </trkpt>
  <trkpt lat="42.68288" lon="59.10733">
  </trkpt>
  <trkpt lat="42.68168" lon="59.10868">
  </trkpt>
  <trkpt lat="42.68111" lon="59.10932">
  </trkpt>
  <trkpt lat="42.67992" lon="59.11063">
  </trkpt>
  <trkpt lat="42.67895" lon="59.11173">
  </trkpt>
  <trkpt lat="42.67855" lon="59.11218">
  </trkpt>
  <trkpt lat="42.67751" lon="59.11335">
  </trkpt>
  <trkpt lat="42.6765" lon="59.11447">
  </trkpt>
  <trkpt lat="42.67546" lon="59.11563">
  </trkpt>
  <trkpt lat="42.67422" lon="59.11707">
  </trkpt>
  <trkpt lat="42.67305" lon="59.11839">
  </trkpt>
  <trkpt lat="42.67283" lon="59.11864">
  </trkpt>
  <trkpt lat="42.67136" lon="59.12029">
  </trkpt>
  <trkpt lat="42.67048" lon="59.12129">
  </trkpt>
  <trkpt lat="42.66907" lon="59.12287">
  </trkpt>
  <trkpt lat="42.66755" lon="59.12461">
  </trkpt>
  <trkpt lat="42.66643" lon="59.12587">
  </trkpt>
  <trkpt lat="42.66609" lon="59.12625">
  </trkpt>
  <trkpt lat="42.66567" lon="59.12673">
  </trkpt>
  <trkpt lat="42.66457" lon="59.12796">
  </trkpt>
  <trkpt lat="42.6637" lon="59.12896">
  </trkpt>
  <trkpt lat="42.66239" lon="59.13042">
  </trkpt>
  <trkpt lat="42.66122" lon="59.13177">
  </trkpt>
  <trkpt lat="42.6606" lon="59.13246">
  </trkpt>
  <trkpt lat="42.66035" lon="59.13274">
  </trkpt>
  <trkpt lat="42.65927" lon="59.13398">
  </trkpt>
  <trkpt lat="42.65831" lon="59.13509">
  </trkpt>
  <trkpt lat="42.65724" lon="59.13626">
  </trkpt>
  <trkpt lat="42.65623" lon="59.13741">
  </trkpt>
  <trkpt lat="42.6551" lon="59.13869">
  </trkpt>
  <trkpt lat="42.65508" lon="59.13871">
  </trkpt>
  <trkpt lat="42.65436" lon="59.13954">
  </trkpt>
  <trkpt lat="42.65277" lon="59.14133">
  </trkpt>
  <trkpt lat="42.65142" lon="59.14288">
  </trkpt>
  <trkpt lat="42.65026" lon="59.14417">
  </trkpt>
  <trkpt lat="42.64962" lon="59.14491">
  </trkpt>
  <trkpt lat="42.64943" lon="59.14513">
  </trkpt>
  <trkpt lat="42.64876" lon="59.14587">
  </trkpt>
  <trkpt lat="42.64837" lon="59.14632">
  </trkpt>
  <trkpt lat="42.64815" lon="59.14656">
  </trkpt>
  <trkpt lat="42.64752" lon="59.14728">
  </trkpt>
  <trkpt lat="42.64628" lon="59.14869">
  </trkpt>
  <trkpt lat="42.64532" lon="59.14979">
  </trkpt>
  <trkpt lat="42.64413" lon="59.15115">
  </trkpt>
  <trkpt lat="42.64392" lon="59.1514">
  </trkpt>
  <trkpt lat="42.64261" lon="59.15288">
  </trkpt>
  <trkpt lat="42.64121" lon="59.15447">
  </trkpt>
  <trkpt lat="42.63982" lon="59.15606">
  </trkpt>
  <trkpt lat="42.63865" lon="59.15737">
  </trkpt>
  <trkpt lat="42.63807" lon="59.15802">
  </trkpt>
  <trkpt lat="42.63684" lon="59.15943">
  </trkpt>
  <trkpt lat="42.63574" lon="59.16066">
  </trkpt>
  <trkpt lat="42.63418" lon="59.16243">
  </trkpt>
  <trkpt lat="42.63315" lon="59.16357">
  </trkpt>
  <trkpt lat="42.6328" lon="59.16396">
  </trkpt>
  <trkpt lat="42.63175" lon="59.16515">
  </trkpt>
  <trkpt lat="42.63147" lon="59.16546">
  </trkpt>
  <trkpt lat="42.6309" lon="59.16611">
  </trkpt>
  <trkpt lat="42.62945" lon="59.16772">
  </trkpt>
  <trkpt lat="42.62857" lon="59.16873">
  </trkpt>
  <trkpt lat="42.62702" lon="59.17049">
  </trkpt>
  <trkpt lat="42.62625" lon="59.17136">
  </trkpt>
  <trkpt lat="42.62573" lon="59.17194">
  </trkpt>
  <trkpt lat="42.62477" lon="59.17304">
  </trkpt>
  <trkpt lat="42.6238" lon="59.17413">
  </trkpt>
  <trkpt lat="42.62315" lon="59.17486">
  </trkpt>
  <trkpt lat="42.62218" lon="59.17596">
  </trkpt>
  <trkpt lat="42.62127" lon="59.17699">
  </trkpt>
  <trkpt lat="42.62075" lon="59.17758">
  </trkpt>
  <trkpt lat="42.62" lon="59.17843">
  </trkpt>
  <trkpt lat="42.61857" lon="59.18004">
  </trkpt>
  <trkpt lat="42.61787" lon="59.18088">
  </trkpt>
  <trkpt lat="42.61655" lon="59.18233">
  </trkpt>
  <trkpt lat="42.61576" lon="59.18324">
  </trkpt>
  <trkpt lat="42.61526" lon="59.18381">
  </trkpt>
  <trkpt lat="42.61458" lon="59.18458">
  </trkpt>
  <trkpt lat="42.61374" lon="59.18553">
  </trkpt>
  <trkpt lat="42.61332" lon="59.186">
  </trkpt>
  <trkpt lat="42.61246" lon="59.18698">
  </trkpt>
  <trkpt lat="42.61161" lon="59.18792">
  </trkpt>
  <trkpt lat="42.61026" lon="59.18945">
  </trkpt>
  <trkpt lat="42.60977" lon="59.19003">
  </trkpt>
  <trkpt lat="42.60965" lon="59.19016">
  </trkpt>
  <trkpt lat="42.60865" lon="59.19131">
  </trkpt>
  <trkpt lat="42.60743" lon="59.19268">
  </trkpt>
  <trkpt lat="42.60608" lon="59.19423">
  </trkpt>
  <trkpt lat="42.60452" lon="59.19601">
  </trkpt>
  <trkpt lat="42.60428" lon="59.19628">
  </trkpt>
  <trkpt lat="42.60346" lon="59.19719">
  </trkpt>
  <trkpt lat="42.60196" lon="59.19887">
  </trkpt>
  <trkpt lat="42.6012" lon="59.19971">
  </trkpt>
  <trkpt lat="42.60097" lon="59.19997">
  </trkpt>
  <trkpt lat="42.60008" lon="59.20097">
  </trkpt>
  <trkpt lat="42.59966" lon="59.20144">
  </trkpt>
  <trkpt lat="42.59877" lon="59.20246">
  </trkpt>
  <trkpt lat="42.59828" lon="59.20302">
  </trkpt>
  <trkpt lat="42.59794" lon="59.2034">
  </trkpt>
  <trkpt lat="42.59742" lon="59.20396">
  </trkpt>
  <trkpt lat="42.597" lon="59.20442">
  </trkpt>
  <trkpt lat="42.5962" lon="59.2053">
  </trkpt>
  <trkpt lat="42.59527" lon="59.20632">
  </trkpt>
  <trkpt lat="42.59433" lon="59.20735">
  </trkpt>
  <trkpt lat="42.59357" lon="59.20818">
  </trkpt>
  <trkpt lat="42.59279" lon="59.20905">
  </trkpt>
  <trkpt lat="42.59186" lon="59.21007">
  </trkpt>
  <trkpt lat="42.59178" lon="59.21015">
  </trkpt>
  <trkpt lat="42.59091" lon="59.21111">
  </trkpt>
  <trkpt lat="42.59017" lon="59.21192">
  </trkpt>
  <trkpt lat="42.58935" lon="59.21282">
  </trkpt>
  <trkpt lat="42.58831" lon="59.21399">
  </trkpt>
  <trkpt lat="42.58731" lon="59.21514">
  </trkpt>
  <trkpt lat="42.58635" lon="59.21625">
  </trkpt>
  <trkpt lat="42.58617" lon="59.21645">
  </trkpt>
  <trkpt lat="42.58527" lon="59.21747">
  </trkpt>
  <trkpt lat="42.58472" lon="59.21816">
  </trkpt>
  <trkpt lat="42.58339" lon="59.21969">
  </trkpt>
  <trkpt lat="42.58256" lon="59.22065">
  </trkpt>
  <trkpt lat="42.58144" lon="59.22191">
  </trkpt>
  <trkpt lat="42.58092" lon="59.22248">
  </trkpt>
  <trkpt lat="42.58054" lon="59.22291">
  </trkpt>
  <trkpt lat="42.5798" lon="59.22377">
  </trkpt>
  <trkpt lat="42.57906" lon="59.22466">
  </trkpt>
  <trkpt lat="42.57792" lon="59.22603">
  </trkpt>
  <trkpt lat="42.57655" lon="59.22767">
  </trkpt>
  <trkpt lat="42.57556" lon="59.22889">
  </trkpt>
  <trkpt lat="42.57527" lon="59.22924">
  </trkpt>
  <trkpt lat="42.57505" lon="59.2295">
  </trkpt>
  <trkpt lat="42.57472" lon="59.2299">
  </trkpt>
  <trkpt lat="42.57447" lon="59.2302">
  </trkpt>
  <trkpt lat="42.57353" lon="59.23135">
  </trkpt>
  <trkpt lat="42.57276" lon="59.23227">
  </trkpt>
  <trkpt lat="42.57195" lon="59.23325">
  </trkpt>
  <trkpt lat="42.57143" lon="59.23386">
  </trkpt>
  <trkpt lat="42.57059" lon="59.23487">
  </trkpt>
  <trkpt lat="42.56971" lon="59.23592">
  </trkpt>
  <trkpt lat="42.56936" lon="59.23633">
  </trkpt>
  <trkpt lat="42.56858" lon="59.23725">
  </trkpt>
  <trkpt lat="42.56799" lon="59.23795">
  </trkpt>
  <trkpt lat="42.56723" lon="59.23883">
  </trkpt>
  <trkpt lat="42.56644" lon="59.23973">
  </trkpt>
  <trkpt lat="42.56532" lon="59.24099">
  </trkpt>
  <trkpt lat="42.5645" lon="59.24192">
  </trkpt>
  <trkpt lat="42.5639" lon="59.2426">
  </trkpt>
  <trkpt lat="42.56362" lon="59.24291">
  </trkpt>
  <trkpt lat="42.56296" lon="59.24365">
  </trkpt>
  <trkpt lat="42.56194" lon="59.2448">
  </trkpt>
  <trkpt lat="42.56114" lon="59.24571">
  </trkpt>
  <trkpt lat="42.56014" lon="59.24686">
  </trkpt>
  <trkpt lat="42.5592" lon="59.24792">
  </trkpt>
  <trkpt lat="42.55842" lon="59.24882">
  </trkpt>
  <trkpt lat="42.55836" lon="59.24888">
  </trkpt>
  <trkpt lat="42.55727" lon="59.25009">
  </trkpt>
  <trkpt lat="42.55635" lon="59.25112">
  </trkpt>
  <trkpt lat="42.55554" lon="59.25202">
  </trkpt>
  <trkpt lat="42.55448" lon="59.2532">
  </trkpt>
  <trkpt lat="42.55363" lon="59.25417">
  </trkpt>
  <trkpt lat="42.5529" lon="59.255">
  </trkpt>
  <trkpt lat="42.55241" lon="59.25555">
  </trkpt>
  <trkpt lat="42.5517" lon="59.25635">
  </trkpt>
  <trkpt lat="42.5507" lon="59.25749">
  </trkpt>
  <trkpt lat="42.55032" lon="59.25793">
  </trkpt>
  <trkpt lat="42.54927" lon="59.25912">
  </trkpt>
  <trkpt lat="42.54869" lon="59.2598">
  </trkpt>
  <trkpt lat="42.54787" lon="59.26074">
  </trkpt>
  <trkpt lat="42.54742" lon="59.26123">
  </trkpt>
  <trkpt lat="42.54689" lon="59.26184">
  </trkpt>
  <trkpt lat="42.54619" lon="59.26265">
  </trkpt>
  <trkpt lat="42.54553" lon="59.2634">
  </trkpt>
  <trkpt lat="42.54487" lon="59.26418">
  </trkpt>
  <trkpt lat="42.54398" lon="59.26525">
  </trkpt>
  <trkpt lat="42.54316" lon="59.26624">
  </trkpt>
  <trkpt lat="42.542" lon="59.26757">
  </trkpt>
  <trkpt lat="42.54127" lon="59.26842">
  </trkpt>
  <trkpt lat="42.54082" lon="59.26894">
  </trkpt>
  <trkpt lat="42.54077" lon="59.26899">
  </trkpt>
  <trkpt lat="42.54018" lon="59.26967">
  </trkpt>
  <trkpt lat="42.53894" lon="59.27111">
  </trkpt>
  <trkpt lat="42.53788" lon="59.27232">
  </trkpt>
  <trkpt lat="42.53712" lon="59.27319">
  </trkpt>
  <trkpt lat="42.53633" lon="59.27411">
  </trkpt>
  <trkpt lat="42.53586" lon="59.27465">
  </trkpt>
  <trkpt lat="42.53533" lon="59.27528">
  </trkpt>
  <trkpt lat="42.53482" lon="59.27588">
  </trkpt>
  <trkpt lat="42.53387" lon="59.27698">
  </trkpt>
  <trkpt lat="42.53304" lon="59.27795">
  </trkpt>
  <trkpt lat="42.53209" lon="59.27906">
  </trkpt>
  <trkpt lat="42.53126" lon="59.28002">
  </trkpt>
  <trkpt lat="42.53034" lon="59.28109">
  </trkpt>
  <trkpt lat="42.5299" lon="59.28159">
  </trkpt>
  <trkpt lat="42.52943" lon="59.28214">
  </trkpt>
  <trkpt lat="42.52839" lon="59.28333">
  </trkpt>
  <trkpt lat="42.52752" lon="59.2843">
  </trkpt>
  <trkpt lat="42.52669" lon="59.28528">
  </trkpt>
  <trkpt lat="42.52594" lon="59.28614">
  </trkpt>
  <trkpt lat="42.52515" lon="59.28706">
  </trkpt>
  <trkpt lat="42.52445" lon="59.28787">
  </trkpt>
  <trkpt lat="42.52443" lon="59.28789">
  </trkpt>
  <trkpt lat="42.52325" lon="59.28926">
  </trkpt>
  <trkpt lat="42.52175" lon="59.29097">
  </trkpt>
  <trkpt lat="42.52085" lon="59.29201">
  </trkpt>
  <trkpt lat="42.52012" lon="59.29286">
  </trkpt>
  <trkpt lat="42.51904" lon="59.29409">
  </trkpt>
  <trkpt lat="42.51899" lon="59.29414">
  </trkpt>
  <trkpt lat="42.51822" lon="59.29503">
  </trkpt>
  <trkpt lat="42.51723" lon="59.29616">
  </trkpt>
  <trkpt lat="42.51659" lon="59.2969">
  </trkpt>
  <trkpt lat="42.51494" lon="59.29878">
  </trkpt>
  <trkpt lat="42.51354" lon="59.30041">
  </trkpt>
  <trkpt lat="42.5127" lon="59.30139">
  </trkpt>
  <trkpt lat="42.51201" lon="59.30217">
  </trkpt>
  <trkpt lat="42.51157" lon="59.30267">
  </trkpt>
  <trkpt lat="42.51081" lon="59.30355">
  </trkpt>
  <trkpt lat="42.50944" lon="59.30514">
  </trkpt>
  <trkpt lat="42.50867" lon="59.30605">
  </trkpt>
  <trkpt lat="42.50712" lon="59.30784">
  </trkpt>
  <trkpt lat="42.50658" lon="59.30847">
  </trkpt>
  <trkpt lat="42.50623" lon="59.30888">
  </trkpt>
  <trkpt lat="42.50525" lon="59.31">
  </trkpt>
  <trkpt lat="42.50446" lon="59.31091">
  </trkpt>
  <trkpt lat="42.50407" lon="59.31134">
  </trkpt>
  <trkpt lat="42.50322" lon="59.3123">
  </trkpt>
  <trkpt lat="42.50222" lon="59.31345">
  </trkpt>
  <trkpt lat="42.50127" lon="59.31455">
  </trkpt>
  <trkpt lat="42.50108" lon="59.31476">
  </trkpt>
  <trkpt lat="42.50056" lon="59.31534">
  </trkpt>
  <trkpt lat="42.49917" lon="59.31693">
  </trkpt>
  <trkpt lat="42.49824" lon="59.31799">
  </trkpt>
  <trkpt lat="42.49733" lon="59.31903">
  </trkpt>
  <trkpt lat="42.4963" lon="59.32023">
  </trkpt>
  <trkpt lat="42.49561" lon="59.32102">
  </trkpt>
  <trkpt lat="42.49528" lon="59.32141">
  </trkpt>
  <trkpt lat="42.4942" lon="59.32264">
  </trkpt>
  <trkpt lat="42.49326" lon="59.32369">
  </trkpt>
  <trkpt lat="42.49324" lon="59.32372">
  </trkpt>
  <trkpt lat="42.49313" lon="59.32383">
  </trkpt>
  <trkpt lat="42.49293" lon="59.32406">
  </trkpt>
  <trkpt lat="42.4929" lon="59.32409">
  </trkpt>
  <trkpt lat="42.49165" lon="59.3255">
  </trkpt>
  <trkpt lat="42.4906" lon="59.32672">
  </trkpt>
  <trkpt lat="42.49014" lon="59.32725">
  </trkpt>
  <trkpt lat="42.48948" lon="59.32802">
  </trkpt>
  <trkpt lat="42.48832" lon="59.32935">
  </trkpt>
  <trkpt lat="42.4871" lon="59.3308">
  </trkpt>
  <trkpt lat="42.48606" lon="59.33198">
  </trkpt>
  <trkpt lat="42.4847" lon="59.33354">
  </trkpt>
  <trkpt lat="42.48454" lon="59.33373">
  </trkpt>
  <trkpt lat="42.48292" lon="59.33561">
  </trkpt>
  <trkpt lat="42.48196" lon="59.33671">
  </trkpt>
  <trkpt lat="42.48036" lon="59.33855">
  </trkpt>
  <trkpt lat="42.47925" lon="59.33983">
  </trkpt>
  <trkpt lat="42.47876" lon="59.34041">
  </trkpt>
  <trkpt lat="42.47792" lon="59.34138">
  </trkpt>
  <trkpt lat="42.4776" lon="59.34174">
  </trkpt>
  <trkpt lat="42.47651" lon="59.34301">
  </trkpt>
  <trkpt lat="42.47553" lon="59.34413">
  </trkpt>
  <trkpt lat="42.47466" lon="59.3451">
  </trkpt>
  <trkpt lat="42.47328" lon="59.34671">
  </trkpt>
  <trkpt lat="42.47246" lon="59.34764">
  </trkpt>
  <trkpt lat="42.47221" lon="59.34794">
  </trkpt>
  <trkpt lat="42.47096" lon="59.34942">
  </trkpt>
  <trkpt lat="42.46998" lon="59.35054">
  </trkpt>
  <trkpt lat="42.46887" lon="59.35181">
  </trkpt>
  <trkpt lat="42.46802" lon="59.3528">
  </trkpt>
  <trkpt lat="42.46703" lon="59.35394">
  </trkpt>
  <trkpt lat="42.46663" lon="59.3544">
  </trkpt>
  <trkpt lat="42.46535" lon="59.35582">
  </trkpt>
  <trkpt lat="42.46425" lon="59.35711">
  </trkpt>
  <trkpt lat="42.46324" lon="59.3583">
  </trkpt>
  <trkpt lat="42.46208" lon="59.35963">
  </trkpt>
  <trkpt lat="42.46155" lon="59.36025">
  </trkpt>
  <trkpt lat="42.46113" lon="59.36074">
  </trkpt>
  <trkpt lat="42.45997" lon="59.36209">
  </trkpt>
  <trkpt lat="42.45917" lon="59.36303">
  </trkpt>
  <trkpt lat="42.45816" lon="59.36415">
  </trkpt>
  <trkpt lat="42.45734" lon="59.36507">
  </trkpt>
  <trkpt lat="42.45656" lon="59.36594">
  </trkpt>
  <trkpt lat="42.45609" lon="59.36648">
  </trkpt>
  <trkpt lat="42.45562" lon="59.36702">
  </trkpt>
  <trkpt lat="42.45396" lon="59.36889">
  </trkpt>
  <trkpt lat="42.45342" lon="59.36951">
  </trkpt>
  <trkpt lat="42.45246" lon="59.37061">
  </trkpt>
  <trkpt lat="42.45164" lon="59.37152">
  </trkpt>
  <trkpt lat="42.4506" lon="59.37265">
  </trkpt>
  <trkpt lat="42.45056" lon="59.3727">
  </trkpt>
  <trkpt lat="42.44967" lon="59.37369">
  </trkpt>
  <trkpt lat="42.44835" lon="59.37514">
  </trkpt>
  <trkpt lat="42.44769" lon="59.37588">
  </trkpt>
  <trkpt lat="42.44614" lon="59.37761">
  </trkpt>
  <trkpt lat="42.4451" lon="59.37879">
  </trkpt>
  <trkpt lat="42.44443" lon="59.37953">
  </trkpt>
  <trkpt lat="42.44386" lon="59.38018">
  </trkpt>
  <trkpt lat="42.4438575" lon="59.3801801">
  </trkpt>
  <trkpt lat="42.44398" lon="59.38027">
  </trkpt>
  <trkpt lat="42.44431" lon="59.38051">
  </trkpt>
  <trkpt lat="42.44475" lon="59.38078">
  </trkpt>
  <trkpt lat="42.4449" lon="59.38088">
  </trkpt>
  <trkpt lat="42.44514" lon="59.38108">
  </trkpt>
  <trkpt lat="42.44524" lon="59.38118">
  </trkpt>
  <trkpt lat="42.44532" lon="59.38131">
  </trkpt>
  <trkpt lat="42.44541" lon="59.38144">
  </trkpt>
  <trkpt lat="42.44548" lon="59.38156">
  </trkpt>
  <trkpt lat="42.44586" lon="59.38209">
  </trkpt>
  <trkpt lat="42.44652" lon="59.38299">
  </trkpt>
  <trkpt lat="42.44682" lon="59.38343">
  </trkpt>
  <trkpt lat="42.44696" lon="59.38361">
  </trkpt>
  <trkpt lat="42.44706" lon="59.38383">
  </trkpt>
  <trkpt lat="42.44714" lon="59.38401">
  </trkpt>
  <trkpt lat="42.4472" lon="59.38421">
  </trkpt>
  <trkpt lat="42.4474" lon="59.38499">
  </trkpt>
  <trkpt lat="42.44756" lon="59.38567">
  </trkpt>
  <trkpt lat="42.44802" lon="59.38762">
  </trkpt>
  <trkpt lat="42.4482" lon="59.38845">
  </trkpt>
  <trkpt lat="42.44829" lon="59.38877">
  </trkpt>
  <trkpt lat="42.44833" lon="59.3889">
  </trkpt>
  <trkpt lat="42.44841" lon="59.38902">
  </trkpt>
  <trkpt lat="42.44861" lon="59.38918">
  </trkpt>
  <trkpt lat="42.44946" lon="59.38975">
  </trkpt>
  <trkpt lat="42.45071" lon="59.39059">
  </trkpt>
  <trkpt lat="42.4517" lon="59.39126">
  </trkpt>
  <trkpt lat="42.45229" lon="59.39168">
  </trkpt>
  <trkpt lat="42.45231" lon="59.39169">
  </trkpt>
  <trkpt lat="42.45362" lon="59.3926">
  </trkpt>
  <trkpt lat="42.45512" lon="59.39359">
  </trkpt>
  <trkpt lat="42.45645" lon="59.39448">
  </trkpt>
  <trkpt lat="42.45748" lon="59.39523">
  </trkpt>
  <trkpt lat="42.45785" lon="59.39547">
  </trkpt>
  <trkpt lat="42.45821" lon="59.39576">
  </trkpt>
  <trkpt lat="42.45848" lon="59.3959">
  </trkpt>
  <trkpt lat="42.45915" lon="59.39625">
  </trkpt>
  <trkpt lat="42.45927" lon="59.39631">
  </trkpt>
  <trkpt lat="42.45944" lon="59.39635">
  </trkpt>
  <trkpt lat="42.45973" lon="59.39641">
  </trkpt>
  <trkpt lat="42.46042" lon="59.3965">
  </trkpt>
  <trkpt lat="42.46103" lon="59.39656">
  </trkpt>
  <trkpt lat="42.46121" lon="59.3966">
  </trkpt>
  <trkpt lat="42.46142" lon="59.39665">
  </trkpt>
  <trkpt lat="42.46173" lon="59.39674">
  </trkpt>
  <trkpt lat="42.46225" lon="59.39685">
  </trkpt>
  <trkpt lat="42.46277" lon="59.39698">
  </trkpt>
  <trkpt lat="42.46309" lon="59.39705">
  </trkpt>
  <trkpt lat="42.46326" lon="59.3971">
  </trkpt>
  <trkpt lat="42.46339" lon="59.39715">
  </trkpt>
  <trkpt lat="42.46353" lon="59.39723">
  </trkpt>
  <trkpt lat="42.46372" lon="59.39735">
  </trkpt>
  <trkpt lat="42.46467" lon="59.398">
  </trkpt>
  <trkpt lat="42.46586" lon="59.39882">
  </trkpt>
  <trkpt lat="42.46653" lon="59.39928">
  </trkpt>
  <trkpt lat="42.46683" lon="59.3995">
  </trkpt>
  <trkpt lat="42.46698" lon="59.39965">
  </trkpt>
  <trkpt lat="42.46733" lon="59.39998">
  </trkpt>
  <trkpt lat="42.46781" lon="59.40046">
  </trkpt>
  <trkpt lat="42.46815" lon="59.40079">
  </trkpt>
  <trkpt lat="42.46832" lon="59.40098">
  </trkpt>
  <trkpt lat="42.46855" lon="59.40127">
  </trkpt>
  <trkpt lat="42.46892" lon="59.40175">
  </trkpt>
  <trkpt lat="42.46973" lon="59.40279">
  </trkpt>
  <trkpt lat="42.47005" lon="59.40327">
  </trkpt>
  <trkpt lat="42.47021" lon="59.40347">
  </trkpt>
  <trkpt lat="42.47049" lon="59.40381">
  </trkpt>
  <trkpt lat="42.47082" lon="59.40421">
  </trkpt>
  <trkpt lat="42.47116" lon="59.4046">
  </trkpt>
  <trkpt lat="42.4717" lon="59.40522">
  </trkpt>
  <trkpt lat="42.47256" lon="59.40617">
  </trkpt>
  <trkpt lat="42.47355" lon="59.40719">
  </trkpt>
  <trkpt lat="42.47424" lon="59.40794">
  </trkpt>
  <trkpt lat="42.47444" lon="59.40815">
  </trkpt>
  <trkpt lat="42.47467" lon="59.40835">
  </trkpt>
  <trkpt lat="42.47502" lon="59.40863">
  </trkpt>
  <trkpt lat="42.47528" lon="59.40884">
  </trkpt>
  <trkpt lat="42.47557" lon="59.40904">
  </trkpt>
  <trkpt lat="42.4758" lon="59.40918">
  </trkpt>
  <trkpt lat="42.47605" lon="59.40929">
  </trkpt>
  <trkpt lat="42.47658" lon="59.40951">
  </trkpt>
  <trkpt lat="42.47727" lon="59.40981">
  </trkpt>
  <trkpt lat="42.47793" lon="59.41013">
  </trkpt>
  <trkpt lat="42.47826" lon="59.4103">
  </trkpt>
  <trkpt lat="42.47859" lon="59.41048">
  </trkpt>
  <trkpt lat="42.47885" lon="59.41065">
  </trkpt>
  <trkpt lat="42.47904" lon="59.41079">
  </trkpt>
  <trkpt lat="42.47923" lon="59.41094">
  </trkpt>
  <trkpt lat="42.47948" lon="59.41118">
  </trkpt>
  <trkpt lat="42.47981" lon="59.41153">
  </trkpt>
  <trkpt lat="42.48032" lon="59.4121">
  </trkpt>
  <trkpt lat="42.48079" lon="59.41266">
  </trkpt>
  <trkpt lat="42.48124" lon="59.41319">
  </trkpt>
  <trkpt lat="42.48145" lon="59.41349">
  </trkpt>
  <trkpt lat="42.48167" lon="59.41383">
  </trkpt>
  <trkpt lat="42.4822" lon="59.41463">
  </trkpt>
  <trkpt lat="42.48237" lon="59.41488">
  </trkpt>
  <trkpt lat="42.48251" lon="59.41507">
  </trkpt>
  <trkpt lat="42.4827" lon="59.41534">
  </trkpt>
  <trkpt lat="42.48289" lon="59.41568">
  </trkpt>
  <trkpt lat="42.4831" lon="59.41605">
  </trkpt>
  <trkpt lat="42.48321" lon="59.41628">
  </trkpt>
  <trkpt lat="42.48365" lon="59.41717">
  </trkpt>
  <trkpt lat="42.48412" lon="59.41815">
  </trkpt>
  <trkpt lat="42.48457" lon="59.41908">
  </trkpt>
  <trkpt lat="42.48501" lon="59.42017">
  </trkpt>
  <trkpt lat="42.48542" lon="59.42111">
  </trkpt>
  <trkpt lat="42.48585" lon="59.422">
  </trkpt>
  <trkpt lat="42.48601" lon="59.42231">
  </trkpt>
  <trkpt lat="42.48611" lon="59.42253">
  </trkpt>
  <trkpt lat="42.48669" lon="59.42356">
  </trkpt>
  <trkpt lat="42.4873" lon="59.42461">
  </trkpt>
  <trkpt lat="42.48739" lon="59.42477">
  </trkpt>
  <trkpt lat="42.4873882" lon="59.4247734">
  </trkpt>
  <trkpt lat="42.48616" lon="59.42548">
  </trkpt>
  <trkpt lat="42.48497" lon="59.4262">
  </trkpt>
  <trkpt lat="42.48392" lon="59.4268">
  </trkpt>
  <trkpt lat="42.48275" lon="59.42749">
  </trkpt>
  <trkpt lat="42.48206" lon="59.42787">
  </trkpt>
  <trkpt lat="42.47704" lon="59.4308">
  </trkpt>
  <trkpt lat="42.47555" lon="59.43169">
  </trkpt>
  <trkpt lat="42.47508" lon="59.43203">
  </trkpt>
  <trkpt lat="42.47462" lon="59.43258">
  </trkpt>
  <trkpt lat="42.47436" lon="59.43304">
  </trkpt>
  <trkpt lat="42.47418" lon="59.43346">
  </trkpt>
  <trkpt lat="42.47379" lon="59.43502">
  </trkpt>
  <trkpt lat="42.47358" lon="59.43565">
  </trkpt>
  <trkpt lat="42.47343" lon="59.43596">
  </trkpt>
  <trkpt lat="42.47319" lon="59.43634">
  </trkpt>
  <trkpt lat="42.47291" lon="59.4367">
  </trkpt>
  <trkpt lat="42.47241" lon="59.43728">
  </trkpt>
  <trkpt lat="42.47196" lon="59.43774">
  </trkpt>
  <trkpt lat="42.47093" lon="59.43856">
  </trkpt>
  <trkpt lat="42.46934" lon="59.44018">
  </trkpt>
  <trkpt lat="42.46849" lon="59.44117">
  </trkpt>
  <trkpt lat="42.46822" lon="59.44159">
  </trkpt>
  <trkpt lat="42.46785" lon="59.44227">
  </trkpt>
  <trkpt lat="42.46513" lon="59.44788">
  </trkpt>
  <trkpt lat="42.46469" lon="59.44904">
  </trkpt>
  <trkpt lat="42.46427" lon="59.45087">
  </trkpt>
  <trkpt lat="42.4638" lon="59.45382">
  </trkpt>
  <trkpt lat="42.46363" lon="59.45472">
  </trkpt>
  <trkpt lat="42.46345" lon="59.45537">
  </trkpt>
  <trkpt lat="42.46333" lon="59.45566">
  </trkpt>
  <trkpt lat="42.46311" lon="59.45608">
  </trkpt>
  <trkpt lat="42.46243" lon="59.45718">
  </trkpt>
  <trkpt lat="42.46112" lon="59.45919">
  </trkpt>
  <trkpt lat="42.46055" lon="59.46009">
  </trkpt>
  <trkpt lat="42.46014" lon="59.46069">
  </trkpt>
  <trkpt lat="42.45972" lon="59.46123">
  </trkpt>
  <trkpt lat="42.45915" lon="59.46179">
  </trkpt>
  <trkpt lat="42.45615" lon="59.46442">
  </trkpt>
  <trkpt lat="42.45512" lon="59.46535">
  </trkpt>
  <trkpt lat="42.45211" lon="59.46798">
  </trkpt>
  <trkpt lat="42.44607" lon="59.47333">
  </trkpt>
  <trkpt lat="42.44459" lon="59.47437">
  </trkpt>
  <trkpt lat="42.44376" lon="59.47492">
  </trkpt>
  <trkpt lat="42.4427" lon="59.47569">
  </trkpt>
  <trkpt lat="42.43951" lon="59.47794">
  </trkpt>
  <trkpt lat="42.43859" lon="59.47861">
  </trkpt>
  <trkpt lat="42.43718" lon="59.47956">
  </trkpt>
  <trkpt lat="42.43673" lon="59.48002">
  </trkpt>
  <trkpt lat="42.4365" lon="59.48037">
  </trkpt>
  <trkpt lat="42.43536" lon="59.4832">
  </trkpt>
  <trkpt lat="42.43513" lon="59.48371">
  </trkpt>
  <trkpt lat="42.435" lon="59.48396">
  </trkpt>
  <trkpt lat="42.43458" lon="59.48453">
  </trkpt>
  <trkpt lat="42.43421" lon="59.48502">
  </trkpt>
  <trkpt lat="42.43117" lon="59.48902">
  </trkpt>
  <trkpt lat="42.43049" lon="59.48986">
  </trkpt>
  <trkpt lat="42.4304888" lon="59.4898626">
  </trkpt>
  <trkpt lat="42.43075" lon="59.49092">
  </trkpt>
  <trkpt lat="42.43076" lon="59.49097">
  </trkpt>
  <trkpt lat="42.43123" lon="59.49311">
  </trkpt>
  <trkpt lat="42.43131" lon="59.49346">
  </trkpt>
  <trkpt lat="42.4315" lon="59.49434">
  </trkpt>
  <trkpt lat="42.43194" lon="59.49621">
  </trkpt>
  <trkpt lat="42.43201" lon="59.49654">
  </trkpt>
  <trkpt lat="42.43208" lon="59.4969">
  </trkpt>
  <trkpt lat="42.43236" lon="59.49823">
  </trkpt>
  <trkpt lat="42.43241" lon="59.49847">
  </trkpt>
  <trkpt lat="42.43281" lon="59.50038">
  </trkpt>
  <trkpt lat="42.43324" lon="59.50239">
  </trkpt>
  <trkpt lat="42.43353" lon="59.5038">
  </trkpt>
  <trkpt lat="42.43389" lon="59.50552">
  </trkpt>
  <trkpt lat="42.43396" lon="59.50586">
  </trkpt>
  <trkpt lat="42.43424" lon="59.5072">
  </trkpt>
  <trkpt lat="42.43461" lon="59.50896">
  </trkpt>
  <trkpt lat="42.43495" lon="59.51055">
  </trkpt>
  <trkpt lat="42.43525" lon="59.51204">
  </trkpt>
  <trkpt lat="42.43556" lon="59.51366">
  </trkpt>
  <trkpt lat="42.43586" lon="59.5152">
  </trkpt>
  <trkpt lat="42.43604" lon="59.51635">
  </trkpt>
  <trkpt lat="42.43657" lon="59.5189">
  </trkpt>
  <trkpt lat="42.43694" lon="59.52066">
  </trkpt>
  <trkpt lat="42.43708" lon="59.52131">
  </trkpt>
  <trkpt lat="42.43727" lon="59.52217">
  </trkpt>
  <trkpt lat="42.43786" lon="59.52488">
  </trkpt>
  <trkpt lat="42.43841" lon="59.52744">
  </trkpt>
  <trkpt lat="42.43889" lon="59.52968">
  </trkpt>
  <trkpt lat="42.43909" lon="59.53061">
  </trkpt>
  <trkpt lat="42.43921" lon="59.53119">
  </trkpt>
  <trkpt lat="42.43957" lon="59.53238">
  </trkpt>
  <trkpt lat="42.43986" lon="59.53307">
  </trkpt>
  <trkpt lat="42.44029" lon="59.53394">
  </trkpt>
  <trkpt lat="42.4408" lon="59.53479">
  </trkpt>
  <trkpt lat="42.44106" lon="59.53519">
  </trkpt>
  <trkpt lat="42.44145" lon="59.5358">
  </trkpt>
  <trkpt lat="42.44204" lon="59.53678">
  </trkpt>
  <trkpt lat="42.44237" lon="59.53741">
  </trkpt>
  <trkpt lat="42.44296" lon="59.53867">
  </trkpt>
  <trkpt lat="42.44317" lon="59.53913">
  </trkpt>
  <trkpt lat="42.44385" lon="59.54068">
  </trkpt>
  <trkpt lat="42.44435" lon="59.54179">
  </trkpt>
  <trkpt lat="42.44436" lon="59.54181">
  </trkpt>
  <trkpt lat="42.44485" lon="59.54292">
  </trkpt>
  <trkpt lat="42.44514" lon="59.54374">
  </trkpt>
  <trkpt lat="42.4453" lon="59.54423">
  </trkpt>
  <trkpt lat="42.44545" lon="59.54483">
  </trkpt>
  <trkpt lat="42.44562" lon="59.54559">
  </trkpt>
  <trkpt lat="42.44573" lon="59.54642">
  </trkpt>
  <trkpt lat="42.44583" lon="59.54741">
  </trkpt>
  <trkpt lat="42.44595" lon="59.54901">
  </trkpt>
  <trkpt lat="42.44617" lon="59.55151">
  </trkpt>
  <trkpt lat="42.44625" lon="59.55255">
  </trkpt>
  <trkpt lat="42.44643" lon="59.55456">
  </trkpt>
  <trkpt lat="42.44648" lon="59.55514">
  </trkpt>
  <trkpt lat="42.44677" lon="59.55851">
  </trkpt>
  <trkpt lat="42.44689" lon="59.55943">
  </trkpt>
  <trkpt lat="42.44693" lon="59.55968">
  </trkpt>
  <trkpt lat="42.44699" lon="59.56003">
  </trkpt>
  <trkpt lat="42.44718" lon="59.56082">
  </trkpt>
  <trkpt lat="42.44729" lon="59.56122">
  </trkpt>
  <trkpt lat="42.44736" lon="59.56148">
  </trkpt>
  <trkpt lat="42.44753" lon="59.56196">
  </trkpt>
  <trkpt lat="42.44771" lon="59.56239">
  </trkpt>
  <trkpt lat="42.44792" lon="59.56286">
  </trkpt>
  <trkpt lat="42.44796" lon="59.56294">
  </trkpt>
  <trkpt lat="42.44835" lon="59.56365">
  </trkpt>
  <trkpt lat="42.44839" lon="59.56372">
  </trkpt>
  <trkpt lat="42.44869" lon="59.5643">
  </trkpt>
  <trkpt lat="42.44914" lon="59.56515">
  </trkpt>
  <trkpt lat="42.44923" lon="59.56532">
  </trkpt>
  <trkpt lat="42.44968" lon="59.56614">
  </trkpt>
  <trkpt lat="42.45038" lon="59.56724">
  </trkpt>
  <trkpt lat="42.45052" lon="59.56748">
  </trkpt>
  <trkpt lat="42.45141" lon="59.56906">
  </trkpt>
  <trkpt lat="42.45167" lon="59.56953">
  </trkpt>
  <trkpt lat="42.45274" lon="59.57139">
  </trkpt>
  <trkpt lat="42.45357" lon="59.57284">
  </trkpt>
  <trkpt lat="42.45475" lon="59.57496">
  </trkpt>
  <trkpt lat="42.45533" lon="59.57601">
  </trkpt>
  <trkpt lat="42.45548" lon="59.57627">
  </trkpt>
  <trkpt lat="42.4558" lon="59.57685">
  </trkpt>
  <trkpt lat="42.45597" lon="59.57715">
  </trkpt>
  <trkpt lat="42.45601" lon="59.57721">
  </trkpt>
  <trkpt lat="42.45703" lon="59.57902">
  </trkpt>
  <trkpt lat="42.45704" lon="59.57902">
  </trkpt>
  <trkpt lat="42.4575" lon="59.57984">
  </trkpt>
  <trkpt lat="42.45786" lon="59.58049">
  </trkpt>
  <trkpt lat="42.4578637" lon="59.5804905">
  </trkpt>
  <trkpt lat="42.45775" lon="59.58082">
  </trkpt>
  <trkpt lat="42.4575" lon="59.58171">
  </trkpt>
  <trkpt lat="42.45732" lon="59.58239">
  </trkpt>
  <trkpt lat="42.45671" lon="59.5847">
  </trkpt>
  <trkpt lat="42.45652" lon="59.58547">
  </trkpt>
  <trkpt lat="42.45648" lon="59.58578">
  </trkpt>
  <trkpt lat="42.45648" lon="59.58585">
  </trkpt>
  <trkpt lat="42.45644" lon="59.58661">
  </trkpt>
  <trkpt lat="42.45643" lon="59.5871">
  </trkpt>
  <trkpt lat="42.45638" lon="59.58843">
  </trkpt>
  <trkpt lat="42.45636" lon="59.58923">
  </trkpt>
  <trkpt lat="42.45634" lon="59.59033">
  </trkpt>
  <trkpt lat="42.45637" lon="59.59065">
  </trkpt>
  <trkpt lat="42.45637" lon="59.5907">
  </trkpt>
  <trkpt lat="42.45636" lon="59.59101">
  </trkpt>
  <trkpt lat="42.45638" lon="59.59117">
  </trkpt>
  <trkpt lat="42.45642" lon="59.59148">
  </trkpt>
  <trkpt lat="42.45644" lon="59.59162">
  </trkpt>
  <trkpt lat="42.45677" lon="59.59376">
  </trkpt>
  <trkpt lat="42.4568" lon="59.59394">
  </trkpt>
  <trkpt lat="42.45692" lon="59.59465">
  </trkpt>
  <trkpt lat="42.45696" lon="59.59492">
  </trkpt>
  <trkpt lat="42.45705" lon="59.59545">
  </trkpt>
  <trkpt lat="42.45714" lon="59.59611">
  </trkpt>
  <trkpt lat="42.45727" lon="59.597">
  </trkpt>
  <trkpt lat="42.45741" lon="59.5979">
  </trkpt>
  <trkpt lat="42.45742" lon="59.59801">
  </trkpt>
  <trkpt lat="42.45783" lon="59.60066">
  </trkpt>
  <trkpt lat="42.45785" lon="59.60081">
  </trkpt>
  <trkpt lat="42.45804" lon="59.60207">
  </trkpt>
  <trkpt lat="42.45841" lon="59.60476">
  </trkpt>
  <trkpt lat="42.4584" lon="59.60491">
  </trkpt>
  <trkpt lat="42.45841" lon="59.605">
  </trkpt>
  <trkpt lat="42.4584" lon="59.60508">
  </trkpt>
  <trkpt lat="42.4584" lon="59.60519">
  </trkpt>
  <trkpt lat="42.45838" lon="59.6053">
  </trkpt>
  <trkpt lat="42.45833" lon="59.6054">
  </trkpt>
  <trkpt lat="42.45828" lon="59.60552">
  </trkpt>
  <trkpt lat="42.458275" lon="59.6055213">
  </trkpt>
  <trkpt lat="42.45827" lon="59.60552">
  </trkpt>
  <trkpt lat="42.4582" lon="59.6056">
  </trkpt>
  <trkpt lat="42.45815" lon="59.60565">
  </trkpt>
  <trkpt lat="42.45809" lon="59.60577">
  </trkpt>
  <trkpt lat="42.45809" lon="59.60591">
  </trkpt>
  <trkpt lat="42.4581" lon="59.60603">
  </trkpt>
  <trkpt lat="42.45815" lon="59.60611">
  </trkpt>
  <trkpt lat="42.45823" lon="59.60617">
  </trkpt>
  <trkpt lat="42.4586" lon="59.60612">
  </trkpt>
  <trkpt lat="42.45876" lon="59.60703">
  </trkpt>
  <trkpt lat="42.45892" lon="59.6081">
  </trkpt>
  <trkpt lat="42.4591" lon="59.60926">
  </trkpt>
  <trkpt lat="42.45941" lon="59.61134">
  </trkpt>
  <trkpt lat="42.45948" lon="59.61183">
  </trkpt>
  <trkpt lat="42.45969" lon="59.61324">
  </trkpt>
  <trkpt lat="42.45988" lon="59.61453">
  </trkpt>
  <trkpt lat="42.46001" lon="59.61535">
  </trkpt>
  <trkpt lat="42.4602" lon="59.61669">
  </trkpt>
  <trkpt lat="42.46027" lon="59.61717">
  </trkpt>
  <trkpt lat="42.4602697" lon="59.6171662">
  </trkpt>
  <trkpt lat="42.46087" lon="59.61701">
  </trkpt>
  <trkpt lat="42.46142" lon="59.61686">
  </trkpt>
  <trkpt lat="42.46174" lon="59.61677">
  </trkpt>
  <trkpt lat="42.4619" lon="59.61672">
  </trkpt>
  <trkpt lat="42.4619047" lon="59.6167217">
  </trkpt>
  </trkseg>
</trk>
</gpx>
