<?xml version="1.0" encoding="UTF-8" ?><gpx version="1.0" creator="GPSLogger 96 - http://gpslogger.mendhak.com/" xmlns:xsi="http://www.w3.org/2001/XMLSchema-instance" xmlns="http://www.topografix.com/GPX/1/0" xsi:schemaLocation="http://www.topografix.com/GPX/1/0 http://www.topografix.com/GPX/1/0/gpx.xsd"><time>2018-10-07T02:48:19.000Z</time><trk><trkseg><trkpt lat="42.87274105" lon="73.18860292"><ele>660.0</ele><time>2018-10-07T02:48:19.000Z</time><speed>0.0</speed><src>gps</src><sat>6</sat></trkpt>
<trkpt lat="42.82817874" lon="73.43585043"><ele>676.0</ele><time>2018-10-07T03:56:38.000Z</time><course>98.9</course><speed>6.630272</speed><src>gps</src><sat>3</sat></trkpt>
<trkpt lat="42.82758871" lon="73.44082263"><ele>676.0</ele><time>2018-10-07T03:57:38.000Z</time><course>99.2</course><speed>6.6901865</speed><geoidheight>-39.0</geoidheight><src>gps</src><sat>9</sat><hdop>0.6</hdop><vdop>0.7</vdop><pdop>0.9</pdop></trkpt>
<trkpt lat="42.82694098" lon="73.4457246"><ele>686.0</ele><time>2018-10-07T03:58:39.000Z</time><course>104.7</course><speed>5.796154</speed><geoidheight>-40.0</geoidheight><src>gps</src><sat>8</sat><hdop>0.6</hdop><vdop>0.7</vdop><pdop>0.9</pdop></trkpt>
<trkpt lat="42.82636707" lon="73.45059589"><ele>683.0</ele><time>2018-10-07T03:59:40.000Z</time><course>95.6</course><speed>6.840183</speed><geoidheight>-40.0</geoidheight><src>gps</src><sat>8</sat><hdop>0.6</hdop><vdop>0.7</vdop><pdop>0.9</pdop></trkpt>
<trkpt lat="42.82571958" lon="73.45560772"><ele>688.0</ele><time>2018-10-07T04:00:41.000Z</time><course>96.7</course><speed>6.8507295</speed><geoidheight>-40.0</geoidheight><src>gps</src><sat>10</sat><hdop>0.6</hdop><vdop>0.7</vdop><pdop>0.9</pdop></trkpt>
<trkpt lat="42.82574962" lon="73.46094115"><ele>689.0</ele><time>2018-10-07T04:01:42.000Z</time><course>90.8</course><speed>8.3324</speed><geoidheight>-40.0</geoidheight><src>gps</src><sat>10</sat><hdop>0.6</hdop><vdop>0.7</vdop><pdop>0.9</pdop></trkpt>
<trkpt lat="42.82590818" lon="73.46666388"><ele>689.0</ele><time>2018-10-07T04:02:43.000Z</time><course>85.9</course><speed>7.1813645</speed><geoidheight>-40.0</geoidheight><src>gps</src><sat>8</sat><hdop>0.6</hdop><vdop>0.7</vdop><pdop>0.9</pdop></trkpt>
<trkpt lat="42.8261281" lon="73.47218944"><ele>687.0</ele><time>2018-10-07T04:03:44.000Z</time><course>87.5</course><speed>8.197054</speed><geoidheight>-40.0</geoidheight><src>gps</src><sat>10</sat><hdop>0.6</hdop><vdop>0.7</vdop><pdop>0.9</pdop></trkpt>
<trkpt lat="42.82632566" lon="73.47755151"><ele>685.0</ele><time>2018-10-07T04:04:45.000Z</time><course>71.6</course><speed>8.503369</speed><geoidheight>-40.0</geoidheight><src>gps</src><sat>8</sat><hdop>0.6</hdop><vdop>0.7</vdop><pdop>0.9</pdop></trkpt>
<trkpt lat="42.82603677" lon="73.48294226"><ele>687.0</ele><time>2018-10-07T04:05:45.000Z</time><course>101.5</course><speed>7.190007</speed><geoidheight>-40.0</geoidheight><src>gps</src><sat>8</sat><hdop>0.6</hdop><vdop>0.7</vdop><pdop>0.9</pdop></trkpt>
<trkpt lat="42.82478673" lon="73.48881339"><ele>681.0</ele><time>2018-10-07T04:06:46.000Z</time><course>102.6</course><speed>7.997581</speed><geoidheight>-40.0</geoidheight><src>gps</src><sat>10</sat><hdop>0.7</hdop><vdop>0.7</vdop><pdop>1.0</pdop></trkpt>
<trkpt lat="42.82426494" lon="73.49410018"><ele>686.0</ele><time>2018-10-07T04:07:47.000Z</time><course>88.2</course><speed>7.29</speed><geoidheight>-40.0</geoidheight><src>gps</src><sat>9</sat><hdop>0.7</hdop><vdop>0.7</vdop><pdop>1.0</pdop></trkpt>
<trkpt lat="42.8243186" lon="73.4992468"><ele>688.0</ele><time>2018-10-07T04:08:48.000Z</time><course>87.6</course><speed>6.47</speed><geoidheight>-40.0</geoidheight><src>gps</src><sat>10</sat><hdop>0.8</hdop><vdop>0.8</vdop><pdop>1.1</pdop></trkpt>
<trkpt lat="42.82386635" lon="73.50465333"><ele>677.0</ele><time>2018-10-07T04:09:49.000Z</time><course>98.9</course><speed>7.48006</speed><geoidheight>-40.0</geoidheight><src>gps</src><sat>14</sat><hdop>0.7</hdop><vdop>0.8</vdop><pdop>1.1</pdop></trkpt>
<trkpt lat="42.82333516" lon="73.50905487"><ele>685.0</ele><time>2018-10-07T04:10:50.000Z</time><course>104.3</course><speed>1.1493477</speed><geoidheight>-40.0</geoidheight><src>gps</src><sat>15</sat><hdop>0.9</hdop><vdop>0.9</vdop><pdop>1.3</pdop></trkpt>
<trkpt lat="42.82325988" lon="73.5091755"><ele>685.0</ele><time>2018-10-07T04:11:51.000Z</time><course>86.1</course><speed>1.0789809</speed><geoidheight>-40.0</geoidheight><src>gps</src><sat>14</sat><hdop>0.9</hdop><vdop>0.9</vdop><pdop>1.2</pdop></trkpt>
<trkpt lat="42.82320811" lon="73.50964395"><ele>690.0</ele><time>2018-10-07T04:12:52.000Z</time><speed>0.0</speed><geoidheight>-40.0</geoidheight><src>gps</src><sat>11</sat><hdop>1.0</hdop><vdop>0.9</vdop><pdop>1.3</pdop></trkpt>
<trkpt lat="42.82325333" lon="73.50968427"><ele>698.0</ele><time>2018-10-07T04:13:53.000Z</time><speed>0.0</speed><geoidheight>-40.0</geoidheight><src>gps</src><sat>14</sat><hdop>0.9</hdop><vdop>0.9</vdop><pdop>1.2</pdop></trkpt>
<trkpt lat="42.82326203" lon="73.50969889"><ele>683.0</ele><time>2018-10-07T04:14:54.000Z</time><speed>0.0</speed><geoidheight>-40.0</geoidheight><src>gps</src><sat>12</sat><hdop>1.0</hdop><vdop>0.9</vdop><pdop>1.3</pdop></trkpt>
<trkpt lat="42.82329921" lon="73.50970357"><ele>674.0</ele><time>2018-10-07T04:15:55.000Z</time><speed>0.0</speed><geoidheight>-40.0</geoidheight><src>gps</src><sat>11</sat><hdop>0.9</hdop><vdop>0.9</vdop><pdop>1.2</pdop></trkpt>
<trkpt lat="42.82332034" lon="73.50963089"><ele>665.0</ele><time>2018-10-07T04:16:56.000Z</time><speed>0.0</speed><geoidheight>-40.0</geoidheight><src>gps</src><sat>10</sat><hdop>1.0</hdop><vdop>0.9</vdop><pdop>1.3</pdop></trkpt>
<trkpt lat="42.82331922" lon="73.50963167"><ele>665.0</ele><time>2018-10-07T04:17:57.000Z</time><speed>0.0</speed><geoidheight>-40.0</geoidheight><src>gps</src><sat>11</sat><hdop>1.1</hdop><vdop>0.9</vdop><pdop>1.4</pdop></trkpt>
<trkpt lat="42.82330262" lon="73.50959177"><ele>687.0</ele><time>2018-10-07T04:18:58.000Z</time><speed>0.0</speed><geoidheight>-40.0</geoidheight><src>gps</src><sat>7</sat><hdop>1.0</hdop><vdop>0.8</vdop><pdop>1.3</pdop></trkpt>
<trkpt lat="42.82332962" lon="73.50961408"><ele>690.0</ele><time>2018-10-07T04:19:59.000Z</time><speed>0.0</speed><geoidheight>-40.0</geoidheight><src>gps</src><sat>6</sat><hdop>1.0</hdop><vdop>0.9</vdop><pdop>1.3</pdop></trkpt>
<trkpt lat="42.82332629" lon="73.50961541"><ele>690.0</ele><time>2018-10-07T04:21:00.000Z</time><speed>0.0</speed><geoidheight>-40.0</geoidheight><src>gps</src><sat>9</sat><hdop>0.7</hdop><vdop>0.8</vdop><pdop>1.1</pdop></trkpt>
<trkpt lat="42.82322331" lon="73.50973021"><ele>678.0</ele><time>2018-10-07T04:22:01.000Z</time><course>120.4</course><speed>0.3488553</speed><geoidheight>-40.0</geoidheight><src>gps</src><sat>10</sat><hdop>0.8</hdop><vdop>0.8</vdop><pdop>1.1</pdop></trkpt>
<trkpt lat="42.82322536" lon="73.50957819"><ele>712.0</ele><time>2018-10-07T04:23:02.000Z</time><speed>0.0</speed><geoidheight>-40.0</geoidheight><src>gps</src><sat>9</sat><hdop>0.8</hdop><vdop>0.7</vdop><pdop>1.1</pdop></trkpt>
<trkpt lat="42.82322674" lon="73.50958708"><ele>712.0</ele><time>2018-10-07T04:24:03.000Z</time><speed>0.0</speed><geoidheight>-40.0</geoidheight><src>gps</src><sat>12</sat><hdop>0.7</hdop><vdop>0.7</vdop><pdop>1.0</pdop></trkpt>
<trkpt lat="42.82313399" lon="73.51031152"><ele>692.0</ele><time>2018-10-07T04:25:04.000Z</time><course>144.4</course><speed>1.4676853</speed><geoidheight>-40.0</geoidheight><src>gps</src><sat>11</sat><hdop>0.7</hdop><vdop>0.7</vdop><pdop>1.0</pdop></trkpt>
<trkpt lat="42.82309616" lon="73.51052554"><ele>697.0</ele><time>2018-10-07T04:26:04.000Z</time><course>86.3</course><speed>0.78032047</speed><geoidheight>-40.0</geoidheight><src>gps</src><sat>12</sat><hdop>0.7</hdop><vdop>0.7</vdop><pdop>1.0</pdop></trkpt>
<trkpt lat="42.8230431" lon="73.511127"><ele>693.0</ele><time>2018-10-07T04:27:05.000Z</time><speed>0.07</speed><geoidheight>-40.0</geoidheight><src>gps</src><sat>15</sat><hdop>0.7</hdop><vdop>0.7</vdop><pdop>1.0</pdop></trkpt>
<trkpt lat="42.82306414" lon="73.51119241"><ele>693.0</ele><time>2018-10-07T04:28:06.000Z</time><speed>0.0</speed><geoidheight>-40.0</geoidheight><src>gps</src><sat>15</sat><hdop>0.7</hdop><vdop>0.8</vdop><pdop>1.0</pdop></trkpt>
<trkpt lat="42.82311259" lon="73.51127736"><ele>691.0</ele><time>2018-10-07T04:29:07.000Z</time><speed>0.0</speed><geoidheight>-40.0</geoidheight><src>gps</src><sat>15</sat><hdop>0.7</hdop><vdop>0.7</vdop><pdop>1.0</pdop></trkpt>
<trkpt lat="42.82334227" lon="73.51116228"><ele>700.0</ele><time>2018-10-07T04:30:08.000Z</time><speed>0.0</speed><geoidheight>-40.0</geoidheight><src>gps</src><sat>10</sat><hdop>0.6</hdop><vdop>0.7</vdop><pdop>1.0</pdop></trkpt>
<trkpt lat="42.82332801" lon="73.51107138"><ele>692.0</ele><time>2018-10-07T04:31:09.000Z</time><speed>0.0</speed><geoidheight>-40.0</geoidheight><src>gps</src><sat>14</sat><hdop>0.6</hdop><vdop>0.7</vdop><pdop>0.9</pdop></trkpt>
<trkpt lat="42.82329415" lon="73.5111283"><ele>686.0</ele><time>2018-10-07T04:32:10.000Z</time><speed>0.0</speed><geoidheight>-40.0</geoidheight><src>gps</src><sat>15</sat><hdop>0.7</hdop><vdop>0.7</vdop><pdop>1.0</pdop></trkpt>
<trkpt lat="42.82323332" lon="73.5111739"><ele>699.0</ele><time>2018-10-07T04:33:11.000Z</time><speed>0.0</speed><geoidheight>-40.0</geoidheight><src>gps</src><sat>14</sat><hdop>0.7</hdop><vdop>0.7</vdop><pdop>1.0</pdop></trkpt>
<trkpt lat="42.82289302" lon="73.5125564"><ele>700.0</ele><time>2018-10-07T04:34:12.000Z</time><course>101.6</course><speed>4.7338147</speed><geoidheight>-40.0</geoidheight><src>gps</src><sat>10</sat><hdop>0.7</hdop><vdop>0.7</vdop><pdop>1.0</pdop></trkpt>
<trkpt lat="42.82236714" lon="73.51634181"><ele>695.0</ele><time>2018-10-07T04:35:13.000Z</time><course>97.5</course><speed>4.933893</speed><geoidheight>-40.0</geoidheight><src>gps</src><sat>11</sat><hdop>0.7</hdop><vdop>0.7</vdop><pdop>1.0</pdop></trkpt>
<trkpt lat="42.82189131" lon="73.52092029"><ele>689.0</ele><time>2018-10-07T04:36:14.000Z</time><course>85.5</course><speed>6.4660654</speed><geoidheight>-40.0</geoidheight><src>gps</src><sat>11</sat><hdop>0.6</hdop><vdop>0.7</vdop><pdop>0.9</pdop></trkpt>
<trkpt lat="42.82140394" lon="73.52604641"><ele>691.0</ele><time>2018-10-07T04:37:14.000Z</time><course>95.9</course><speed>7.0698943</speed><geoidheight>-40.0</geoidheight><src>gps</src><sat>10</sat><hdop>0.6</hdop><vdop>0.7</vdop><pdop>0.9</pdop></trkpt>
<trkpt lat="42.82067213" lon="73.53101883"><ele>684.0</ele><time>2018-10-07T04:38:15.000Z</time><course>106.4</course><speed>5.9137297</speed><geoidheight>-40.0</geoidheight><src>gps</src><sat>11</sat><hdop>0.7</hdop><vdop>0.7</vdop><pdop>1.0</pdop></trkpt>
<trkpt lat="42.8191142" lon="73.53495304"><ele>681.0</ele><time>2018-10-07T04:39:16.000Z</time><course>124.9</course><speed>5.4220753</speed><geoidheight>-40.0</geoidheight><src>gps</src><sat>11</sat><hdop>0.7</hdop><vdop>0.7</vdop><pdop>1.0</pdop></trkpt>
<trkpt lat="42.81737942" lon="73.53923328"><ele>679.0</ele><time>2018-10-07T04:40:17.000Z</time><course>118.0</course><speed>6.64003</speed><geoidheight>-40.0</geoidheight><src>gps</src><sat>11</sat><hdop>0.7</hdop><vdop>0.7</vdop><pdop>1.0</pdop></trkpt>
<trkpt lat="42.81558266" lon="73.54362045"><ele>686.0</ele><time>2018-10-07T04:41:18.000Z</time><course>116.6</course><speed>6.8805013</speed><geoidheight>-40.0</geoidheight><src>gps</src><sat>11</sat><hdop>0.7</hdop><vdop>0.7</vdop><pdop>1.0</pdop></trkpt>
<trkpt lat="42.81383228" lon="73.547898"><ele>684.0</ele><time>2018-10-07T04:42:19.000Z</time><course>118.3</course><speed>6.14</speed><geoidheight>-40.0</geoidheight><src>gps</src><sat>11</sat><hdop>0.7</hdop><vdop>0.7</vdop><pdop>1.0</pdop></trkpt>
<trkpt lat="42.81200462" lon="73.55231833"><ele>688.0</ele><time>2018-10-07T04:43:20.000Z</time><course>122.3</course><speed>6.530766</speed><geoidheight>-40.0</geoidheight><src>gps</src><sat>11</sat><hdop>0.6</hdop><vdop>0.7</vdop><pdop>1.0</pdop></trkpt>
<trkpt lat="42.81029591" lon="73.55644589"><ele>681.0</ele><time>2018-10-07T04:44:21.000Z</time><course>116.0</course><speed>6.1309867</speed><geoidheight>-40.0</geoidheight><src>gps</src><sat>11</sat><hdop>0.6</hdop><vdop>0.7</vdop><pdop>0.9</pdop></trkpt>
<trkpt lat="42.80870181" lon="73.56080627"><ele>685.0</ele><time>2018-10-07T04:45:22.000Z</time><course>115.6</course><speed>7.0105777</speed><geoidheight>-40.0</geoidheight><src>gps</src><sat>11</sat><hdop>0.7</hdop><vdop>0.7</vdop><pdop>1.0</pdop></trkpt>
<trkpt lat="42.80707125" lon="73.56519813"><ele>689.0</ele><time>2018-10-07T04:46:23.000Z</time><course>115.3</course><speed>6.520928</speed><geoidheight>-40.0</geoidheight><src>gps</src><sat>12</sat><hdop>0.7</hdop><vdop>0.7</vdop><pdop>1.0</pdop></trkpt>
<trkpt lat="42.80546491" lon="73.56954142"><ele>685.0</ele><time>2018-10-07T04:47:24.000Z</time><course>116.8</course><speed>6.735822</speed><geoidheight>-40.0</geoidheight><src>gps</src><sat>12</sat><hdop>0.7</hdop><vdop>0.7</vdop><pdop>1.0</pdop></trkpt>
<trkpt lat="42.80440895" lon="73.57407391"><ele>689.0</ele><time>2018-10-07T04:48:25.000Z</time><course>101.9</course><speed>6.5219626</speed><geoidheight>-40.0</geoidheight><src>gps</src><sat>12</sat><hdop>0.7</hdop><vdop>0.7</vdop><pdop>1.0</pdop></trkpt>
<trkpt lat="42.80358715" lon="73.5787829"><ele>693.0</ele><time>2018-10-07T04:49:26.000Z</time><course>104.8</course><speed>6.114442</speed><geoidheight>-40.0</geoidheight><src>gps</src><sat>11</sat><hdop>0.7</hdop><vdop>0.7</vdop><pdop>1.0</pdop></trkpt>
<trkpt lat="42.802752" lon="73.58332761"><ele>694.0</ele><time>2018-10-07T04:50:27.000Z</time><course>105.5</course><speed>6.6904783</speed><geoidheight>-40.0</geoidheight><src>gps</src><sat>10</sat><hdop>0.7</hdop><vdop>0.7</vdop><pdop>1.0</pdop></trkpt>
<trkpt lat="42.80189938" lon="73.58801157"><ele>697.0</ele><time>2018-10-07T04:51:28.000Z</time><course>109.1</course><speed>6.120033</speed><geoidheight>-40.0</geoidheight><src>gps</src><sat>12</sat><hdop>0.7</hdop><vdop>0.7</vdop><pdop>1.0</pdop></trkpt>
<trkpt lat="42.80107883" lon="73.59244505"><ele>701.0</ele><time>2018-10-07T04:52:29.000Z</time><course>105.0</course><speed>6.04331</speed><geoidheight>-40.0</geoidheight><src>gps</src><sat>11</sat><hdop>0.7</hdop><vdop>0.7</vdop><pdop>1.0</pdop></trkpt>
<trkpt lat="42.80032595" lon="73.5970028"><ele>701.0</ele><time>2018-10-07T04:53:30.000Z</time><course>98.0</course><speed>6.0247817</speed><geoidheight>-40.0</geoidheight><src>gps</src><sat>12</sat><hdop>0.7</hdop><vdop>0.7</vdop><pdop>1.0</pdop></trkpt>
<trkpt lat="42.79964645" lon="73.60150239"><ele>711.0</ele><time>2018-10-07T04:54:31.000Z</time><course>101.4</course><speed>5.4866476</speed><geoidheight>-40.0</geoidheight><src>gps</src><sat>11</sat><hdop>0.7</hdop><vdop>0.7</vdop><pdop>1.0</pdop></trkpt>
<trkpt lat="42.79928932" lon="73.60589017"><ele>701.0</ele><time>2018-10-07T04:55:31.000Z</time><course>96.2</course><speed>6.2467346</speed><geoidheight>-40.0</geoidheight><src>gps</src><sat>11</sat><hdop>0.7</hdop><vdop>0.7</vdop><pdop>1.0</pdop></trkpt>
<trkpt lat="42.79880304" lon="73.61077873"><ele>700.0</ele><time>2018-10-07T04:56:32.000Z</time><course>98.4</course><speed>6.9968705</speed><geoidheight>-40.0</geoidheight><src>gps</src><sat>9</sat><hdop>0.7</hdop><vdop>0.7</vdop><pdop>1.0</pdop></trkpt>
<trkpt lat="42.79831094" lon="73.61616997"><ele>701.0</ele><time>2018-10-07T04:57:34.000Z</time><course>94.8</course><speed>7.053751</speed><geoidheight>-40.0</geoidheight><src>gps</src><sat>10</sat><hdop>0.6</hdop><vdop>0.7</vdop><pdop>0.9</pdop></trkpt>
<trkpt lat="42.79819916" lon="73.62183034"><ele>700.0</ele><time>2018-10-07T04:58:34.000Z</time><course>92.1</course><speed>7.3398433</speed><geoidheight>-40.0</geoidheight><src>gps</src><sat>11</sat><hdop>0.6</hdop><vdop>0.7</vdop><pdop>0.9</pdop></trkpt>
<trkpt lat="42.79818285" lon="73.62696569"><ele>702.0</ele><time>2018-10-07T04:59:35.000Z</time><course>86.2</course><speed>6.940029</speed><geoidheight>-40.0</geoidheight><src>gps</src><sat>14</sat><hdop>0.6</hdop><vdop>0.7</vdop><pdop>0.9</pdop></trkpt>
<trkpt lat="42.79871776" lon="73.63188199"><ele>704.0</ele><time>2018-10-07T05:00:36.000Z</time><course>82.3</course><speed>6.8300657</speed><geoidheight>-40.0</geoidheight><src>gps</src><sat>12</sat><hdop>0.6</hdop><vdop>0.7</vdop><pdop>0.9</pdop></trkpt>
<trkpt lat="42.79898454" lon="73.63690655"><ele>703.0</ele><time>2018-10-07T05:01:37.000Z</time><course>106.5</course><speed>7.6716685</speed><geoidheight>-40.0</geoidheight><src>gps</src><sat>12</sat><hdop>0.6</hdop><vdop>0.7</vdop><pdop>0.9</pdop></trkpt>
<trkpt lat="42.79741519" lon="73.64136242"><ele>706.0</ele><time>2018-10-07T05:02:38.000Z</time><course>115.1</course><speed>6.1958456</speed><geoidheight>-40.0</geoidheight><src>gps</src><sat>11</sat><hdop>0.7</hdop><vdop>0.7</vdop><pdop>1.0</pdop></trkpt>
<trkpt lat="42.79574897" lon="73.6456813"><ele>707.0</ele><time>2018-10-07T05:03:39.000Z</time><course>116.7</course><speed>6.1768117</speed><geoidheight>-40.0</geoidheight><src>gps</src><sat>12</sat><hdop>0.7</hdop><vdop>0.7</vdop><pdop>1.0</pdop></trkpt>
<trkpt lat="42.79404613" lon="73.64996506"><ele>704.0</ele><time>2018-10-07T05:04:40.000Z</time><course>106.5</course><speed>6.965034</speed><geoidheight>-40.0</geoidheight><src>gps</src><sat>12</sat><hdop>0.7</hdop><vdop>0.7</vdop><pdop>1.0</pdop></trkpt>
<trkpt lat="42.79301021" lon="73.6545781"><ele>703.0</ele><time>2018-10-07T05:05:41.000Z</time><course>102.2</course><speed>5.778477</speed><geoidheight>-40.0</geoidheight><src>gps</src><sat>12</sat><hdop>0.7</hdop><vdop>0.7</vdop><pdop>1.0</pdop></trkpt>
<trkpt lat="42.79273554" lon="73.65964761"><ele>706.0</ele><time>2018-10-07T05:06:42.000Z</time><course>88.3</course><speed>5.650717</speed><geoidheight>-40.0</geoidheight><src>gps</src><sat>12</sat><hdop>0.7</hdop><vdop>0.7</vdop><pdop>1.0</pdop></trkpt>
<trkpt lat="42.7925016" lon="73.66435139"><ele>710.0</ele><time>2018-10-07T05:07:43.000Z</time><course>91.2</course><speed>6.4031243</speed><geoidheight>-40.0</geoidheight><src>gps</src><sat>10</sat><hdop>0.8</hdop><vdop>0.7</vdop><pdop>1.1</pdop></trkpt>
<trkpt lat="42.79224756" lon="73.66949976"><ele>707.0</ele><time>2018-10-07T05:08:44.000Z</time><course>97.1</course><speed>6.3865876</speed><geoidheight>-40.0</geoidheight><src>gps</src><sat>10</sat><hdop>0.7</hdop><vdop>0.7</vdop><pdop>1.0</pdop></trkpt>
<trkpt lat="42.79195936" lon="73.67424382"><ele>711.0</ele><time>2018-10-07T05:09:45.000Z</time><course>89.5</course><speed>6.6891627</speed><geoidheight>-40.0</geoidheight><src>gps</src><sat>10</sat><hdop>0.8</hdop><vdop>0.7</vdop><pdop>1.1</pdop></trkpt>
<trkpt lat="42.79168683" lon="73.67892901"><ele>709.0</ele><time>2018-10-07T05:10:46.000Z</time><course>91.4</course><speed>6.331137</speed><geoidheight>-40.0</geoidheight><src>gps</src><sat>11</sat><hdop>0.8</hdop><vdop>0.7</vdop><pdop>1.1</pdop></trkpt>
<trkpt lat="42.79166713" lon="73.68397369"><ele>711.0</ele><time>2018-10-07T05:11:47.000Z</time><course>87.9</course><speed>7.207558</speed><geoidheight>-40.0</geoidheight><src>gps</src><sat>8</sat><hdop>0.8</hdop><vdop>0.7</vdop><pdop>1.1</pdop></trkpt>
<trkpt lat="42.79179119" lon="73.6886497"><ele>716.0</ele><time>2018-10-07T05:12:48.000Z</time><course>84.2</course><speed>6.19</speed><geoidheight>-40.0</geoidheight><src>gps</src><sat>11</sat><hdop>0.7</hdop><vdop>0.8</vdop><pdop>1.1</pdop></trkpt>
<trkpt lat="42.79201304" lon="73.69331583"><ele>719.0</ele><time>2018-10-07T05:13:49.000Z</time><course>74.5</course><speed>5.8377137</speed><geoidheight>-40.0</geoidheight><src>gps</src><sat>12</sat><hdop>0.7</hdop><vdop>0.7</vdop><pdop>1.0</pdop></trkpt>
<trkpt lat="42.79293763" lon="73.69766187"><ele>721.0</ele><time>2018-10-07T05:14:50.000Z</time><course>71.7</course><speed>6.168249</speed><geoidheight>-40.0</geoidheight><src>gps</src><sat>12</sat><hdop>0.7</hdop><vdop>0.7</vdop><pdop>1.0</pdop></trkpt>
<trkpt lat="42.79385393" lon="73.70192521"><ele>722.0</ele><time>2018-10-07T05:15:51.000Z</time><course>73.9</course><speed>6.4025307</speed><geoidheight>-40.0</geoidheight><src>gps</src><sat>12</sat><hdop>0.7</hdop><vdop>0.7</vdop><pdop>1.0</pdop></trkpt>
<trkpt lat="42.79476651" lon="73.70635779"><ele>727.0</ele><time>2018-10-07T05:16:52.000Z</time><course>74.6</course><speed>6.4322467</speed><geoidheight>-40.0</geoidheight><src>gps</src><sat>13</sat><hdop>0.6</hdop><vdop>0.7</vdop><pdop>0.9</pdop></trkpt>
<trkpt lat="42.79572434" lon="73.71091483"><ele>725.0</ele><time>2018-10-07T05:17:52.000Z</time><course>73.3</course><speed>6.100131</speed><geoidheight>-40.0</geoidheight><src>gps</src><sat>11</sat><hdop>0.7</hdop><vdop>0.7</vdop><pdop>1.0</pdop></trkpt>
<trkpt lat="42.79669443" lon="73.71564273"><ele>730.0</ele><time>2018-10-07T05:18:53.000Z</time><course>72.9</course><speed>6.7246485</speed><geoidheight>-40.0</geoidheight><src>gps</src><sat>10</sat><hdop>0.7</hdop><vdop>0.7</vdop><pdop>1.0</pdop></trkpt>
<trkpt lat="42.79775213" lon="73.72021724"><ele>729.0</ele><time>2018-10-07T05:19:54.000Z</time><course>72.5</course><speed>6.498384</speed><geoidheight>-40.0</geoidheight><src>gps</src><sat>12</sat><hdop>0.6</hdop><vdop>0.7</vdop><pdop>0.9</pdop></trkpt>
<trkpt lat="42.79907642" lon="73.72461473"><ele>732.0</ele><time>2018-10-07T05:20:55.000Z</time><course>64.3</course><speed>5.990033</speed><geoidheight>-40.0</geoidheight><src>gps</src><sat>13</sat><hdop>0.6</hdop><vdop>0.7</vdop><pdop>0.9</pdop></trkpt>
<trkpt lat="42.8007057" lon="73.72924432"><ele>728.0</ele><time>2018-10-07T05:21:56.000Z</time><course>66.1</course><speed>6.440497</speed><geoidheight>-40.0</geoidheight><src>gps</src><sat>11</sat><hdop>0.6</hdop><vdop>0.7</vdop><pdop>0.9</pdop></trkpt>
<trkpt lat="42.80227757" lon="73.73360843"><ele>737.0</ele><time>2018-10-07T05:22:57.000Z</time><course>62.3</course><speed>6.4500546</speed><geoidheight>-40.0</geoidheight><src>gps</src><sat>13</sat><hdop>0.6</hdop><vdop>0.7</vdop><pdop>0.9</pdop></trkpt>
<trkpt lat="42.80385516" lon="73.73806979"><ele>732.0</ele><time>2018-10-07T05:23:58.000Z</time><course>65.0</course><speed>6.460627</speed><geoidheight>-40.0</geoidheight><src>gps</src><sat>13</sat><hdop>0.6</hdop><vdop>0.7</vdop><pdop>0.9</pdop></trkpt>
<trkpt lat="42.80544311" lon="73.74250427"><ele>735.0</ele><time>2018-10-07T05:24:59.000Z</time><course>66.3</course><speed>6.5600305</speed><geoidheight>-40.0</geoidheight><src>gps</src><sat>13</sat><hdop>0.6</hdop><vdop>0.7</vdop><pdop>0.9</pdop></trkpt>
<trkpt lat="42.80702381" lon="73.74713598"><ele>728.0</ele><time>2018-10-07T05:26:00.000Z</time><course>66.7</course><speed>7.42388</speed><geoidheight>-40.0</geoidheight><src>gps</src><sat>11</sat><hdop>0.6</hdop><vdop>0.7</vdop><pdop>0.9</pdop></trkpt>
<trkpt lat="42.80838495" lon="73.751872"><ele>730.0</ele><time>2018-10-07T05:27:01.000Z</time><course>70.8</course><speed>6.445727</speed><geoidheight>-40.0</geoidheight><src>gps</src><sat>13</sat><hdop>0.6</hdop><vdop>0.7</vdop><pdop>0.9</pdop></trkpt>
<trkpt lat="42.80972479" lon="73.75659825"><ele>726.0</ele><time>2018-10-07T05:28:02.000Z</time><course>71.3</course><speed>6.8126497</speed><geoidheight>-40.0</geoidheight><src>gps</src><sat>7</sat><hdop>0.6</hdop><vdop>0.7</vdop><pdop>0.9</pdop></trkpt>
<trkpt lat="42.81101329" lon="73.76117001"><ele>733.0</ele><time>2018-10-07T05:29:03.000Z</time><course>72.3</course><speed>6.5607395</speed><geoidheight>-40.0</geoidheight><src>gps</src><sat>13</sat><hdop>0.6</hdop><vdop>0.7</vdop><pdop>0.9</pdop></trkpt>
<trkpt lat="42.81232153" lon="73.76584654"><ele>721.0</ele><time>2018-10-07T05:30:04.000Z</time><course>69.6</course><speed>6.490932</speed><geoidheight>-40.0</geoidheight><src>gps</src><sat>12</sat><hdop>0.6</hdop><vdop>0.7</vdop><pdop>0.9</pdop></trkpt>
<trkpt lat="42.81358766" lon="73.77093558"><ele>722.0</ele><time>2018-10-07T05:31:05.000Z</time><course>73.2</course><speed>7.170028</speed><geoidheight>-40.0</geoidheight><src>gps</src><sat>13</sat><hdop>0.6</hdop><vdop>0.7</vdop><pdop>0.9</pdop></trkpt>
<trkpt lat="42.81456859" lon="73.77569179"><ele>726.0</ele><time>2018-10-07T05:32:06.000Z</time><course>74.6</course><speed>6.5622025</speed><geoidheight>-40.0</geoidheight><src>gps</src><sat>11</sat><hdop>0.6</hdop><vdop>0.7</vdop><pdop>0.9</pdop></trkpt>
<trkpt lat="42.81558137" lon="73.78075988"><ele>721.0</ele><time>2018-10-07T05:33:07.000Z</time><course>69.8</course><speed>6.730899</speed><geoidheight>-40.0</geoidheight><src>gps</src><sat>13</sat><hdop>0.6</hdop><vdop>0.7</vdop><pdop>0.9</pdop></trkpt>
<trkpt lat="42.81678807" lon="73.78512073"><ele>727.0</ele><time>2018-10-07T05:34:08.000Z</time><course>74.8</course><speed>6.734642</speed><geoidheight>-40.0</geoidheight><src>gps</src><sat>10</sat><hdop>0.6</hdop><vdop>0.7</vdop><pdop>0.9</pdop></trkpt>
<trkpt lat="42.81791438" lon="73.7901334"><ele>720.0</ele><time>2018-10-07T05:35:09.000Z</time><course>86.9</course><speed>7.230837</speed><geoidheight>-40.0</geoidheight><src>gps</src><sat>13</sat><hdop>0.6</hdop><vdop>0.7</vdop><pdop>0.9</pdop></trkpt>
<trkpt lat="42.81815123" lon="73.79548789"><ele>719.0</ele><time>2018-10-07T05:36:10.000Z</time><course>86.8</course><speed>6.795366</speed><geoidheight>-40.0</geoidheight><src>gps</src><sat>13</sat><hdop>0.6</hdop><vdop>0.7</vdop><pdop>0.9</pdop></trkpt>
<trkpt lat="42.81835803" lon="73.80030966"><ele>720.0</ele><time>2018-10-07T05:37:11.000Z</time><course>83.9</course><speed>6.8941784</speed><geoidheight>-40.0</geoidheight><src>gps</src><sat>13</sat><hdop>0.6</hdop><vdop>0.7</vdop><pdop>0.9</pdop></trkpt>
<trkpt lat="42.81860426" lon="73.80539161"><ele>721.0</ele><time>2018-10-07T05:38:12.000Z</time><course>81.6</course><speed>6.189152</speed><geoidheight>-40.0</geoidheight><src>gps</src><sat>13</sat><hdop>0.6</hdop><vdop>0.7</vdop><pdop>0.9</pdop></trkpt>
<trkpt lat="42.81881997" lon="73.8101119"><ele>723.0</ele><time>2018-10-07T05:39:13.000Z</time><course>84.8</course><speed>6.0229974</speed><geoidheight>-40.0</geoidheight><src>gps</src><sat>12</sat><hdop>0.7</hdop><vdop>0.7</vdop><pdop>1.0</pdop></trkpt>
<trkpt lat="42.8189343" lon="73.8153792"><ele>724.0</ele><time>2018-10-07T05:40:14.000Z</time><course>88.4</course><speed>7.330382</speed><geoidheight>-40.0</geoidheight><src>gps</src><sat>13</sat><hdop>0.6</hdop><vdop>0.7</vdop><pdop>0.9</pdop></trkpt>
<trkpt lat="42.81956386" lon="73.82066433"><ele>719.0</ele><time>2018-10-07T05:41:15.000Z</time><course>74.9</course><speed>7.3201094</speed><geoidheight>-40.0</geoidheight><src>gps</src><sat>13</sat><hdop>0.7</hdop><vdop>0.7</vdop><pdop>1.0</pdop></trkpt>
<trkpt lat="42.82057263" lon="73.82548698"><ele>720.0</ele><time>2018-10-07T05:42:16.000Z</time><course>72.3</course><speed>7.2615495</speed><geoidheight>-40.0</geoidheight><src>gps</src><sat>11</sat><hdop>0.7</hdop><vdop>0.7</vdop><pdop>1.0</pdop></trkpt>
<trkpt lat="42.82162984" lon="73.83038633"><ele>721.0</ele><time>2018-10-07T05:43:17.000Z</time><course>74.4</course><speed>6.5148754</speed><geoidheight>-40.0</geoidheight><src>gps</src><sat>13</sat><hdop>0.7</hdop><vdop>0.7</vdop><pdop>1.0</pdop></trkpt>
<trkpt lat="42.82258489" lon="73.83487057"><ele>719.0</ele><time>2018-10-07T05:44:18.000Z</time><course>72.1</course><speed>6.9508705</speed><geoidheight>-40.0</geoidheight><src>gps</src><sat>13</sat><hdop>0.7</hdop><vdop>0.7</vdop><pdop>1.0</pdop></trkpt>
<trkpt lat="42.82352656" lon="73.83929447"><ele>723.0</ele><time>2018-10-07T05:45:19.000Z</time><course>69.9</course><speed>5.7305584</speed><geoidheight>-40.0</geoidheight><src>gps</src><sat>13</sat><hdop>0.7</hdop><vdop>0.7</vdop><pdop>1.0</pdop></trkpt>
<trkpt lat="42.8242933" lon="73.84330986"><ele>724.0</ele><time>2018-10-07T05:46:20.000Z</time><course>72.8</course><speed>1.3709121</speed><geoidheight>-40.0</geoidheight><src>gps</src><sat>13</sat><hdop>0.7</hdop><vdop>0.7</vdop><pdop>1.0</pdop></trkpt>
<trkpt lat="42.82475332" lon="73.84575214"><ele>722.0</ele><time>2018-10-07T05:47:21.000Z</time><course>78.8</course><speed>2.6970353</speed><geoidheight>-40.0</geoidheight><src>gps</src><sat>11</sat><hdop>0.7</hdop><vdop>0.7</vdop><pdop>1.0</pdop></trkpt>
<trkpt lat="42.82532821" lon="73.84914051"><ele>727.0</ele><time>2018-10-07T05:48:22.000Z</time><course>73.1</course><speed>5.3200097</speed><geoidheight>-40.0</geoidheight><src>gps</src><sat>12</sat><hdop>0.7</hdop><vdop>0.7</vdop><pdop>1.0</pdop></trkpt>
<trkpt lat="42.82602966" lon="73.85379828"><ele>725.0</ele><time>2018-10-07T05:49:23.000Z</time><course>80.4</course><speed>6.600068</speed><geoidheight>-40.0</geoidheight><src>gps</src><sat>17</sat><hdop>0.7</hdop><vdop>0.7</vdop><pdop>1.0</pdop></trkpt>
<trkpt lat="42.82660278" lon="73.85879695"><ele>728.0</ele><time>2018-10-07T05:50:24.000Z</time><course>86.4</course><speed>7.3001094</speed><geoidheight>-40.0</geoidheight><src>gps</src><sat>14</sat><hdop>0.7</hdop><vdop>0.8</vdop><pdop>1.0</pdop></trkpt>
<trkpt lat="42.82715267" lon="73.86409785"><ele>728.0</ele><time>2018-10-07T05:51:25.000Z</time><course>83.9</course><speed>7.6039267</speed><geoidheight>-40.0</geoidheight><src>gps</src><sat>14</sat><hdop>0.7</hdop><vdop>0.8</vdop><pdop>1.0</pdop></trkpt>
<trkpt lat="42.82759697" lon="73.86940326"><ele>722.0</ele><time>2018-10-07T05:52:26.000Z</time><course>80.4</course><speed>7.182785</speed><geoidheight>-40.0</geoidheight><src>gps</src><sat>14</sat><hdop>0.7</hdop><vdop>0.7</vdop><pdop>1.0</pdop></trkpt>
<trkpt lat="42.82801361" lon="73.87452428"><ele>720.0</ele><time>2018-10-07T05:53:27.000Z</time><course>80.0</course><speed>7.171569</speed><geoidheight>-40.0</geoidheight><src>gps</src><sat>14</sat><hdop>0.7</hdop><vdop>0.7</vdop><pdop>1.0</pdop></trkpt>
<trkpt lat="42.82859183" lon="73.87947532"><ele>716.0</ele><time>2018-10-07T05:54:28.000Z</time><course>85.6</course><speed>4.7642</speed><geoidheight>-40.0</geoidheight><src>gps</src><sat>13</sat><hdop>0.7</hdop><vdop>0.7</vdop><pdop>1.0</pdop></trkpt>
<trkpt lat="42.82908856" lon="73.88361519"><ele>723.0</ele><time>2018-10-07T05:55:29.000Z</time><course>73.4</course><speed>6.660908</speed><geoidheight>-40.0</geoidheight><src>gps</src><sat>14</sat><hdop>0.7</hdop><vdop>0.7</vdop><pdop>1.0</pdop></trkpt>
<trkpt lat="42.82991474" lon="73.88814807"><ele>717.0</ele><time>2018-10-07T05:56:30.000Z</time><course>73.8</course><speed>5.8110414</speed><geoidheight>-40.0</geoidheight><src>gps</src><sat>14</sat><hdop>0.7</hdop><vdop>0.7</vdop><pdop>1.0</pdop></trkpt>
<trkpt lat="42.83066536" lon="73.89220008"><ele>712.0</ele><time>2018-10-07T05:57:31.000Z</time><course>85.8</course><speed>5.9224405</speed><geoidheight>-40.0</geoidheight><src>gps</src><sat>14</sat><hdop>0.7</hdop><vdop>0.7</vdop><pdop>1.0</pdop></trkpt>
<trkpt lat="42.83145944" lon="73.89628206"><ele>712.0</ele><time>2018-10-07T05:58:32.000Z</time><course>75.7</course><speed>6.217298</speed><geoidheight>-40.0</geoidheight><src>gps</src><sat>14</sat><hdop>0.7</hdop><vdop>0.7</vdop><pdop>1.0</pdop></trkpt>
<trkpt lat="42.83285731" lon="73.90078725"><ele>692.0</ele><time>2018-10-07T05:59:33.000Z</time><course>59.5</course><speed>7.310554</speed><geoidheight>-40.0</geoidheight><src>gps</src><sat>13</sat><hdop>0.7</hdop><vdop>0.7</vdop><pdop>1.0</pdop></trkpt>
<trkpt lat="42.83328194" lon="73.90229664"><ele>703.0</ele><time>2018-10-07T06:00:34.000Z</time><speed>0.0</speed><geoidheight>-40.0</geoidheight><src>gps</src><sat>14</sat><hdop>0.7</hdop><vdop>0.7</vdop><pdop>1.0</pdop></trkpt>
<trkpt lat="42.83326959" lon="73.90230441"><ele>704.0</ele><time>2018-10-07T06:01:35.000Z</time><speed>0.0</speed><geoidheight>-40.0</geoidheight><src>gps</src><sat>14</sat><hdop>0.7</hdop><vdop>0.7</vdop><pdop>1.0</pdop></trkpt>
<trkpt lat="42.83330464" lon="73.9023291"><ele>706.0</ele><time>2018-10-07T06:02:35.000Z</time><speed>0.0</speed><geoidheight>-40.0</geoidheight><src>gps</src><sat>12</sat><hdop>0.7</hdop><vdop>0.7</vdop><pdop>1.0</pdop></trkpt>
<trkpt lat="42.83367938" lon="73.90449365"><ele>709.0</ele><time>2018-10-07T06:03:36.000Z</time><course>69.7</course><speed>6.7210712</speed><geoidheight>-40.0</geoidheight><src>gps</src><sat>14</sat><hdop>0.7</hdop><vdop>0.7</vdop><pdop>1.0</pdop></trkpt>
<trkpt lat="42.83457825" lon="73.90859442"><ele>704.0</ele><time>2018-10-07T06:04:37.000Z</time><course>75.9</course><speed>4.052419</speed><geoidheight>-40.0</geoidheight><src>gps</src><sat>14</sat><hdop>0.7</hdop><vdop>0.7</vdop><pdop>1.0</pdop></trkpt>
<trkpt lat="42.83539514" lon="73.91265247"><ele>700.0</ele><time>2018-10-07T06:05:38.000Z</time><course>71.9</course><speed>5.390009</speed><geoidheight>-40.0</geoidheight><src>gps</src><sat>13</sat><hdop>0.6</hdop><vdop>0.7</vdop><pdop>1.0</pdop></trkpt>
<trkpt lat="42.83636967" lon="73.91654093"><ele>711.0</ele><time>2018-10-07T06:06:39.000Z</time><course>73.1</course><speed>5.2209578</speed><geoidheight>-40.0</geoidheight><src>gps</src><sat>14</sat><hdop>0.6</hdop><vdop>0.7</vdop><pdop>0.9</pdop></trkpt>
<trkpt lat="42.83764828" lon="73.9202513"><ele>703.0</ele><time>2018-10-07T06:07:40.000Z</time><course>66.2</course><speed>5.895303</speed><geoidheight>-40.0</geoidheight><src>gps</src><sat>14</sat><hdop>0.6</hdop><vdop>0.7</vdop><pdop>0.9</pdop></trkpt>
<trkpt lat="42.83868558" lon="73.92418647"><ele>696.0</ele><time>2018-10-07T06:08:41.000Z</time><course>65.5</course><speed>5.7126527</speed><geoidheight>-40.0</geoidheight><src>gps</src><sat>12</sat><hdop>0.6</hdop><vdop>0.7</vdop><pdop>0.9</pdop></trkpt>
<trkpt lat="42.83979329" lon="73.92734801"><ele>703.0</ele><time>2018-10-07T06:09:42.000Z</time><course>60.9</course><speed>3.6585517</speed><geoidheight>-40.0</geoidheight><src>gps</src><sat>14</sat><hdop>0.7</hdop><vdop>0.7</vdop><pdop>1.0</pdop></trkpt>
<trkpt lat="42.84146554" lon="73.92976259"><ele>713.0</ele><time>2018-10-07T06:10:43.000Z</time><course>44.3</course><speed>5.684804</speed><geoidheight>-40.0</geoidheight><src>gps</src><sat>13</sat><hdop>0.7</hdop><vdop>0.7</vdop><pdop>1.0</pdop></trkpt>
<trkpt lat="42.84237506" lon="73.93350871"><ele>707.0</ele><time>2018-10-07T06:11:44.000Z</time><course>94.4</course><speed>5.697903</speed><geoidheight>-40.0</geoidheight><src>gps</src><sat>13</sat><hdop>0.7</hdop><vdop>0.7</vdop><pdop>1.0</pdop></trkpt>
<trkpt lat="42.84197845" lon="73.93775617"><ele>717.0</ele><time>2018-10-07T06:12:45.000Z</time><course>93.6</course><speed>5.8201375</speed><geoidheight>-40.0</geoidheight><src>gps</src><sat>12</sat><hdop>0.7</hdop><vdop>0.7</vdop><pdop>1.0</pdop></trkpt>
<trkpt lat="42.84239224" lon="73.94190823"><ele>714.0</ele><time>2018-10-07T06:13:46.000Z</time><course>82.3</course><speed>4.890368</speed><geoidheight>-40.0</geoidheight><src>gps</src><sat>14</sat><hdop>0.7</hdop><vdop>0.7</vdop><pdop>1.0</pdop></trkpt>
<trkpt lat="42.84281023" lon="73.94537564"><ele>696.0</ele><time>2018-10-07T06:14:47.000Z</time><course>89.2</course><speed>5.1119175</speed><geoidheight>-40.0</geoidheight><src>gps</src><sat>13</sat><hdop>0.7</hdop><vdop>0.7</vdop><pdop>1.0</pdop></trkpt>
<trkpt lat="42.84325428" lon="73.94917941"><ele>684.0</ele><time>2018-10-07T06:15:48.000Z</time><course>79.3</course><speed>5.6710668</speed><geoidheight>-40.0</geoidheight><src>gps</src><sat>13</sat><hdop>0.7</hdop><vdop>0.7</vdop><pdop>1.0</pdop></trkpt>
<trkpt lat="42.84366547" lon="73.95252107"><ele>667.0</ele><time>2018-10-07T06:16:49.000Z</time><course>84.7</course><speed>4.5163813</speed><geoidheight>-40.0</geoidheight><src>gps</src><sat>14</sat><hdop>0.7</hdop><vdop>0.7</vdop><pdop>1.0</pdop></trkpt>
<trkpt lat="42.84420701" lon="73.95636836"><ele>673.0</ele><time>2018-10-07T06:17:50.000Z</time><course>75.1</course><speed>5.800552</speed><geoidheight>-40.0</geoidheight><src>gps</src><sat>12</sat><hdop>0.7</hdop><vdop>0.7</vdop><pdop>1.0</pdop></trkpt>
<trkpt lat="42.8446632" lon="73.96009193"><ele>687.0</ele><time>2018-10-07T06:18:51.000Z</time><course>84.1</course><speed>6.642718</speed><geoidheight>-40.0</geoidheight><src>gps</src><sat>13</sat><hdop>0.7</hdop><vdop>0.7</vdop><pdop>1.0</pdop></trkpt>
<trkpt lat="42.84466646" lon="73.96529133"><ele>683.0</ele><time>2018-10-07T06:19:52.000Z</time><course>104.6</course><speed>7.9416494</speed><geoidheight>-40.0</geoidheight><src>gps</src><sat>12</sat><hdop>0.7</hdop><vdop>0.7</vdop><pdop>1.0</pdop></trkpt>
<trkpt lat="42.8435667" lon="73.97131656"><ele>703.0</ele><time>2018-10-07T06:20:53.000Z</time><course>104.7</course><speed>8.33</speed><geoidheight>-40.0</geoidheight><src>gps</src><sat>12</sat><hdop>0.7</hdop><vdop>0.7</vdop><pdop>1.0</pdop></trkpt>
<trkpt lat="42.84251192" lon="73.97682248"><ele>685.0</ele><time>2018-10-07T06:21:54.000Z</time><course>105.1</course><speed>7.542845</speed><geoidheight>-40.0</geoidheight><src>gps</src><sat>13</sat><hdop>0.7</hdop><vdop>0.8</vdop><pdop>1.1</pdop></trkpt>
<trkpt lat="42.8414028" lon="73.9823213"><ele>671.0</ele><time>2018-10-07T06:22:55.000Z</time><course>106.2</course><speed>7.3224654</speed><geoidheight>-40.0</geoidheight><src>gps</src><sat>13</sat><hdop>0.7</hdop><vdop>0.8</vdop><pdop>1.0</pdop></trkpt>
<trkpt lat="42.8411885" lon="73.98857313"><ele>666.0</ele><time>2018-10-07T06:23:56.000Z</time><course>86.1</course><speed>7.2670493</speed><geoidheight>-40.0</geoidheight><src>gps</src><sat>14</sat><hdop>0.7</hdop><vdop>0.8</vdop><pdop>1.0</pdop></trkpt>
<trkpt lat="42.84143992" lon="73.99329752"><ele>679.0</ele><time>2018-10-07T06:24:57.000Z</time><course>84.5</course><speed>6.17</speed><geoidheight>-40.0</geoidheight><src>gps</src><sat>13</sat><hdop>0.7</hdop><vdop>0.8</vdop><pdop>1.0</pdop></trkpt>
<trkpt lat="42.84162305" lon="73.99890517"><ele>673.0</ele><time>2018-10-07T06:25:58.000Z</time><course>88.2</course><speed>7.953043</speed><geoidheight>-40.0</geoidheight><src>gps</src><sat>11</sat><hdop>0.7</hdop><vdop>0.8</vdop><pdop>1.0</pdop></trkpt>
<trkpt lat="42.84189709" lon="74.00422371"><ele>679.0</ele><time>2018-10-07T06:26:59.000Z</time><course>85.9</course><speed>6.420631</speed><geoidheight>-40.0</geoidheight><src>gps</src><sat>10</sat><hdop>0.7</hdop><vdop>0.8</vdop><pdop>1.0</pdop></trkpt>
<trkpt lat="42.8419172" lon="74.00919736"><ele>682.0</ele><time>2018-10-07T06:27:59.000Z</time><course>92.4</course><speed>7.104266</speed><geoidheight>-40.0</geoidheight><src>gps</src><sat>13</sat><hdop>0.7</hdop><vdop>0.8</vdop><pdop>1.0</pdop></trkpt>
<trkpt lat="42.84181497" lon="74.01472986"><ele>689.0</ele><time>2018-10-07T06:29:00.000Z</time><course>88.8</course><speed>7.110851</speed><geoidheight>-40.0</geoidheight><src>gps</src><sat>13</sat><hdop>0.7</hdop><vdop>0.8</vdop><pdop>1.0</pdop></trkpt>
<trkpt lat="42.84174968" lon="74.01998196"><ele>701.0</ele><time>2018-10-07T06:30:00.000Z</time><course>93.3</course><speed>6.6832104</speed><geoidheight>-40.0</geoidheight><src>gps</src><sat>12</sat><hdop>0.7</hdop><vdop>0.8</vdop><pdop>1.0</pdop></trkpt>
<trkpt lat="42.84163065" lon="74.02515256"><ele>696.0</ele><time>2018-10-07T06:31:00.000Z</time><course>94.5</course><speed>6.862915</speed><geoidheight>-40.0</geoidheight><src>gps</src><sat>13</sat><hdop>0.7</hdop><vdop>0.8</vdop><pdop>1.0</pdop></trkpt>
<trkpt lat="42.8414878" lon="74.03069226"><ele>698.0</ele><time>2018-10-07T06:32:01.000Z</time><course>91.8</course><speed>8.384659</speed><geoidheight>-40.0</geoidheight><src>gps</src><sat>13</sat><hdop>0.7</hdop><vdop>0.8</vdop><pdop>1.0</pdop></trkpt>
<trkpt lat="42.8413149" lon="74.03630389"><ele>705.0</ele><time>2018-10-07T06:33:02.000Z</time><course>90.2</course><speed>7.031202</speed><geoidheight>-40.0</geoidheight><src>gps</src><sat>10</sat><hdop>0.7</hdop><vdop>0.8</vdop><pdop>1.1</pdop></trkpt>
<trkpt lat="42.84072674" lon="74.04178553"><ele>710.0</ele><time>2018-10-07T06:34:03.000Z</time><course>101.2</course><speed>7.790924</speed><geoidheight>-40.0</geoidheight><src>gps</src><sat>19</sat><hdop>0.7</hdop><vdop>0.8</vdop><pdop>1.0</pdop></trkpt>
<trkpt lat="42.83991215" lon="74.04740068"><ele>714.0</ele><time>2018-10-07T06:35:04.000Z</time><course>102.1</course><speed>6.7076373</speed><geoidheight>-40.0</geoidheight><src>gps</src><sat>13</sat><hdop>0.7</hdop><vdop>0.8</vdop><pdop>1.0</pdop></trkpt>
<trkpt lat="42.83912107" lon="74.05295696"><ele>723.0</ele><time>2018-10-07T06:36:05.000Z</time><course>100.6</course><speed>6.9011593</speed><geoidheight>-40.0</geoidheight><src>gps</src><sat>13</sat><hdop>0.7</hdop><vdop>0.8</vdop><pdop>1.0</pdop></trkpt>
<trkpt lat="42.83845977" lon="74.05761129"><ele>730.0</ele><time>2018-10-07T06:37:06.000Z</time><course>101.2</course><speed>5.7503133</speed><geoidheight>-40.0</geoidheight><src>gps</src><sat>11</sat><hdop>0.7</hdop><vdop>0.8</vdop><pdop>1.0</pdop></trkpt>
<trkpt lat="42.83787705" lon="74.06152296"><ele>732.0</ele><time>2018-10-07T06:38:07.000Z</time><course>105.9</course><speed>5.063951</speed><geoidheight>-40.0</geoidheight><src>gps</src><sat>12</sat><hdop>0.7</hdop><vdop>0.8</vdop><pdop>1.1</pdop></trkpt>
<trkpt lat="42.83734179" lon="74.06548996"><ele>728.0</ele><time>2018-10-07T06:39:08.000Z</time><course>99.1</course><speed>5.8541355</speed><geoidheight>-40.0</geoidheight><src>gps</src><sat>13</sat><hdop>0.8</hdop><vdop>0.8</vdop><pdop>1.1</pdop></trkpt>
<trkpt lat="42.83648659" lon="74.07013457"><ele>703.0</ele><time>2018-10-07T06:40:09.000Z</time><course>96.3</course><speed>6.446984</speed><geoidheight>-40.0</geoidheight><src>gps</src><sat>13</sat><hdop>0.7</hdop><vdop>0.8</vdop><pdop>1.1</pdop></trkpt>
<trkpt lat="42.83567691" lon="74.07488713"><ele>698.0</ele><time>2018-10-07T06:41:10.000Z</time><course>99.1</course><speed>6.840731</speed><geoidheight>-40.0</geoidheight><src>gps</src><sat>14</sat><hdop>0.7</hdop><vdop>0.8</vdop><pdop>1.0</pdop></trkpt>
<trkpt lat="42.83499121" lon="74.07951279"><ele>702.0</ele><time>2018-10-07T06:42:11.000Z</time><course>99.6</course><speed>5.9614177</speed><geoidheight>-40.0</geoidheight><src>gps</src><sat>12</sat><hdop>0.7</hdop><vdop>0.8</vdop><pdop>1.1</pdop></trkpt>
<trkpt lat="42.83427522" lon="74.08434055"><ele>703.0</ele><time>2018-10-07T06:43:12.000Z</time><course>108.3</course><speed>6.343918</speed><geoidheight>-40.0</geoidheight><src>gps</src><sat>13</sat><hdop>0.7</hdop><vdop>0.8</vdop><pdop>1.1</pdop></trkpt>
<trkpt lat="42.83350308" lon="74.08904233"><ele>699.0</ele><time>2018-10-07T06:44:13.000Z</time><course>97.4</course><speed>6.929885</speed><geoidheight>-40.0</geoidheight><src>gps</src><sat>14</sat><hdop>0.7</hdop><vdop>0.8</vdop><pdop>1.1</pdop></trkpt>
<trkpt lat="42.8334202" lon="74.09399239"><ele>702.0</ele><time>2018-10-07T06:45:14.000Z</time><course>82.8</course><speed>6.9707966</speed><geoidheight>-40.0</geoidheight><src>gps</src><sat>13</sat><hdop>0.7</hdop><vdop>0.8</vdop><pdop>1.1</pdop></trkpt>
<trkpt lat="42.83401705" lon="74.09809361"><ele>696.0</ele><time>2018-10-07T06:46:15.000Z</time><course>95.4</course><speed>0.4967897</speed><geoidheight>-40.0</geoidheight><src>gps</src><sat>12</sat><hdop>0.7</hdop><vdop>0.8</vdop><pdop>1.1</pdop></trkpt>
<trkpt lat="42.83479741" lon="74.10214068"><ele>691.0</ele><time>2018-10-07T06:47:16.000Z</time><course>74.2</course><speed>7.542652</speed><geoidheight>-40.0</geoidheight><src>gps</src><sat>12</sat><hdop>0.7</hdop><vdop>0.8</vdop><pdop>1.1</pdop></trkpt>
<trkpt lat="42.83509187" lon="74.107574"><ele>686.0</ele><time>2018-10-07T06:48:16.000Z</time><course>96.9</course><speed>6.5701904</speed><geoidheight>-40.0</geoidheight><src>gps</src><sat>14</sat><hdop>0.7</hdop><vdop>0.8</vdop><pdop>1.1</pdop></trkpt>
<trkpt lat="42.83437764" lon="74.11222862"><ele>693.0</ele><time>2018-10-07T06:49:17.000Z</time><course>100.6</course><speed>6.2903895</speed><geoidheight>-40.0</geoidheight><src>gps</src><sat>14</sat><hdop>0.7</hdop><vdop>0.8</vdop><pdop>1.0</pdop></trkpt>
<trkpt lat="42.83415761" lon="74.11697474"><ele>689.0</ele><time>2018-10-07T06:50:18.000Z</time><course>97.3</course><speed>6.530276</speed><geoidheight>-40.0</geoidheight><src>gps</src><sat>11</sat><hdop>0.7</hdop><vdop>0.8</vdop><pdop>1.1</pdop></trkpt>
<trkpt lat="42.83380861" lon="74.12166664"><ele>691.0</ele><time>2018-10-07T06:51:19.000Z</time><course>85.8</course><speed>6.9866805</speed><geoidheight>-40.0</geoidheight><src>gps</src><sat>13</sat><hdop>0.7</hdop><vdop>0.8</vdop><pdop>1.1</pdop></trkpt>
<trkpt lat="42.83440693" lon="74.12630093"><ele>684.0</ele><time>2018-10-07T06:52:20.000Z</time><course>76.9</course><speed>6.3434772</speed><geoidheight>-40.0</geoidheight><src>gps</src><sat>18</sat><hdop>0.7</hdop><vdop>0.7</vdop><pdop>1.0</pdop></trkpt>
<trkpt lat="42.83541265" lon="74.13094135"><ele>699.0</ele><time>2018-10-07T06:53:21.000Z</time><course>64.7</course><speed>5.940076</speed><geoidheight>-40.0</geoidheight><src>gps</src><sat>14</sat><hdop>0.7</hdop><vdop>0.8</vdop><pdop>1.1</pdop></trkpt>
<trkpt lat="42.83693864" lon="74.13526659"><ele>700.0</ele><time>2018-10-07T06:54:22.000Z</time><course>66.1</course><speed>6.751896</speed><geoidheight>-40.0</geoidheight><src>gps</src><sat>13</sat><hdop>0.7</hdop><vdop>0.8</vdop><pdop>1.1</pdop></trkpt>
<trkpt lat="42.8385871" lon="74.14005052"><ele>691.0</ele><time>2018-10-07T06:55:23.000Z</time><course>64.7</course><speed>6.9803295</speed><geoidheight>-40.0</geoidheight><src>gps</src><sat>14</sat><hdop>0.7</hdop><vdop>0.8</vdop><pdop>1.1</pdop></trkpt>
<trkpt lat="42.8402926" lon="74.14495937"><ele>693.0</ele><time>2018-10-07T06:56:26.000Z</time><course>69.8</course><speed>6.741661</speed><geoidheight>-40.0</geoidheight><src>gps</src><sat>11</sat><hdop>0.7</hdop><vdop>0.7</vdop><pdop>1.0</pdop></trkpt>
<trkpt lat="42.84223767" lon="74.14902018"><ele>692.0</ele><time>2018-10-07T06:57:27.000Z</time><course>56.2</course><speed>5.71253</speed><geoidheight>-40.0</geoidheight><src>gps</src><sat>14</sat><hdop>0.7</hdop><vdop>0.8</vdop><pdop>1.0</pdop></trkpt>
<trkpt lat="42.84416461" lon="74.15280391"><ele>694.0</ele><time>2018-10-07T06:58:28.000Z</time><course>55.9</course><speed>6.791885</speed><geoidheight>-40.0</geoidheight><src>gps</src><sat>14</sat><hdop>0.7</hdop><vdop>0.7</vdop><pdop>1.0</pdop></trkpt>
<trkpt lat="42.84592629" lon="74.15714467"><ele>692.0</ele><time>2018-10-07T06:59:29.000Z</time><course>58.5</course><speed>6.329463</speed><geoidheight>-40.0</geoidheight><src>gps</src><sat>12</sat><hdop>0.7</hdop><vdop>0.7</vdop><pdop>1.0</pdop></trkpt>
<trkpt lat="42.84725923" lon="74.16169186"><ele>686.0</ele><time>2018-10-07T07:00:30.000Z</time><course>78.9</course><speed>6.5498857</speed><geoidheight>-40.0</geoidheight><src>gps</src><sat>12</sat><hdop>0.7</hdop><vdop>0.7</vdop><pdop>1.0</pdop></trkpt>
<trkpt lat="42.84825214" lon="74.16629049"><ele>691.0</ele><time>2018-10-07T07:01:30.000Z</time><course>75.2</course><speed>6.702156</speed><geoidheight>-40.0</geoidheight><src>gps</src><sat>13</sat><hdop>0.7</hdop><vdop>0.7</vdop><pdop>1.0</pdop></trkpt>
<trkpt lat="42.84930772" lon="74.17114859"><ele>689.0</ele><time>2018-10-07T07:02:31.000Z</time><course>74.2</course><speed>6.961616</speed><geoidheight>-40.0</geoidheight><src>gps</src><sat>13</sat><hdop>0.7</hdop><vdop>0.7</vdop><pdop>1.0</pdop></trkpt>
<trkpt lat="42.85030715" lon="74.17566671"><ele>694.0</ele><time>2018-10-07T07:03:32.000Z</time><course>70.2</course><speed>6.5974693</speed><geoidheight>-40.0</geoidheight><src>gps</src><sat>14</sat><hdop>0.7</hdop><vdop>0.7</vdop><pdop>1.0</pdop></trkpt>
<trkpt lat="42.85113571" lon="74.18042279"><ele>687.0</ele><time>2018-10-07T07:04:33.000Z</time><course>78.2</course><speed>6.406567</speed><geoidheight>-40.0</geoidheight><src>gps</src><sat>19</sat><hdop>0.7</hdop><vdop>0.7</vdop><pdop>1.0</pdop></trkpt>
<trkpt lat="42.85193614" lon="74.18530092"><ele>692.0</ele><time>2018-10-07T07:05:34.000Z</time><course>74.7</course><speed>6.3746448</speed><geoidheight>-40.0</geoidheight><src>gps</src><sat>13</sat><hdop>0.7</hdop><vdop>0.7</vdop><pdop>1.0</pdop></trkpt>
<trkpt lat="42.85251401" lon="74.18997146"><ele>692.0</ele><time>2018-10-07T07:06:35.000Z</time><course>85.6</course><speed>6.4809337</speed><geoidheight>-40.0</geoidheight><src>gps</src><sat>14</sat><hdop>0.7</hdop><vdop>0.7</vdop><pdop>1.0</pdop></trkpt>
<trkpt lat="42.85274309" lon="74.19495308"><ele>688.0</ele><time>2018-10-07T07:07:36.000Z</time><course>84.4</course><speed>5.7783217</speed><geoidheight>-40.0</geoidheight><src>gps</src><sat>12</sat><hdop>0.7</hdop><vdop>0.7</vdop><pdop>1.0</pdop></trkpt>
<trkpt lat="42.85299164" lon="74.19942866"><ele>696.0</ele><time>2018-10-07T07:08:37.000Z</time><course>84.0</course><speed>6.3882394</speed><geoidheight>-40.0</geoidheight><src>gps</src><sat>14</sat><hdop>0.7</hdop><vdop>0.7</vdop><pdop>1.0</pdop></trkpt>
<trkpt lat="42.85323454" lon="74.20433257"><ele>693.0</ele><time>2018-10-07T07:09:38.000Z</time><course>86.1</course><speed>6.093808</speed><geoidheight>-40.0</geoidheight><src>gps</src><sat>14</sat><hdop>0.7</hdop><vdop>0.7</vdop><pdop>1.0</pdop></trkpt>
<trkpt lat="42.85341621" lon="74.20922322"><ele>696.0</ele><time>2018-10-07T07:10:39.000Z</time><course>90.1</course><speed>6.5500307</speed><geoidheight>-40.0</geoidheight><src>gps</src><sat>14</sat><hdop>0.7</hdop><vdop>0.7</vdop><pdop>1.0</pdop></trkpt>
<trkpt lat="42.8536062" lon="74.21422272"><ele>695.0</ele><time>2018-10-07T07:11:40.000Z</time><course>88.4</course><speed>6.91695</speed><geoidheight>-40.0</geoidheight><src>gps</src><sat>14</sat><hdop>0.7</hdop><vdop>0.7</vdop><pdop>1.0</pdop></trkpt>
<trkpt lat="42.85379575" lon="74.21948365"><ele>693.0</ele><time>2018-10-07T07:12:41.000Z</time><course>86.8</course><speed>6.66027</speed><geoidheight>-40.0</geoidheight><src>gps</src><sat>13</sat><hdop>0.7</hdop><vdop>0.7</vdop><pdop>1.0</pdop></trkpt>
<trkpt lat="42.85394605" lon="74.22425495"><ele>694.0</ele><time>2018-10-07T07:13:42.000Z</time><course>81.7</course><speed>6.0705276</speed><geoidheight>-40.0</geoidheight><src>gps</src><sat>14</sat><hdop>0.7</hdop><vdop>0.7</vdop><pdop>1.0</pdop></trkpt>
<trkpt lat="42.85414793" lon="74.2293657"><ele>693.0</ele><time>2018-10-07T07:14:43.000Z</time><course>89.1</course><speed>6.8542027</speed><geoidheight>-40.0</geoidheight><src>gps</src><sat>14</sat><hdop>0.7</hdop><vdop>0.7</vdop><pdop>1.0</pdop></trkpt>
<trkpt lat="42.85431256" lon="74.23470504"><ele>691.0</ele><time>2018-10-07T07:15:44.000Z</time><course>87.2</course><speed>7.3602448</speed><geoidheight>-40.0</geoidheight><src>gps</src><sat>13</sat><hdop>0.7</hdop><vdop>0.7</vdop><pdop>1.0</pdop></trkpt>
<trkpt lat="42.85450825" lon="74.24016601"><ele>692.0</ele><time>2018-10-07T07:16:45.000Z</time><course>87.4</course><speed>6.790184</speed><geoidheight>-40.0</geoidheight><src>gps</src><sat>16</sat><hdop>0.7</hdop><vdop>0.7</vdop><pdop>1.0</pdop></trkpt>
<trkpt lat="42.85477584" lon="74.24500326"><ele>694.0</ele><time>2018-10-07T07:17:46.000Z</time><course>85.1</course><speed>6.8808794</speed><geoidheight>-40.0</geoidheight><src>gps</src><sat>13</sat><hdop>0.7</hdop><vdop>0.7</vdop><pdop>1.0</pdop></trkpt>
<trkpt lat="42.8550268" lon="74.25026414"><ele>707.0</ele><time>2018-10-07T07:18:47.000Z</time><course>86.6</course><speed>6.4202805</speed><geoidheight>-40.0</geoidheight><src>gps</src><sat>12</sat><hdop>0.7</hdop><vdop>0.7</vdop><pdop>1.0</pdop></trkpt>
<trkpt lat="42.8552634" lon="74.25502084"><ele>707.0</ele><time>2018-10-07T07:19:48.000Z</time><course>87.5</course><speed>6.7226853</speed><geoidheight>-40.0</geoidheight><src>gps</src><sat>13</sat><hdop>0.7</hdop><vdop>0.7</vdop><pdop>0.9</pdop></trkpt>
<trkpt lat="42.85550332" lon="74.25989998"><ele>702.0</ele><time>2018-10-07T07:20:49.000Z</time><course>84.4</course><speed>6.6406097</speed><geoidheight>-40.0</geoidheight><src>gps</src><sat>10</sat><hdop>0.7</hdop><vdop>0.7</vdop><pdop>0.9</pdop></trkpt>
<trkpt lat="42.85563943" lon="74.26470408"><ele>701.0</ele><time>2018-10-07T07:21:50.000Z</time><course>85.5</course><speed>6.691315</speed><geoidheight>-40.0</geoidheight><src>gps</src><sat>10</sat><hdop>0.7</hdop><vdop>0.7</vdop><pdop>0.9</pdop></trkpt>
<trkpt lat="42.85572594" lon="74.26986721"><ele>698.0</ele><time>2018-10-07T07:22:51.000Z</time><course>91.9</course><speed>6.617265</speed><geoidheight>-40.0</geoidheight><src>gps</src><sat>12</sat><hdop>0.7</hdop><vdop>0.7</vdop><pdop>0.9</pdop></trkpt>
<trkpt lat="42.85612985" lon="74.2751525"><ele>699.0</ele><time>2018-10-07T07:23:52.000Z</time><course>80.4</course><speed>7.6301045</speed><geoidheight>-40.0</geoidheight><src>gps</src><sat>13</sat><hdop>0.7</hdop><vdop>0.6</vdop><pdop>0.9</pdop></trkpt>
<trkpt lat="42.85663584" lon="74.27992452"><ele>693.0</ele><time>2018-10-07T07:24:53.000Z</time><course>94.7</course><speed>5.414074</speed><geoidheight>-40.0</geoidheight><src>gps</src><sat>11</sat><hdop>0.7</hdop><vdop>0.6</vdop><pdop>0.9</pdop></trkpt>
<trkpt lat="42.85666546" lon="74.28382669"><ele>694.0</ele><time>2018-10-07T07:25:54.000Z</time><course>92.2</course><speed>5.1621795</speed><geoidheight>-40.0</geoidheight><src>gps</src><sat>14</sat><hdop>0.7</hdop><vdop>0.6</vdop><pdop>0.9</pdop></trkpt>
<trkpt lat="42.85685362" lon="74.28829075"><ele>701.0</ele><time>2018-10-07T07:26:55.000Z</time><course>77.9</course><speed>7.410168</speed><geoidheight>-40.0</geoidheight><src>gps</src><sat>14</sat><hdop>0.7</hdop><vdop>0.7</vdop><pdop>0.9</pdop></trkpt>
<trkpt lat="42.8570382" lon="74.2931831"><ele>701.0</ele><time>2018-10-07T07:27:56.000Z</time><course>92.8</course><speed>5.9144735</speed><geoidheight>-40.0</geoidheight><src>gps</src><sat>14</sat><hdop>0.7</hdop><vdop>0.7</vdop><pdop>1.0</pdop></trkpt>
<trkpt lat="42.85777579" lon="74.29787519"><ele>711.0</ele><time>2018-10-07T07:28:57.000Z</time><course>84.5</course><speed>6.032454</speed><geoidheight>-40.0</geoidheight><src>gps</src><sat>10</sat><hdop>0.7</hdop><vdop>0.7</vdop><pdop>1.0</pdop></trkpt>
<trkpt lat="42.85813778" lon="74.30230079"><ele>708.0</ele><time>2018-10-07T07:29:58.000Z</time><course>75.6</course><speed>6.9214163</speed><geoidheight>-40.0</geoidheight><src>gps</src><sat>12</sat><hdop>0.7</hdop><vdop>0.7</vdop><pdop>0.9</pdop></trkpt>
<trkpt lat="42.85916798" lon="74.3074226"><ele>700.0</ele><time>2018-10-07T07:31:00.000Z</time><course>65.6</course><speed>8.409518</speed><geoidheight>-40.0</geoidheight><src>gps</src><sat>15</sat><hdop>0.7</hdop><vdop>0.7</vdop><pdop>1.0</pdop></trkpt>
<trkpt lat="42.86143331" lon="74.31302978"><ele>702.0</ele><time>2018-10-07T07:32:01.000Z</time><course>57.3</course><speed>7.5400066</speed><geoidheight>-40.0</geoidheight><src>gps</src><sat>15</sat><hdop>0.7</hdop><vdop>0.6</vdop><pdop>0.9</pdop></trkpt>
<trkpt lat="42.86271856" lon="74.31807768"><ele>692.0</ele><time>2018-10-07T07:33:02.000Z</time><course>73.8</course><speed>7.0000644</speed><geoidheight>-40.0</geoidheight><src>gps</src><sat>14</sat><hdop>0.7</hdop><vdop>0.7</vdop><pdop>1.0</pdop></trkpt>
<trkpt lat="42.86360713" lon="74.32280369"><ele>699.0</ele><time>2018-10-07T07:34:03.000Z</time><course>72.6</course><speed>6.460774</speed><geoidheight>-40.0</geoidheight><src>gps</src><sat>13</sat><hdop>0.7</hdop><vdop>0.6</vdop><pdop>0.9</pdop></trkpt>
<trkpt lat="42.86419849" lon="74.3264208"><ele>702.0</ele><time>2018-10-07T07:35:04.000Z</time><course>81.9</course><speed>6.1355114</speed><geoidheight>-40.0</geoidheight><src>gps</src><sat>12</sat><hdop>0.7</hdop><vdop>0.6</vdop><pdop>0.9</pdop></trkpt>
<trkpt lat="42.86457187" lon="74.33115177"><ele>691.0</ele><time>2018-10-07T07:36:05.000Z</time><course>81.7</course><speed>5.905726</speed><geoidheight>-40.0</geoidheight><src>gps</src><sat>12</sat><hdop>0.7</hdop><vdop>0.6</vdop><pdop>0.9</pdop></trkpt>
<trkpt lat="42.86478757" lon="74.33646837"><ele>696.0</ele><time>2018-10-07T07:37:06.000Z</time><course>92.9</course><speed>7.3330073</speed><geoidheight>-40.0</geoidheight><src>gps</src><sat>11</sat><hdop>0.8</hdop><vdop>0.7</vdop><pdop>1.0</pdop></trkpt>
<trkpt lat="42.86471374" lon="74.34155817"><ele>700.0</ele><time>2018-10-07T07:38:07.000Z</time><course>89.5</course><speed>6.292297</speed><geoidheight>-40.0</geoidheight><src>gps</src><sat>13</sat><hdop>0.7</hdop><vdop>0.7</vdop><pdop>1.0</pdop></trkpt>
<trkpt lat="42.86489365" lon="74.34617717"><ele>706.0</ele><time>2018-10-07T07:39:08.000Z</time><course>76.7</course><speed>6.45</speed><geoidheight>-40.0</geoidheight><src>gps</src><sat>13</sat><hdop>0.7</hdop><vdop>0.7</vdop><pdop>1.0</pdop></trkpt>
<trkpt lat="42.86558325" lon="74.35099176"><ele>697.0</ele><time>2018-10-07T07:40:09.000Z</time><course>81.8</course><speed>6.2200317</speed><geoidheight>-40.0</geoidheight><src>gps</src><sat>13</sat><hdop>0.7</hdop><vdop>0.7</vdop><pdop>1.0</pdop></trkpt>
<trkpt lat="42.86641217" lon="74.35617537"><ele>695.0</ele><time>2018-10-07T07:41:10.000Z</time><course>74.8</course><speed>7.5301065</speed><geoidheight>-40.0</geoidheight><src>gps</src><sat>11</sat><hdop>0.7</hdop><vdop>0.6</vdop><pdop>0.9</pdop></trkpt>
<trkpt lat="42.86755573" lon="74.36104445"><ele>703.0</ele><time>2018-10-07T07:42:11.000Z</time><course>77.9</course><speed>6.65632</speed><geoidheight>-40.0</geoidheight><src>gps</src><sat>11</sat><hdop>0.7</hdop><vdop>0.7</vdop><pdop>1.0</pdop></trkpt>
<trkpt lat="42.86785281" lon="74.36590465"><ele>701.0</ele><time>2018-10-07T07:43:12.000Z</time><course>83.7</course><speed>7.3953023</speed><geoidheight>-40.0</geoidheight><src>gps</src><sat>13</sat><hdop>0.7</hdop><vdop>0.6</vdop><pdop>1.0</pdop></trkpt>
<trkpt lat="42.8685564" lon="74.37029418"><ele>703.0</ele><time>2018-10-07T07:44:13.000Z</time><course>78.5</course><speed>5.5865283</speed><geoidheight>-40.0</geoidheight><src>gps</src><sat>12</sat><hdop>0.7</hdop><vdop>0.7</vdop><pdop>1.0</pdop></trkpt>
<trkpt lat="42.86893971" lon="74.37427182"><ele>705.0</ele><time>2018-10-07T07:45:14.000Z</time><course>108.2</course><speed>3.7026477</speed><geoidheight>-40.0</geoidheight><src>gps</src><sat>9</sat><hdop>0.8</hdop><vdop>0.7</vdop><pdop>1.1</pdop></trkpt>
<trkpt lat="42.86919977" lon="74.37925444"><ele>696.0</ele><time>2018-10-07T07:46:15.000Z</time><course>82.7</course><speed>6.6646905</speed><geoidheight>-40.0</geoidheight><src>gps</src><sat>13</sat><hdop>0.8</hdop><vdop>0.7</vdop><pdop>1.1</pdop></trkpt>
<trkpt lat="42.86960133" lon="74.38409151"><ele>701.0</ele><time>2018-10-07T07:47:16.000Z</time><course>83.3</course><speed>6.17013</speed><geoidheight>-40.0</geoidheight><src>gps</src><sat>8</sat><hdop>0.8</hdop><vdop>0.8</vdop><pdop>1.1</pdop></trkpt>
<trkpt lat="42.86997418" lon="74.38914585"><ele>699.0</ele><time>2018-10-07T07:48:17.000Z</time><course>83.7</course><speed>7.393105</speed><geoidheight>-40.0</geoidheight><src>gps</src><sat>12</sat><hdop>0.8</hdop><vdop>0.8</vdop><pdop>1.1</pdop></trkpt>
<trkpt lat="42.87035089" lon="74.39415224"><ele>694.0</ele><time>2018-10-07T07:49:18.000Z</time><course>82.4</course><speed>5.4917846</speed><geoidheight>-40.0</geoidheight><src>gps</src><sat>11</sat><hdop>0.8</hdop><vdop>0.8</vdop><pdop>1.1</pdop></trkpt>
<trkpt lat="42.87082298" lon="74.39886439"><ele>697.0</ele><time>2018-10-07T07:50:19.000Z</time><course>83.3</course><speed>6.60003</speed><geoidheight>-40.0</geoidheight><src>gps</src><sat>10</sat><hdop>0.8</hdop><vdop>0.8</vdop><pdop>1.1</pdop></trkpt>
<trkpt lat="42.871254" lon="74.40360191"><ele>697.0</ele><time>2018-10-07T07:51:20.000Z</time><course>77.6</course><speed>6.6772747</speed><geoidheight>-40.0</geoidheight><src>gps</src><sat>13</sat><hdop>0.8</hdop><vdop>0.7</vdop><pdop>1.0</pdop></trkpt>
<trkpt lat="42.87165242" lon="74.40830875"><ele>702.0</ele><time>2018-10-07T07:52:21.000Z</time><course>84.7</course><speed>6.297634</speed><geoidheight>-40.0</geoidheight><src>gps</src><sat>11</sat><hdop>0.8</hdop><vdop>0.7</vdop><pdop>1.0</pdop></trkpt>
<trkpt lat="42.87217973" lon="74.4132296"><ele>700.0</ele><time>2018-10-07T07:53:22.000Z</time><course>81.6</course><speed>6.850007</speed><geoidheight>-40.0</geoidheight><src>gps</src><sat>20</sat><hdop>0.8</hdop><vdop>0.7</vdop><pdop>1.0</pdop></trkpt>
<trkpt lat="42.87240831" lon="74.418205"><ele>698.0</ele><time>2018-10-07T07:54:23.000Z</time><course>84.0</course><speed>5.801457</speed><geoidheight>-40.0</geoidheight><src>gps</src><sat>11</sat><hdop>0.7</hdop><vdop>0.6</vdop><pdop>0.9</pdop></trkpt>
<trkpt lat="42.87245384" lon="74.42274182"><ele>697.0</ele><time>2018-10-07T07:55:24.000Z</time><course>85.6</course><speed>6.983251</speed><geoidheight>-40.0</geoidheight><src>gps</src><sat>11</sat><hdop>0.7</hdop><vdop>0.6</vdop><pdop>0.9</pdop></trkpt>
<trkpt lat="42.87240429" lon="74.42775812"><ele>703.0</ele><time>2018-10-07T07:56:25.000Z</time><course>92.2</course><speed>6.101844</speed><geoidheight>-40.0</geoidheight><src>gps</src><sat>13</sat><hdop>0.7</hdop><vdop>0.6</vdop><pdop>0.9</pdop></trkpt>
<trkpt lat="42.87244375" lon="74.43232825"><ele>693.0</ele><time>2018-10-07T07:57:26.000Z</time><course>84.2</course><speed>5.2200093</speed><geoidheight>-40.0</geoidheight><src>gps</src><sat>11</sat><hdop>0.7</hdop><vdop>0.6</vdop><pdop>0.9</pdop></trkpt>
<trkpt lat="42.87236911" lon="74.43610043"><ele>710.0</ele><time>2018-10-07T07:58:27.000Z</time><course>90.1</course><speed>5.314979</speed><geoidheight>-40.0</geoidheight><src>gps</src><sat>13</sat><hdop>0.6</hdop><vdop>0.6</vdop><pdop>0.9</pdop></trkpt>
<trkpt lat="42.87260864" lon="74.44105186"><ele>712.0</ele><time>2018-10-07T07:59:28.000Z</time><course>81.9</course><speed>6.804241</speed><geoidheight>-40.0</geoidheight><src>gps</src><sat>13</sat><hdop>0.6</hdop><vdop>0.6</vdop><pdop>0.9</pdop></trkpt>
<trkpt lat="42.87291376" lon="74.44604853"><ele>712.0</ele><time>2018-10-07T08:00:29.000Z</time><course>76.1</course><speed>6.8195086</speed><geoidheight>-40.0</geoidheight><src>gps</src><sat>10</sat><hdop>0.6</hdop><vdop>0.6</vdop><pdop>0.9</pdop></trkpt>
<trkpt lat="42.87314592" lon="74.45129724"><ele>716.0</ele><time>2018-10-07T08:01:30.000Z</time><course>79.3</course><speed>7.0228486</speed><geoidheight>-40.0</geoidheight><src>gps</src><sat>11</sat><hdop>0.6</hdop><vdop>0.6</vdop><pdop>0.9</pdop></trkpt>
<trkpt lat="42.87337755" lon="74.45586458"><ele>707.0</ele><time>2018-10-07T08:02:31.000Z</time><course>85.6</course><speed>5.3652587</speed><geoidheight>-40.0</geoidheight><src>gps</src><sat>12</sat><hdop>0.6</hdop><vdop>0.6</vdop><pdop>0.9</pdop></trkpt>
<trkpt lat="42.87361805" lon="74.46030259"><ele>707.0</ele><time>2018-10-07T08:03:32.000Z</time><course>93.1</course><speed>5.8697276</speed><geoidheight>-40.0</geoidheight><src>gps</src><sat>14</sat><hdop>0.7</hdop><vdop>0.6</vdop><pdop>0.9</pdop></trkpt>
<trkpt lat="42.87382993" lon="74.4651663"><ele>717.0</ele><time>2018-10-07T08:04:33.000Z</time><course>83.2</course><speed>6.250008</speed><geoidheight>-40.0</geoidheight><src>gps</src><sat>14</sat><hdop>0.6</hdop><vdop>0.6</vdop><pdop>0.9</pdop></trkpt>
<trkpt lat="42.87392272" lon="74.46749501"><ele>718.0</ele><time>2018-10-07T08:05:33.000Z</time><speed>0.0</speed><geoidheight>-40.0</geoidheight><src>gps</src><sat>13</sat><hdop>0.7</hdop><vdop>0.6</vdop><pdop>0.9</pdop></trkpt>
<trkpt lat="42.87389362" lon="74.46751824"><ele>705.0</ele><time>2018-10-07T08:06:34.000Z</time><speed>0.0</speed><geoidheight>-40.0</geoidheight><src>gps</src><sat>12</sat><hdop>0.7</hdop><vdop>0.6</vdop><pdop>0.9</pdop></trkpt>
<trkpt lat="42.87386462" lon="74.46749066"><ele>691.0</ele><time>2018-10-07T08:07:35.000Z</time><speed>0.0</speed><geoidheight>-40.0</geoidheight><src>gps</src><sat>10</sat><hdop>0.7</hdop><vdop>0.6</vdop><pdop>1.0</pdop></trkpt>
<trkpt lat="42.87385858" lon="74.46744736"><ele>704.0</ele><time>2018-10-07T08:08:36.000Z</time><course>331.6</course><speed>0.60008335</speed><geoidheight>-40.0</geoidheight><src>gps</src><sat>13</sat><hdop>0.6</hdop><vdop>0.6</vdop><pdop>0.9</pdop></trkpt>
<trkpt lat="42.87394134" lon="74.46843646"><ele>717.0</ele><time>2018-10-07T08:09:36.000Z</time><course>89.0</course><speed>6.67012</speed><geoidheight>-40.0</geoidheight><src>gps</src><sat>12</sat><hdop>0.6</hdop><vdop>0.6</vdop><pdop>0.9</pdop></trkpt>
<trkpt lat="42.87417986" lon="74.47337225"><ele>708.0</ele><time>2018-10-07T08:10:37.000Z</time><course>88.5</course><speed>5.690079</speed><geoidheight>-40.0</geoidheight><src>gps</src><sat>11</sat><hdop>0.6</hdop><vdop>0.6</vdop><pdop>0.9</pdop></trkpt>
<trkpt lat="42.87443723" lon="74.47798504"><ele>715.0</ele><time>2018-10-07T08:11:38.000Z</time><course>87.8</course><speed>5.8359747</speed><geoidheight>-40.0</geoidheight><src>gps</src><sat>10</sat><hdop>0.7</hdop><vdop>0.6</vdop><pdop>0.9</pdop></trkpt>
<trkpt lat="42.87460844" lon="74.48249726"><ele>709.0</ele><time>2018-10-07T08:12:39.000Z</time><course>88.9</course><speed>5.7334895</speed><geoidheight>-40.0</geoidheight><src>gps</src><sat>13</sat><hdop>0.7</hdop><vdop>0.6</vdop><pdop>0.9</pdop></trkpt>
<trkpt lat="42.8748412" lon="74.48701038"><ele>697.0</ele><time>2018-10-07T08:13:40.000Z</time><course>93.7</course><speed>4.749663</speed><geoidheight>-40.0</geoidheight><src>gps</src><sat>10</sat><hdop>0.7</hdop><vdop>0.6</vdop><pdop>0.9</pdop></trkpt>
<trkpt lat="42.87499856" lon="74.49040354"><ele>695.0</ele><time>2018-10-07T08:14:41.000Z</time><course>86.9</course><speed>4.181507</speed><geoidheight>-40.0</geoidheight><src>gps</src><sat>12</sat><hdop>0.7</hdop><vdop>0.6</vdop><pdop>0.9</pdop></trkpt>
<trkpt lat="42.87525653" lon="74.4954343"><ele>702.0</ele><time>2018-10-07T08:15:42.000Z</time><course>83.0</course><speed>7.4013243</speed><geoidheight>-40.0</geoidheight><src>gps</src><sat>11</sat><hdop>0.7</hdop><vdop>0.6</vdop><pdop>0.9</pdop></trkpt>
<trkpt lat="42.87488859" lon="74.50088041"><ele>684.0</ele><time>2018-10-07T08:16:43.000Z</time><course>107.1</course><speed>6.9200654</speed><geoidheight>-40.0</geoidheight><src>gps</src><sat>14</sat><hdop>0.7</hdop><vdop>0.6</vdop><pdop>0.9</pdop></trkpt>
<trkpt lat="42.87423011" lon="74.50575449"><ele>685.0</ele><time>2018-10-07T08:17:44.000Z</time><course>95.6</course><speed>5.6207204</speed><geoidheight>-40.0</geoidheight><src>gps</src><sat>12</sat><hdop>0.7</hdop><vdop>0.6</vdop><pdop>0.9</pdop></trkpt>
<trkpt lat="42.87411555" lon="74.5084613"><ele>704.0</ele><time>2018-10-07T08:18:45.000Z</time><course>151.5</course><speed>0.26907247</speed><geoidheight>-40.0</geoidheight><src>gps</src><sat>10</sat><hdop>0.7</hdop><vdop>0.6</vdop><pdop>0.9</pdop></trkpt>
<trkpt lat="42.87409313" lon="74.50843929"><ele>706.0</ele><time>2018-10-07T08:19:46.000Z</time><speed>0.0</speed><geoidheight>-40.0</geoidheight><src>gps</src><sat>12</sat><hdop>0.7</hdop><vdop>0.7</vdop><pdop>1.0</pdop></trkpt>
<trkpt lat="42.87405905" lon="74.50845798"><ele>689.0</ele><time>2018-10-07T08:20:47.000Z</time><course>153.8</course><speed>0.41000003</speed><geoidheight>-40.0</geoidheight><src>gps</src><sat>11</sat><hdop>0.6</hdop><vdop>0.6</vdop><pdop>0.9</pdop></trkpt>
<trkpt lat="42.87410211" lon="74.50959487"><ele>712.0</ele><time>2018-10-07T08:21:47.000Z</time><course>92.2</course><speed>5.481104</speed><geoidheight>-40.0</geoidheight><src>gps</src><sat>11</sat><hdop>0.7</hdop><vdop>0.6</vdop><pdop>0.9</pdop></trkpt>
<trkpt lat="42.87390847" lon="74.51438079"><ele>699.0</ele><time>2018-10-07T08:22:48.000Z</time><course>94.6</course><speed>6.1902018</speed><geoidheight>-40.0</geoidheight><src>gps</src><sat>11</sat><hdop>0.7</hdop><vdop>0.7</vdop><pdop>1.0</pdop></trkpt>
<trkpt lat="42.87381257" lon="74.51900321"><ele>692.0</ele><time>2018-10-07T08:23:49.000Z</time><course>90.1</course><speed>6.200032</speed><geoidheight>-40.0</geoidheight><src>gps</src><sat>10</sat><hdop>0.7</hdop><vdop>0.7</vdop><pdop>1.0</pdop></trkpt>
<trkpt lat="42.87413284" lon="74.52390911"><ele>693.0</ele><time>2018-10-07T08:24:50.000Z</time><course>83.9</course><speed>6.500069</speed><geoidheight>-40.0</geoidheight><src>gps</src><sat>16</sat><hdop>0.7</hdop><vdop>0.7</vdop><pdop>0.9</pdop></trkpt>
<trkpt lat="42.87439228" lon="74.52852519"><ele>693.0</ele><time>2018-10-07T08:25:51.000Z</time><course>84.5</course><speed>2.6828718</speed><geoidheight>-40.0</geoidheight><src>gps</src><sat>7</sat><hdop>0.8</hdop><vdop>0.7</vdop><pdop>1.1</pdop></trkpt>
<trkpt lat="42.87464267" lon="74.53134053"><ele>698.0</ele><time>2018-10-07T08:26:52.000Z</time><course>84.5</course><speed>5.9630275</speed><geoidheight>-40.0</geoidheight><src>gps</src><sat>9</sat><hdop>0.7</hdop><vdop>0.7</vdop><pdop>1.0</pdop></trkpt>
<trkpt lat="42.87497356" lon="74.53618709"><ele>701.0</ele><time>2018-10-07T08:27:53.000Z</time><course>88.2</course><speed>5.080797</speed><geoidheight>-40.0</geoidheight><src>gps</src><sat>9</sat><hdop>0.7</hdop><vdop>0.7</vdop><pdop>1.0</pdop></trkpt>
<trkpt lat="42.87519822" lon="74.54016802"><ele>716.0</ele><time>2018-10-07T08:28:54.000Z</time><course>81.1</course><speed>3.6503425</speed><geoidheight>-40.0</geoidheight><src>gps</src><sat>11</sat><hdop>0.7</hdop><vdop>0.7</vdop><pdop>0.9</pdop></trkpt>
<trkpt lat="42.8756036" lon="74.54466766"><ele>721.0</ele><time>2018-10-07T08:29:55.000Z</time><course>77.4</course><speed>6.011198</speed><geoidheight>-40.0</geoidheight><src>gps</src><sat>11</sat><hdop>0.7</hdop><vdop>0.7</vdop><pdop>0.9</pdop></trkpt>
<trkpt lat="42.87622498" lon="74.54953436"><ele>718.0</ele><time>2018-10-07T08:30:56.000Z</time><course>83.3</course><speed>5.191387</speed><geoidheight>-40.0</geoidheight><src>gps</src><sat>11</sat><hdop>0.7</hdop><vdop>0.7</vdop><pdop>1.0</pdop></trkpt>
<trkpt lat="42.87684692" lon="74.554157"><ele>718.0</ele><time>2018-10-07T08:31:57.000Z</time><course>86.6</course><speed>5.3904543</speed><geoidheight>-41.0</geoidheight><src>gps</src><sat>10</sat><hdop>0.7</hdop><vdop>0.7</vdop><pdop>1.0</pdop></trkpt>
<trkpt lat="42.87743009" lon="74.55804718"><ele>699.0</ele><time>2018-10-07T08:32:58.000Z</time><course>87.0</course><speed>6.611936</speed><geoidheight>-41.0</geoidheight><src>gps</src><sat>10</sat><hdop>0.7</hdop><vdop>0.7</vdop><pdop>1.0</pdop></trkpt>
<trkpt lat="42.87784427" lon="74.56115457"><ele>703.0</ele><time>2018-10-07T08:33:59.000Z</time><speed>0.0</speed><geoidheight>-41.0</geoidheight><src>gps</src><sat>11</sat><hdop>0.7</hdop><vdop>0.7</vdop><pdop>1.0</pdop></trkpt>
<trkpt lat="42.87786228" lon="74.56116236"><ele>707.0</ele><time>2018-10-07T08:35:00.000Z</time><course>144.4</course><speed>0.47927028</speed><geoidheight>-41.0</geoidheight><src>gps</src><sat>10</sat><hdop>0.7</hdop><vdop>0.7</vdop><pdop>1.0</pdop></trkpt>
<trkpt lat="42.87777798" lon="74.56116941"><ele>726.0</ele><time>2018-10-07T08:36:01.000Z</time><course>109.5</course><speed>0.6489993</speed><geoidheight>-41.0</geoidheight><src>gps</src><sat>9</sat><hdop>0.7</hdop><vdop>0.7</vdop><pdop>1.0</pdop></trkpt>
<trkpt lat="42.87770191" lon="74.56121147"><ele>728.0</ele><time>2018-10-07T08:37:02.000Z</time><speed>0.0</speed><geoidheight>-41.0</geoidheight><src>gps</src><sat>16</sat><hdop>0.7</hdop><vdop>0.7</vdop><pdop>1.0</pdop></trkpt>
<trkpt lat="42.87777394" lon="74.56116072"><ele>730.0</ele><time>2018-10-07T08:38:03.000Z</time><course>268.9</course><speed>0.29274562</speed><geoidheight>-41.0</geoidheight><src>gps</src><sat>10</sat><hdop>0.7</hdop><vdop>0.7</vdop><pdop>1.0</pdop></trkpt>
<trkpt lat="42.877645" lon="74.5610831"><ele>715.0</ele><time>2018-10-07T08:39:04.000Z</time><speed>0.0</speed><geoidheight>-41.0</geoidheight><src>gps</src><sat>9</sat><hdop>0.8</hdop><vdop>0.7</vdop><pdop>1.1</pdop></trkpt>
<trkpt lat="42.87769351" lon="74.56117673"><ele>713.0</ele><time>2018-10-07T08:40:05.000Z</time><speed>0.0</speed><geoidheight>-41.0</geoidheight><src>gps</src><sat>8</sat><hdop>0.7</hdop><vdop>0.7</vdop><pdop>1.0</pdop></trkpt>
<trkpt lat="42.87773098" lon="74.56114808"><ele>705.0</ele><time>2018-10-07T08:41:06.000Z</time><speed>0.0</speed><geoidheight>-41.0</geoidheight><src>gps</src><sat>9</sat><hdop>0.7</hdop><vdop>0.7</vdop><pdop>1.0</pdop></trkpt>
<trkpt lat="42.87763525" lon="74.56180196"><ele>682.0</ele><time>2018-10-07T08:42:07.000Z</time><course>109.4</course><speed>0.94921017</speed><geoidheight>-41.0</geoidheight><src>gps</src><sat>9</sat><hdop>0.7</hdop><vdop>0.7</vdop><pdop>1.0</pdop></trkpt>
<trkpt lat="42.87761815" lon="74.56459206"><ele>688.0</ele><time>2018-10-07T08:43:08.000Z</time><course>99.1</course><speed>4.9100914</speed><geoidheight>-41.0</geoidheight><src>gps</src><sat>7</sat><hdop>0.7</hdop><vdop>0.7</vdop><pdop>1.0</pdop></trkpt>
<trkpt lat="42.87745434" lon="74.56635996"><ele>696.0</ele><time>2018-10-07T08:44:09.000Z</time><speed>0.0</speed><geoidheight>-41.0</geoidheight><src>gps</src><sat>11</sat><hdop>0.8</hdop><vdop>0.7</vdop><pdop>1.1</pdop></trkpt>
<trkpt lat="42.8774153" lon="74.56744171"><ele>703.0</ele><time>2018-10-07T08:45:10.000Z</time><course>97.6</course><speed>4.1203036</speed><geoidheight>-41.0</geoidheight><src>gps</src><sat>10</sat><hdop>0.7</hdop><vdop>0.7</vdop><pdop>1.0</pdop></trkpt>
<trkpt lat="42.87724202" lon="74.57016541"><ele>729.0</ele><time>2018-10-07T08:46:11.000Z</time><course>92.0</course><speed>2.99376</speed><geoidheight>-41.0</geoidheight><src>gps</src><sat>18</sat><hdop>0.7</hdop><vdop>0.7</vdop><pdop>1.0</pdop></trkpt>
<trkpt lat="42.87699623" lon="74.57400279"><ele>714.0</ele><time>2018-10-07T08:47:12.000Z</time><course>93.9</course><speed>4.750263</speed><geoidheight>-41.0</geoidheight><src>gps</src><sat>16</sat><hdop>0.6</hdop><vdop>0.7</vdop><pdop>0.9</pdop></trkpt>
<trkpt lat="42.87702198" lon="74.57642107"><ele>700.0</ele><time>2018-10-07T08:48:12.000Z</time><course>97.5</course><speed>5.1618986</speed><geoidheight>-41.0</geoidheight><src>gps</src><sat>11</sat><hdop>0.7</hdop><vdop>0.7</vdop><pdop>1.0</pdop></trkpt>
<trkpt lat="42.8768036" lon="74.58030091"><ele>696.0</ele><time>2018-10-07T08:49:13.000Z</time><course>91.3</course><speed>3.7600532</speed><geoidheight>-41.0</geoidheight><src>gps</src><sat>9</sat><hdop>0.7</hdop><vdop>0.8</vdop><pdop>1.1</pdop></trkpt>
<trkpt lat="42.8765502" lon="74.5836839"><ele>693.0</ele><time>2018-10-07T08:50:14.000Z</time><course>106.4</course><speed>5.2949977</speed><geoidheight>-41.0</geoidheight><src>gps</src><sat>9</sat><hdop>0.8</hdop><vdop>0.8</vdop><pdop>1.1</pdop></trkpt>
<trkpt lat="42.87636858" lon="74.58712812"><ele>709.0</ele><time>2018-10-07T08:51:15.000Z</time><course>100.1</course><speed>4.5101</speed><geoidheight>-41.0</geoidheight><src>gps</src><sat>16</sat><hdop>0.6</hdop><vdop>0.7</vdop><pdop>0.9</pdop></trkpt>
<trkpt lat="42.87506077" lon="74.58814318"><ele>722.0</ele><time>2018-10-07T08:52:15.000Z</time><course>184.6</course><speed>4.168117</speed><geoidheight>-41.0</geoidheight><src>gps</src><sat>10</sat><hdop>0.7</hdop><vdop>0.7</vdop><pdop>1.0</pdop></trkpt>
<trkpt lat="42.87292379" lon="74.5878363"><ele>722.0</ele><time>2018-10-07T08:53:16.000Z</time><course>254.9</course><speed>0.70576197</speed><geoidheight>-41.0</geoidheight><src>gps</src><sat>10</sat><hdop>0.7</hdop><vdop>0.7</vdop><pdop>1.0</pdop></trkpt>
<trkpt lat="42.87295723" lon="74.58766863"><ele>736.0</ele><time>2018-10-07T08:54:17.000Z</time><course>354.7</course><speed>0.8005623</speed><geoidheight>-41.0</geoidheight><src>gps</src><sat>16</sat><hdop>0.7</hdop><vdop>0.7</vdop><pdop>1.0</pdop></trkpt>
<trkpt lat="42.87291105" lon="74.5877155"><ele>735.0</ele><time>2018-10-07T08:55:18.000Z</time><speed>0.0</speed><geoidheight>-41.0</geoidheight><src>gps</src><sat>16</sat><hdop>0.7</hdop><vdop>0.7</vdop><pdop>1.0</pdop></trkpt>
<trkpt lat="42.87303703" lon="74.58771966"><ele>727.0</ele><time>2018-10-07T08:56:18.000Z</time><course>288.1</course><speed>0.8417244</speed><geoidheight>-41.0</geoidheight><src>gps</src><sat>16</sat><hdop>0.7</hdop><vdop>0.7</vdop><pdop>1.0</pdop></trkpt>
<trkpt lat="42.87311649" lon="74.58739937"><ele>723.0</ele><time>2018-10-07T08:57:19.000Z</time><speed>0.0</speed><geoidheight>-41.0</geoidheight><src>gps</src><sat>16</sat><hdop>0.7</hdop><vdop>0.8</vdop><pdop>1.0</pdop></trkpt>
<trkpt lat="42.87300407" lon="74.58726639"><ele>734.0</ele><time>2018-10-07T08:58:20.000Z</time><speed>0.0</speed><geoidheight>-41.0</geoidheight><src>gps</src><sat>14</sat><hdop>1.4</hdop><vdop>0.9</vdop><pdop>1.7</pdop></trkpt>
<trkpt lat="42.87295559" lon="74.58733001"><ele>722.0</ele><time>2018-10-07T08:59:21.000Z</time><speed>0.0</speed><geoidheight>-41.0</geoidheight><src>gps</src><sat>16</sat><hdop>0.7</hdop><vdop>0.8</vdop><pdop>1.0</pdop></trkpt>
</trkseg></trk></gpx>