<?xml version="1.0" encoding="UTF-8" ?><gpx version="1.0" creator="GPSLogger 96 - http://gpslogger.mendhak.com/" xmlns:xsi="http://www.w3.org/2001/XMLSchema-instance" xmlns="http://www.topografix.com/GPX/1/0" xsi:schemaLocation="http://www.topografix.com/GPX/1/0 http://www.topografix.com/GPX/1/0/gpx.xsd"><time>2018-10-03T03:22:13.855Z</time><trk><trkseg><trkpt lat="42.31768672" lon="69.5863391"><ele>540.0</ele><time>2018-10-03T03:22:13.855Z</time><course>217.8</course><speed>1.1768603</speed><src>gps</src><sat>5</sat></trkpt>
<trkpt lat="42.31770428" lon="69.58622582"><ele>515.0</ele><time>2018-10-03T03:23:14.000Z</time><speed>0.0</speed><geoidheight>-36.0</geoidheight><src>gps</src><sat>7</sat><hdop>0.9</hdop><vdop>0.8</vdop><pdop>1.2</pdop></trkpt>
<trkpt lat="42.31769375" lon="69.58621745"><ele>511.0</ele><time>2018-10-03T03:24:15.000Z</time><speed>0.0</speed><geoidheight>-36.0</geoidheight><src>gps</src><sat>8</sat><hdop>0.8</hdop><vdop>0.7</vdop><pdop>1.1</pdop></trkpt>
<trkpt lat="42.31763917" lon="69.58609764"><ele>492.0</ele><time>2018-10-03T03:25:16.000Z</time><course>163.6</course><speed>0.9264988</speed><geoidheight>-36.0</geoidheight><src>gps</src><sat>6</sat><hdop>1.0</hdop><vdop>0.8</vdop><pdop>1.2</pdop></trkpt>
<trkpt lat="42.31762866" lon="69.58627753"><ele>467.0</ele><time>2018-10-03T03:26:17.000Z</time><course>270.0</course><speed>0.559017</speed><geoidheight>-36.0</geoidheight><src>gps</src><sat>5</sat><hdop>1.0</hdop><vdop>0.8</vdop><pdop>1.3</pdop></trkpt>
<trkpt lat="42.31771793" lon="69.58629538"><ele>460.0</ele><time>2018-10-03T03:27:18.000Z</time><course>221.2</course><speed>0.8190848</speed><geoidheight>-36.0</geoidheight><src>gps</src><sat>7</sat><hdop>1.0</hdop><vdop>0.7</vdop><pdop>1.2</pdop></trkpt>
<trkpt lat="42.31776816" lon="69.58630962"><ele>484.0</ele><time>2018-10-03T03:28:19.000Z</time><course>44.8</course><speed>0.98</speed><geoidheight>-36.0</geoidheight><src>gps</src><sat>6</sat><hdop>1.2</hdop><vdop>0.8</vdop><pdop>1.4</pdop></trkpt>
<trkpt lat="42.31777628" lon="69.58610593"><ele>484.0</ele><time>2018-10-03T03:29:20.000Z</time><course>358.9</course><speed>1.1792371</speed><geoidheight>-36.0</geoidheight><src>gps</src><sat>5</sat><hdop>1.2</hdop><vdop>0.8</vdop><pdop>1.4</pdop></trkpt>
<trkpt lat="42.31841589" lon="69.58767648"><ele>482.0</ele><time>2018-10-03T03:30:21.000Z</time><course>70.0</course><speed>3.941269</speed><geoidheight>-36.0</geoidheight><src>gps</src><sat>7</sat><hdop>0.7</hdop><vdop>0.7</vdop><pdop>1.0</pdop></trkpt>
<trkpt lat="42.31858288" lon="69.58852283"><ele>478.0</ele><time>2018-10-03T03:31:22.000Z</time><speed>0.0</speed><geoidheight>-36.0</geoidheight><src>gps</src><sat>9</sat><hdop>0.7</hdop><vdop>0.7</vdop><pdop>1.0</pdop></trkpt>
<trkpt lat="42.31860716" lon="69.58853358"><ele>485.0</ele><time>2018-10-03T03:32:23.000Z</time><speed>0.0</speed><geoidheight>-36.0</geoidheight><src>gps</src><sat>10</sat><hdop>0.7</hdop><vdop>0.7</vdop><pdop>1.0</pdop></trkpt>
<trkpt lat="42.31863602" lon="69.58850222"><ele>475.0</ele><time>2018-10-03T03:33:23.000Z</time><speed>0.0</speed><geoidheight>-36.0</geoidheight><src>gps</src><sat>7</sat><hdop>0.8</hdop><vdop>0.7</vdop><pdop>1.1</pdop></trkpt>
<trkpt lat="42.31858211" lon="69.5884514"><ele>471.0</ele><time>2018-10-03T03:34:24.000Z</time><speed>0.0</speed><geoidheight>-36.0</geoidheight><src>gps</src><sat>7</sat><hdop>0.8</hdop><vdop>0.7</vdop><pdop>1.1</pdop></trkpt>
<trkpt lat="42.31824688" lon="69.58874002"><ele>476.0</ele><time>2018-10-03T03:35:25.000Z</time><course>150.3</course><speed>2.8537867</speed><geoidheight>-36.0</geoidheight><src>gps</src><sat>7</sat><hdop>0.7</hdop><vdop>0.7</vdop><pdop>1.0</pdop></trkpt>
<trkpt lat="42.31658158" lon="69.59127904"><ele>473.0</ele><time>2018-10-03T03:36:26.000Z</time><course>107.4</course><speed>6.0574913</speed><geoidheight>-36.0</geoidheight><src>gps</src><sat>8</sat><hdop>0.8</hdop><vdop>0.7</vdop><pdop>1.0</pdop></trkpt>
<trkpt lat="42.31816393" lon="69.59282912"><ele>512.0</ele><time>2018-10-03T03:37:27.000Z</time><course>14.0</course><speed>3.1555824</speed><geoidheight>-36.0</geoidheight><src>gps</src><sat>6</sat><hdop>0.7</hdop><vdop>0.8</vdop><pdop>1.0</pdop></trkpt>
<trkpt lat="42.32030739" lon="69.59340957"><ele>512.0</ele><time>2018-10-03T03:38:28.000Z</time><course>19.2</course><speed>3.5003572</speed><geoidheight>-36.0</geoidheight><src>gps</src><sat>10</sat><hdop>0.9</hdop><vdop>0.8</vdop><pdop>1.2</pdop></trkpt>
<trkpt lat="42.32172982" lon="69.59402758"><ele>492.0</ele><time>2018-10-03T03:39:29.000Z</time><speed>0.0</speed><geoidheight>-36.0</geoidheight><src>gps</src><sat>8</sat><hdop>0.7</hdop><vdop>0.7</vdop><pdop>1.0</pdop></trkpt>
<trkpt lat="42.32353942" lon="69.59486306"><ele>495.0</ele><time>2018-10-03T03:40:30.000Z</time><course>20.3</course><speed>4.4704022</speed><geoidheight>-36.0</geoidheight><src>gps</src><sat>7</sat><hdop>0.8</hdop><vdop>0.8</vdop><pdop>1.1</pdop></trkpt>
<trkpt lat="42.32458355" lon="69.59557978"><ele>493.0</ele><time>2018-10-03T03:41:31.000Z</time><course>82.5</course><speed>3.752466</speed><geoidheight>-36.0</geoidheight><src>gps</src><sat>8</sat><hdop>0.7</hdop><vdop>0.7</vdop><pdop>1.0</pdop></trkpt>
<trkpt lat="42.32384552" lon="69.59862612"><ele>492.0</ele><time>2018-10-03T03:42:32.000Z</time><course>91.6</course><speed>1.6983815</speed><geoidheight>-36.0</geoidheight><src>gps</src><sat>8</sat><hdop>0.7</hdop><vdop>0.7</vdop><pdop>1.0</pdop></trkpt>
<trkpt lat="42.32516849" lon="69.59967228"><ele>510.0</ele><time>2018-10-03T03:43:33.000Z</time><course>18.4</course><speed>3.08099</speed><geoidheight>-36.0</geoidheight><src>gps</src><sat>7</sat><hdop>0.7</hdop><vdop>0.7</vdop><pdop>1.0</pdop></trkpt>
<trkpt lat="42.32741286" lon="69.6006027"><ele>511.0</ele><time>2018-10-03T03:44:34.000Z</time><course>18.4</course><speed>5.1064863</speed><geoidheight>-36.0</geoidheight><src>gps</src><sat>7</sat><hdop>0.7</hdop><vdop>0.7</vdop><pdop>1.0</pdop></trkpt>
<trkpt lat="42.32980229" lon="69.60171653"><ele>517.0</ele><time>2018-10-03T03:45:35.000Z</time><course>30.4</course><speed>3.79</speed><geoidheight>-36.0</geoidheight><src>gps</src><sat>10</sat><hdop>0.7</hdop><vdop>0.7</vdop><pdop>1.0</pdop></trkpt>
<trkpt lat="42.33211542" lon="69.60262449"><ele>516.0</ele><time>2018-10-03T03:46:36.000Z</time><course>17.0</course><speed>4.694603</speed><geoidheight>-36.0</geoidheight><src>gps</src><sat>7</sat><hdop>0.7</hdop><vdop>0.7</vdop><pdop>1.0</pdop></trkpt>
<trkpt lat="42.33434635" lon="69.60351621"><ele>532.0</ele><time>2018-10-03T03:47:37.000Z</time><course>350.8</course><speed>2.4460785</speed><geoidheight>-36.0</geoidheight><src>gps</src><sat>8</sat><hdop>0.7</hdop><vdop>0.7</vdop><pdop>1.0</pdop></trkpt>
<trkpt lat="42.3370526" lon="69.60514068"><ele>524.0</ele><time>2018-10-03T03:48:38.000Z</time><course>33.9</course><speed>6.2587056</speed><geoidheight>-36.0</geoidheight><src>gps</src><sat>7</sat><hdop>0.8</hdop><vdop>0.7</vdop><pdop>1.1</pdop></trkpt>
<trkpt lat="42.33988635" lon="69.60649023"><ele>521.0</ele><time>2018-10-03T03:49:39.000Z</time><course>20.9</course><speed>4.772054</speed><geoidheight>-36.0</geoidheight><src>gps</src><sat>7</sat><hdop>0.7</hdop><vdop>0.7</vdop><pdop>1.0</pdop></trkpt>
<trkpt lat="42.34217095" lon="69.60744691"><ele>545.0</ele><time>2018-10-03T03:50:40.000Z</time><course>17.5</course><speed>4.0315013</speed><geoidheight>-36.0</geoidheight><src>gps</src><sat>8</sat><hdop>0.7</hdop><vdop>0.7</vdop><pdop>1.0</pdop></trkpt>
<trkpt lat="42.3441755" lon="69.60831804"><ele>551.0</ele><time>2018-10-03T03:51:40.000Z</time><course>20.6</course><speed>3.5723662</speed><geoidheight>-36.0</geoidheight><src>gps</src><sat>8</sat><hdop>0.8</hdop><vdop>0.7</vdop><pdop>1.1</pdop></trkpt>
<trkpt lat="42.34527254" lon="69.61039145"><ele>538.0</ele><time>2018-10-03T03:52:41.000Z</time><course>99.8</course><speed>4.2107005</speed><geoidheight>-36.0</geoidheight><src>gps</src><sat>9</sat><hdop>0.8</hdop><vdop>0.8</vdop><pdop>1.1</pdop></trkpt>
<trkpt lat="42.34460047" lon="69.61419823"><ele>527.0</ele><time>2018-10-03T03:53:42.000Z</time><course>111.8</course><speed>3.8932893</speed><geoidheight>-36.0</geoidheight><src>gps</src><sat>7</sat><hdop>0.8</hdop><vdop>0.8</vdop><pdop>1.1</pdop></trkpt>
<trkpt lat="42.34389948" lon="69.61704549"><ele>535.0</ele><time>2018-10-03T03:54:43.000Z</time><course>101.9</course><speed>5.841036</speed><geoidheight>-36.0</geoidheight><src>gps</src><sat>9</sat><hdop>0.7</hdop><vdop>0.7</vdop><pdop>1.0</pdop></trkpt>
<trkpt lat="42.34274741" lon="69.62200381"><ele>526.0</ele><time>2018-10-03T03:55:44.000Z</time><course>106.8</course><speed>5.854921</speed><geoidheight>-36.0</geoidheight><src>gps</src><sat>6</sat><hdop>0.7</hdop><vdop>0.8</vdop><pdop>1.0</pdop></trkpt>
<trkpt lat="42.34194019" lon="69.62552776"><ele>530.0</ele><time>2018-10-03T03:56:45.000Z</time><course>104.9</course><speed>5.3780293</speed><geoidheight>-36.0</geoidheight><src>gps</src><sat>9</sat><hdop>0.7</hdop><vdop>0.7</vdop><pdop>1.0</pdop></trkpt>
<trkpt lat="42.34099229" lon="69.62957152"><ele>526.0</ele><time>2018-10-03T03:57:46.000Z</time><course>119.6</course><speed>3.2389042</speed><geoidheight>-36.0</geoidheight><src>gps</src><sat>8</sat><hdop>0.7</hdop><vdop>0.7</vdop><pdop>1.0</pdop></trkpt>
<trkpt lat="42.34033157" lon="69.63221201"><ele>534.0</ele><time>2018-10-03T03:58:47.000Z</time><course>102.4</course><speed>3.2960734</speed><geoidheight>-36.0</geoidheight><src>gps</src><sat>7</sat><hdop>0.7</hdop><vdop>0.7</vdop><pdop>1.0</pdop></trkpt>
<trkpt lat="42.33977187" lon="69.63466061"><ele>538.0</ele><time>2018-10-03T03:59:48.000Z</time><course>100.4</course><speed>4.24</speed><geoidheight>-36.0</geoidheight><src>gps</src><sat>7</sat><hdop>0.7</hdop><vdop>0.7</vdop><pdop>1.0</pdop></trkpt>
<trkpt lat="42.33915053" lon="69.63723134"><ele>540.0</ele><time>2018-10-03T04:00:49.000Z</time><speed>0.0</speed><geoidheight>-36.0</geoidheight><src>gps</src><sat>11</sat><hdop>0.7</hdop><vdop>0.7</vdop><pdop>1.0</pdop></trkpt>
<trkpt lat="42.33833331" lon="69.64037692"><ele>539.0</ele><time>2018-10-03T04:01:50.000Z</time><course>133.3</course><speed>4.335089</speed><geoidheight>-36.0</geoidheight><src>gps</src><sat>11</sat><hdop>0.8</hdop><vdop>0.7</vdop><pdop>1.0</pdop></trkpt>
<trkpt lat="42.33513442" lon="69.64225116"><ele>547.0</ele><time>2018-10-03T04:02:51.000Z</time><course>161.3</course><speed>7.9414167</speed><geoidheight>-36.0</geoidheight><src>gps</src><sat>11</sat><hdop>0.7</hdop><vdop>0.7</vdop><pdop>0.9</pdop></trkpt>
<trkpt lat="42.33265066" lon="69.64371535"><ele>533.0</ele><time>2018-10-03T04:03:52.000Z</time><course>158.6</course><speed>0.76791924</speed><geoidheight>-36.0</geoidheight><src>gps</src><sat>8</sat><hdop>0.7</hdop><vdop>0.7</vdop><pdop>1.0</pdop></trkpt>
<trkpt lat="42.3327555" lon="69.64496555"><ele>528.0</ele><time>2018-10-03T04:04:53.000Z</time><course>67.7</course><speed>4.2748218</speed><geoidheight>-36.0</geoidheight><src>gps</src><sat>9</sat><hdop>0.7</hdop><vdop>0.7</vdop><pdop>1.0</pdop></trkpt>
<trkpt lat="42.33360476" lon="69.64794705"><ele>529.0</ele><time>2018-10-03T04:05:56.000Z</time><course>68.5</course><speed>4.060049</speed><geoidheight>-36.0</geoidheight><src>gps</src><sat>9</sat><hdop>0.6</hdop><vdop>0.7</vdop><pdop>0.9</pdop></trkpt>
<trkpt lat="42.33424145" lon="69.65012403"><ele>532.0</ele><time>2018-10-03T04:06:57.000Z</time><course>72.2</course><speed>3.2581284</speed><geoidheight>-36.0</geoidheight><src>gps</src><sat>9</sat><hdop>0.6</hdop><vdop>0.7</vdop><pdop>0.9</pdop></trkpt>
<trkpt lat="42.33489691" lon="69.65255827"><ele>539.0</ele><time>2018-10-03T04:07:58.000Z</time><course>69.9</course><speed>3.8002105</speed><geoidheight>-36.0</geoidheight><src>gps</src><sat>11</sat><hdop>0.7</hdop><vdop>0.7</vdop><pdop>0.9</pdop></trkpt>
<trkpt lat="42.3356748" lon="69.65503394"><ele>545.0</ele><time>2018-10-03T04:08:59.000Z</time><course>66.2</course><speed>3.373796</speed><geoidheight>-36.0</geoidheight><src>gps</src><sat>11</sat><hdop>0.7</hdop><vdop>0.7</vdop><pdop>0.9</pdop></trkpt>
<trkpt lat="42.3364689" lon="69.657544"><ele>551.0</ele><time>2018-10-03T04:10:00.000Z</time><course>61.6</course><speed>4.750042</speed><geoidheight>-36.0</geoidheight><src>gps</src><sat>11</sat><hdop>0.7</hdop><vdop>0.7</vdop><pdop>0.9</pdop></trkpt>
<trkpt lat="42.33774897" lon="69.66104704"><ele>540.0</ele><time>2018-10-03T04:11:01.000Z</time><course>68.5</course><speed>5.330938</speed><geoidheight>-36.0</geoidheight><src>gps</src><sat>8</sat><hdop>0.6</hdop><vdop>0.7</vdop><pdop>0.9</pdop></trkpt>
<trkpt lat="42.33888202" lon="69.66472948"><ele>535.0</ele><time>2018-10-03T04:12:02.000Z</time><course>64.2</course><speed>6.4328065</speed><geoidheight>-36.0</geoidheight><src>gps</src><sat>10</sat><hdop>0.7</hdop><vdop>0.7</vdop><pdop>0.9</pdop></trkpt>
<trkpt lat="42.34025873" lon="69.6685725"><ele>530.0</ele><time>2018-10-03T04:13:03.000Z</time><course>60.9</course><speed>3.167649</speed><geoidheight>-36.0</geoidheight><src>gps</src><sat>7</sat><hdop>0.7</hdop><vdop>0.7</vdop><pdop>1.0</pdop></trkpt>
<trkpt lat="42.34095101" lon="69.67051289"><ele>537.0</ele><time>2018-10-03T04:14:04.000Z</time><course>70.2</course><speed>2.852122</speed><geoidheight>-36.0</geoidheight><src>gps</src><sat>7</sat><hdop>0.7</hdop><vdop>0.7</vdop><pdop>1.0</pdop></trkpt>
<trkpt lat="42.34176762" lon="69.67287615"><ele>542.0</ele><time>2018-10-03T04:15:05.000Z</time><course>61.9</course><speed>3.3229504</speed><geoidheight>-36.0</geoidheight><src>gps</src><sat>8</sat><hdop>0.7</hdop><vdop>0.7</vdop><pdop>1.0</pdop></trkpt>
<trkpt lat="42.34259385" lon="69.67529895"><ele>551.0</ele><time>2018-10-03T04:16:05.000Z</time><course>63.2</course><speed>3.5902228</speed><geoidheight>-36.0</geoidheight><src>gps</src><sat>9</sat><hdop>0.8</hdop><vdop>0.8</vdop><pdop>1.1</pdop></trkpt>
<trkpt lat="42.34344744" lon="69.67790555"><ele>551.0</ele><time>2018-10-03T04:17:06.000Z</time><course>64.4</course><speed>3.703458</speed><geoidheight>-36.0</geoidheight><src>gps</src><sat>7</sat><hdop>0.8</hdop><vdop>0.8</vdop><pdop>1.1</pdop></trkpt>
<trkpt lat="42.34447507" lon="69.68104104"><ele>549.0</ele><time>2018-10-03T04:18:07.000Z</time><course>64.8</course><speed>4.240118</speed><geoidheight>-36.0</geoidheight><src>gps</src><sat>8</sat><hdop>0.8</hdop><vdop>0.8</vdop><pdop>1.1</pdop></trkpt>
<trkpt lat="42.34554565" lon="69.68402192"><ele>546.0</ele><time>2018-10-03T04:19:08.000Z</time><course>64.9</course><speed>3.490573</speed><geoidheight>-36.0</geoidheight><src>gps</src><sat>8</sat><hdop>0.8</hdop><vdop>0.8</vdop><pdop>1.1</pdop></trkpt>
<trkpt lat="42.34659468" lon="69.68706889"><ele>547.0</ele><time>2018-10-03T04:20:09.000Z</time><course>64.5</course><speed>4.228345</speed><geoidheight>-36.0</geoidheight><src>gps</src><sat>8</sat><hdop>0.8</hdop><vdop>0.8</vdop><pdop>1.1</pdop></trkpt>
<trkpt lat="42.34782559" lon="69.69055288"><ele>547.0</ele><time>2018-10-03T04:21:10.000Z</time><course>67.1</course><speed>5.1487474</speed><geoidheight>-36.0</geoidheight><src>gps</src><sat>9</sat><hdop>0.7</hdop><vdop>0.7</vdop><pdop>1.0</pdop></trkpt>
<trkpt lat="42.34890005" lon="69.69358194"><ele>539.0</ele><time>2018-10-03T04:22:11.000Z</time><course>66.9</course><speed>4.741276</speed><geoidheight>-36.0</geoidheight><src>gps</src><sat>9</sat><hdop>0.7</hdop><vdop>0.7</vdop><pdop>1.0</pdop></trkpt>
<trkpt lat="42.34993284" lon="69.6965857"><ele>538.0</ele><time>2018-10-03T04:23:12.000Z</time><course>60.3</course><speed>3.0108635</speed><geoidheight>-36.0</geoidheight><src>gps</src><sat>8</sat><hdop>0.8</hdop><vdop>0.8</vdop><pdop>1.1</pdop></trkpt>
<trkpt lat="42.35073533" lon="69.69872024"><ele>533.0</ele><time>2018-10-03T04:24:13.000Z</time><course>68.6</course><speed>2.7802877</speed><geoidheight>-36.0</geoidheight><src>gps</src><sat>9</sat><hdop>0.8</hdop><vdop>0.8</vdop><pdop>1.1</pdop></trkpt>
<trkpt lat="42.35130338" lon="69.70055375"><ele>550.0</ele><time>2018-10-03T04:25:13.000Z</time><course>67.0</course><speed>2.8721073</speed><geoidheight>-36.0</geoidheight><src>gps</src><sat>8</sat><hdop>0.8</hdop><vdop>0.8</vdop><pdop>1.1</pdop></trkpt>
<trkpt lat="42.35194964" lon="69.70278462"><ele>555.0</ele><time>2018-10-03T04:26:14.000Z</time><course>66.1</course><speed>3.82953</speed><geoidheight>-36.0</geoidheight><src>gps</src><sat>10</sat><hdop>0.9</hdop><vdop>0.8</vdop><pdop>1.2</pdop></trkpt>
<trkpt lat="42.35288106" lon="69.7057164"><ele>554.0</ele><time>2018-10-03T04:27:15.000Z</time><course>68.1</course><speed>3.9603157</speed><geoidheight>-36.0</geoidheight><src>gps</src><sat>10</sat><hdop>0.9</hdop><vdop>0.8</vdop><pdop>1.2</pdop></trkpt>
<trkpt lat="42.35378082" lon="69.70858005"><ele>548.0</ele><time>2018-10-03T04:28:16.000Z</time><course>67.1</course><speed>4.62053</speed><geoidheight>-36.0</geoidheight><src>gps</src><sat>9</sat><hdop>0.8</hdop><vdop>0.8</vdop><pdop>1.1</pdop></trkpt>
<trkpt lat="42.3546751" lon="69.7113285"><ele>557.0</ele><time>2018-10-03T04:29:17.000Z</time><course>64.4</course><speed>3.4311805</speed><geoidheight>-36.0</geoidheight><src>gps</src><sat>10</sat><hdop>0.9</hdop><vdop>0.8</vdop><pdop>1.2</pdop></trkpt>
<trkpt lat="42.35558506" lon="69.7142417"><ele>554.0</ele><time>2018-10-03T04:30:18.000Z</time><course>67.5</course><speed>4.1501083</speed><geoidheight>-36.0</geoidheight><src>gps</src><sat>10</sat><hdop>0.8</hdop><vdop>0.8</vdop><pdop>1.1</pdop></trkpt>
<trkpt lat="42.3566299" lon="69.71704405"><ele>553.0</ele><time>2018-10-03T04:31:19.000Z</time><course>63.5</course><speed>3.9336753</speed><geoidheight>-36.0</geoidheight><src>gps</src><sat>10</sat><hdop>0.7</hdop><vdop>0.7</vdop><pdop>1.0</pdop></trkpt>
<trkpt lat="42.3575005" lon="69.71980952"><ele>559.0</ele><time>2018-10-03T04:32:20.000Z</time><course>69.2</course><speed>4.2434063</speed><geoidheight>-36.0</geoidheight><src>gps</src><sat>14</sat><hdop>0.8</hdop><vdop>0.8</vdop><pdop>1.1</pdop></trkpt>
<trkpt lat="42.35828032" lon="69.72263865"><ele>552.0</ele><time>2018-10-03T04:33:21.000Z</time><course>66.5</course><speed>4.544403</speed><geoidheight>-36.0</geoidheight><src>gps</src><sat>15</sat><hdop>0.7</hdop><vdop>0.7</vdop><pdop>1.0</pdop></trkpt>
<trkpt lat="42.35925961" lon="69.72538416"><ele>554.0</ele><time>2018-10-03T04:34:22.000Z</time><course>60.5</course><speed>3.9932568</speed><geoidheight>-36.0</geoidheight><src>gps</src><sat>11</sat><hdop>0.7</hdop><vdop>0.7</vdop><pdop>1.0</pdop></trkpt>
<trkpt lat="42.36025081" lon="69.72765147"><ele>549.0</ele><time>2018-10-03T04:35:22.000Z</time><course>61.2</course><speed>2.804015</speed><geoidheight>-36.0</geoidheight><src>gps</src><sat>9</sat><hdop>0.7</hdop><vdop>0.7</vdop><pdop>1.0</pdop></trkpt>
<trkpt lat="42.36128417" lon="69.72982779"><ele>550.0</ele><time>2018-10-03T04:36:23.000Z</time><course>58.3</course><speed>3.5627515</speed><geoidheight>-36.0</geoidheight><src>gps</src><sat>10</sat><hdop>0.7</hdop><vdop>0.7</vdop><pdop>1.0</pdop></trkpt>
<trkpt lat="42.36240567" lon="69.73220076"><ele>552.0</ele><time>2018-10-03T04:37:24.000Z</time><course>58.3</course><speed>3.4476805</speed><geoidheight>-36.0</geoidheight><src>gps</src><sat>13</sat><hdop>0.7</hdop><vdop>0.7</vdop><pdop>1.0</pdop></trkpt>
<trkpt lat="42.36346901" lon="69.73440712"><ele>550.0</ele><time>2018-10-03T04:38:25.000Z</time><course>57.6</course><speed>3.7213438</speed><geoidheight>-36.0</geoidheight><src>gps</src><sat>14</sat><hdop>0.7</hdop><vdop>0.7</vdop><pdop>1.0</pdop></trkpt>
<trkpt lat="42.36462165" lon="69.73675775"><ele>550.0</ele><time>2018-10-03T04:39:26.000Z</time><course>55.0</course><speed>3.5650666</speed><geoidheight>-36.0</geoidheight><src>gps</src><sat>15</sat><hdop>0.7</hdop><vdop>0.7</vdop><pdop>1.0</pdop></trkpt>
<trkpt lat="42.36575337" lon="69.7389318"><ele>552.0</ele><time>2018-10-03T04:40:27.000Z</time><course>57.1</course><speed>3.33006</speed><geoidheight>-36.0</geoidheight><src>gps</src><sat>10</sat><hdop>0.7</hdop><vdop>0.8</vdop><pdop>1.1</pdop></trkpt>
<trkpt lat="42.36660426" lon="69.74070177"><ele>557.0</ele><time>2018-10-03T04:41:28.000Z</time><course>63.0</course><speed>2.4649746</speed><geoidheight>-36.0</geoidheight><src>gps</src><sat>11</sat><hdop>0.7</hdop><vdop>0.7</vdop><pdop>1.0</pdop></trkpt>
<trkpt lat="42.36739802" lon="69.74245624"><ele>561.0</ele><time>2018-10-03T04:42:29.000Z</time><course>59.2</course><speed>2.692248</speed><geoidheight>-36.0</geoidheight><src>gps</src><sat>10</sat><hdop>0.7</hdop><vdop>0.7</vdop><pdop>1.0</pdop></trkpt>
<trkpt lat="42.36819595" lon="69.74416691"><ele>571.0</ele><time>2018-10-03T04:43:30.000Z</time><course>56.7</course><speed>2.4083188</speed><geoidheight>-36.0</geoidheight><src>gps</src><sat>10</sat><hdop>0.7</hdop><vdop>0.7</vdop><pdop>1.0</pdop></trkpt>
<trkpt lat="42.36898876" lon="69.74575103"><ele>571.0</ele><time>2018-10-03T04:44:31.000Z</time><course>55.8</course><speed>2.281403</speed><geoidheight>-36.0</geoidheight><src>gps</src><sat>10</sat><hdop>0.7</hdop><vdop>0.7</vdop><pdop>1.0</pdop></trkpt>
<trkpt lat="42.36983388" lon="69.74750603"><ele>572.0</ele><time>2018-10-03T04:45:32.000Z</time><course>80.2</course><speed>2.9055293</speed><geoidheight>-36.0</geoidheight><src>gps</src><sat>10</sat><hdop>0.7</hdop><vdop>0.7</vdop><pdop>1.0</pdop></trkpt>
<trkpt lat="42.37101866" lon="69.75005452"><ele>570.0</ele><time>2018-10-03T04:46:33.000Z</time><course>53.9</course><speed>2.8095906</speed><geoidheight>-36.0</geoidheight><src>gps</src><sat>8</sat><hdop>0.7</hdop><vdop>0.7</vdop><pdop>1.0</pdop></trkpt>
<trkpt lat="42.37220658" lon="69.75271764"><ele>570.0</ele><time>2018-10-03T04:47:34.000Z</time><course>57.2</course><speed>3.9610226</speed><geoidheight>-36.0</geoidheight><src>gps</src><sat>10</sat><hdop>0.7</hdop><vdop>0.7</vdop><pdop>1.0</pdop></trkpt>
<trkpt lat="42.37349342" lon="69.754902"><ele>570.0</ele><time>2018-10-03T04:48:35.000Z</time><course>51.1</course><speed>4.813751</speed><geoidheight>-36.0</geoidheight><src>gps</src><sat>9</sat><hdop>0.7</hdop><vdop>0.7</vdop><pdop>1.0</pdop></trkpt>
<trkpt lat="42.37547884" lon="69.75802762"><ele>565.0</ele><time>2018-10-03T04:49:36.000Z</time><course>48.3</course><speed>5.2401524</speed><geoidheight>-36.0</geoidheight><src>gps</src><sat>10</sat><hdop>0.7</hdop><vdop>0.7</vdop><pdop>1.0</pdop></trkpt>
<trkpt lat="42.37702555" lon="69.76050491"><ele>568.0</ele><time>2018-10-03T04:50:37.000Z</time><course>45.0</course><speed>4.493072</speed><geoidheight>-36.0</geoidheight><src>gps</src><sat>8</sat><hdop>0.7</hdop><vdop>0.7</vdop><pdop>1.0</pdop></trkpt>
<trkpt lat="42.37855153" lon="69.76288456"><ele>562.0</ele><time>2018-10-03T04:51:38.000Z</time><course>49.7</course><speed>5.2501526</speed><geoidheight>-36.0</geoidheight><src>gps</src><sat>10</sat><hdop>0.7</hdop><vdop>0.7</vdop><pdop>1.0</pdop></trkpt>
<trkpt lat="42.38120194" lon="69.76688399"><ele>552.0</ele><time>2018-10-03T04:52:39.000Z</time><course>53.5</course><speed>5.0856366</speed><geoidheight>-36.0</geoidheight><src>gps</src><sat>8</sat><hdop>0.6</hdop><vdop>0.7</vdop><pdop>0.9</pdop></trkpt>
<trkpt lat="42.38307021" lon="69.76952772"><ele>546.0</ele><time>2018-10-03T04:53:40.000Z</time><course>47.9</course><speed>4.570536</speed><geoidheight>-36.0</geoidheight><src>gps</src><sat>9</sat><hdop>0.6</hdop><vdop>0.7</vdop><pdop>0.9</pdop></trkpt>
<trkpt lat="42.38475361" lon="69.77196562"><ele>549.0</ele><time>2018-10-03T04:54:41.000Z</time><course>49.8</course><speed>4.605258</speed><geoidheight>-36.0</geoidheight><src>gps</src><sat>13</sat><hdop>0.6</hdop><vdop>0.7</vdop><pdop>0.9</pdop></trkpt>
<trkpt lat="42.38629829" lon="69.77417455"><ele>548.0</ele><time>2018-10-03T04:55:42.000Z</time><course>46.1</course><speed>3.8234146</speed><geoidheight>-36.0</geoidheight><src>gps</src><sat>11</sat><hdop>0.7</hdop><vdop>0.8</vdop><pdop>1.0</pdop></trkpt>
<trkpt lat="42.38763484" lon="69.77566374"><ele>556.0</ele><time>2018-10-03T04:56:43.000Z</time><course>45.8</course><speed>2.8345194</speed><geoidheight>-36.0</geoidheight><src>gps</src><sat>12</sat><hdop>0.7</hdop><vdop>0.8</vdop><pdop>1.0</pdop></trkpt>
<trkpt lat="42.38878145" lon="69.77690576"><ele>555.0</ele><time>2018-10-03T04:57:44.000Z</time><course>37.5</course><speed>1.9848677</speed><geoidheight>-36.0</geoidheight><src>gps</src><sat>12</sat><hdop>0.6</hdop><vdop>0.7</vdop><pdop>1.0</pdop></trkpt>
<trkpt lat="42.38952237" lon="69.77819376"><ele>558.0</ele><time>2018-10-03T04:58:45.000Z</time><course>65.4</course><speed>2.140841</speed><geoidheight>-36.0</geoidheight><src>gps</src><sat>11</sat><hdop>0.6</hdop><vdop>0.7</vdop><pdop>1.0</pdop></trkpt>
<trkpt lat="42.38963161" lon="69.77962706"><ele>571.0</ele><time>2018-10-03T04:59:46.000Z</time><course>79.5</course><speed>1.3476646</speed><geoidheight>-36.0</geoidheight><src>gps</src><sat>11</sat><hdop>0.6</hdop><vdop>0.7</vdop><pdop>1.0</pdop></trkpt>
<trkpt lat="42.39016111" lon="69.78091329"><ele>577.0</ele><time>2018-10-03T05:00:47.000Z</time><course>43.4</course><speed>2.1714742</speed><geoidheight>-36.0</geoidheight><src>gps</src><sat>14</sat><hdop>0.6</hdop><vdop>0.7</vdop><pdop>0.9</pdop></trkpt>
<trkpt lat="42.39105234" lon="69.78226048"><ele>581.0</ele><time>2018-10-03T05:01:48.000Z</time><course>44.2</course><speed>2.5949373</speed><geoidheight>-36.0</geoidheight><src>gps</src><sat>12</sat><hdop>0.6</hdop><vdop>0.7</vdop><pdop>0.9</pdop></trkpt>
<trkpt lat="42.39238975" lon="69.78411099"><ele>581.0</ele><time>2018-10-03T05:02:49.000Z</time><course>48.4</course><speed>4.0007997</speed><geoidheight>-36.0</geoidheight><src>gps</src><sat>13</sat><hdop>0.7</hdop><vdop>0.8</vdop><pdop>1.0</pdop></trkpt>
<trkpt lat="42.3941176" lon="69.78645606"><ele>579.0</ele><time>2018-10-03T05:03:49.000Z</time><course>45.7</course><speed>3.9432476</speed><geoidheight>-36.0</geoidheight><src>gps</src><sat>14</sat><hdop>0.6</hdop><vdop>0.7</vdop><pdop>0.9</pdop></trkpt>
<trkpt lat="42.3957787" lon="69.7884038"><ele>578.0</ele><time>2018-10-03T05:04:49.000Z</time><course>39.6</course><speed>3.6606693</speed><geoidheight>-36.0</geoidheight><src>gps</src><sat>11</sat><hdop>0.6</hdop><vdop>0.7</vdop><pdop>0.9</pdop></trkpt>
<trkpt lat="42.39752667" lon="69.79040332"><ele>577.0</ele><time>2018-10-03T05:05:50.000Z</time><course>46.6</course><speed>4.6531067</speed><geoidheight>-36.0</geoidheight><src>gps</src><sat>11</sat><hdop>0.6</hdop><vdop>0.7</vdop><pdop>0.9</pdop></trkpt>
<trkpt lat="42.39890125" lon="69.79257067"><ele>576.0</ele><time>2018-10-03T05:06:51.000Z</time><course>47.5</course><speed>4.1904297</speed><geoidheight>-36.0</geoidheight><src>gps</src><sat>11</sat><hdop>0.6</hdop><vdop>0.7</vdop><pdop>0.9</pdop></trkpt>
<trkpt lat="42.400319" lon="69.79468338"><ele>578.0</ele><time>2018-10-03T05:07:52.000Z</time><course>51.1</course><speed>3.8213086</speed><geoidheight>-36.0</geoidheight><src>gps</src><sat>11</sat><hdop>0.6</hdop><vdop>0.7</vdop><pdop>0.9</pdop></trkpt>
<trkpt lat="42.40157153" lon="69.79660178"><ele>579.0</ele><time>2018-10-03T05:08:53.000Z</time><course>48.8</course><speed>1.9709135</speed><geoidheight>-36.0</geoidheight><src>gps</src><sat>9</sat><hdop>0.6</hdop><vdop>0.7</vdop><pdop>0.9</pdop></trkpt>
<trkpt lat="42.40263215" lon="69.79812474"><ele>589.0</ele><time>2018-10-03T05:09:53.000Z</time><course>49.9</course><speed>3.03</speed><geoidheight>-36.0</geoidheight><src>gps</src><sat>11</sat><hdop>0.6</hdop><vdop>0.7</vdop><pdop>0.9</pdop></trkpt>
<trkpt lat="42.40381045" lon="69.79991088"><ele>591.0</ele><time>2018-10-03T05:10:54.000Z</time><course>42.2</course><speed>3.190768</speed><geoidheight>-36.0</geoidheight><src>gps</src><sat>11</sat><hdop>0.6</hdop><vdop>0.7</vdop><pdop>0.9</pdop></trkpt>
<trkpt lat="42.40511236" lon="69.80191946"><ele>599.0</ele><time>2018-10-03T05:11:55.000Z</time><course>49.8</course><speed>3.7155485</speed><geoidheight>-36.0</geoidheight><src>gps</src><sat>11</sat><hdop>0.6</hdop><vdop>0.7</vdop><pdop>0.9</pdop></trkpt>
<trkpt lat="42.40639314" lon="69.8038939"><ele>600.0</ele><time>2018-10-03T05:12:55.000Z</time><course>54.1</course><speed>3.3551452</speed><geoidheight>-36.0</geoidheight><src>gps</src><sat>11</sat><hdop>0.6</hdop><vdop>0.7</vdop><pdop>0.9</pdop></trkpt>
<trkpt lat="42.40777033" lon="69.8070066"><ele>591.0</ele><time>2018-10-03T05:13:56.000Z</time><course>65.7</course><speed>5.540081</speed><geoidheight>-36.0</geoidheight><src>gps</src><sat>8</sat><hdop>0.6</hdop><vdop>0.7</vdop><pdop>0.9</pdop></trkpt>
<trkpt lat="42.40909579" lon="69.81162951"><ele>575.0</ele><time>2018-10-03T05:14:57.000Z</time><course>72.6</course><speed>4.97</speed><geoidheight>-36.0</geoidheight><src>gps</src><sat>11</sat><hdop>0.6</hdop><vdop>0.7</vdop><pdop>0.9</pdop></trkpt>
<trkpt lat="42.41003673" lon="69.81478816"><ele>573.0</ele><time>2018-10-03T05:15:58.000Z</time><course>68.9</course><speed>4.40192</speed><geoidheight>-36.0</geoidheight><src>gps</src><sat>10</sat><hdop>0.6</hdop><vdop>0.7</vdop><pdop>0.9</pdop></trkpt>
<trkpt lat="42.41142448" lon="69.81759187"><ele>574.0</ele><time>2018-10-03T05:16:59.000Z</time><course>33.3</course><speed>5.697587</speed><geoidheight>-36.0</geoidheight><src>gps</src><sat>12</sat><hdop>0.6</hdop><vdop>0.7</vdop><pdop>0.9</pdop></trkpt>
<trkpt lat="42.41391249" lon="69.81936645"><ele>579.0</ele><time>2018-10-03T05:18:00.000Z</time><course>38.0</course><speed>3.7127078</speed><geoidheight>-36.0</geoidheight><src>gps</src><sat>8</sat><hdop>0.7</hdop><vdop>0.7</vdop><pdop>1.0</pdop></trkpt>
<trkpt lat="42.41545633" lon="69.82139922"><ele>578.0</ele><time>2018-10-03T05:19:00.000Z</time><course>50.0</course><speed>4.291678</speed><geoidheight>-36.0</geoidheight><src>gps</src><sat>12</sat><hdop>0.7</hdop><vdop>0.7</vdop><pdop>1.0</pdop></trkpt>
<trkpt lat="42.41693621" lon="69.82370383"><ele>578.0</ele><time>2018-10-03T05:20:01.000Z</time><course>52.4</course><speed>4.2505765</speed><geoidheight>-36.0</geoidheight><src>gps</src><sat>11</sat><hdop>0.7</hdop><vdop>0.7</vdop><pdop>1.0</pdop></trkpt>
<trkpt lat="42.4186361" lon="69.82646732"><ele>582.0</ele><time>2018-10-03T05:21:02.000Z</time><course>53.3</course><speed>4.6484404</speed><geoidheight>-36.0</geoidheight><src>gps</src><sat>11</sat><hdop>0.7</hdop><vdop>0.7</vdop><pdop>1.0</pdop></trkpt>
<trkpt lat="42.41987741" lon="69.82841788"><ele>575.0</ele><time>2018-10-03T05:22:03.000Z</time><course>48.1</course><speed>1.6587344</speed><geoidheight>-36.0</geoidheight><src>gps</src><sat>13</sat><hdop>0.7</hdop><vdop>0.7</vdop><pdop>1.0</pdop></trkpt>
<trkpt lat="42.42159916" lon="69.83118865"><ele>572.0</ele><time>2018-10-03T05:23:04.000Z</time><course>51.0</course><speed>4.360562</speed><geoidheight>-36.0</geoidheight><src>gps</src><sat>12</sat><hdop>0.6</hdop><vdop>0.7</vdop><pdop>1.0</pdop></trkpt>
<trkpt lat="42.42239733" lon="69.83235521"><ele>569.0</ele><time>2018-10-03T05:24:05.000Z</time><course>50.3</course><speed>3.8637416</speed><geoidheight>-36.0</geoidheight><src>gps</src><sat>12</sat><hdop>0.6</hdop><vdop>0.7</vdop><pdop>1.0</pdop></trkpt>
<trkpt lat="42.42406045" lon="69.83499367"><ele>573.0</ele><time>2018-10-03T05:25:06.000Z</time><course>47.5</course><speed>4.95</speed><geoidheight>-36.0</geoidheight><src>gps</src><sat>12</sat><hdop>0.6</hdop><vdop>0.7</vdop><pdop>1.0</pdop></trkpt>
<trkpt lat="42.42535187" lon="69.8368109"><ele>575.0</ele><time>2018-10-03T05:26:07.000Z</time><course>28.3</course><speed>3.987844</speed><geoidheight>-36.0</geoidheight><src>gps</src><sat>16</sat><hdop>0.6</hdop><vdop>0.7</vdop><pdop>1.0</pdop></trkpt>
<trkpt lat="42.42699209" lon="69.83776655"><ele>583.0</ele><time>2018-10-03T05:27:08.000Z</time><course>32.4</course><speed>3.1470146</speed><geoidheight>-36.0</geoidheight><src>gps</src><sat>12</sat><hdop>0.6</hdop><vdop>0.7</vdop><pdop>1.0</pdop></trkpt>
<trkpt lat="42.42892297" lon="69.84021947"><ele>590.0</ele><time>2018-10-03T05:28:09.000Z</time><course>40.6</course><speed>5.200471</speed><geoidheight>-36.0</geoidheight><src>gps</src><sat>11</sat><hdop>0.7</hdop><vdop>0.7</vdop><pdop>1.0</pdop></trkpt>
<trkpt lat="42.43209323" lon="69.84436017"><ele>560.0</ele><time>2018-10-03T05:29:10.000Z</time><course>44.4</course><speed>9.331205</speed><geoidheight>-36.0</geoidheight><src>gps</src><sat>12</sat><hdop>0.7</hdop><vdop>0.7</vdop><pdop>1.0</pdop></trkpt>
<trkpt lat="42.43549622" lon="69.84791523"><ele>541.0</ele><time>2018-10-03T05:30:11.000Z</time><course>20.3</course><speed>5.6400356</speed><geoidheight>-36.0</geoidheight><src>gps</src><sat>17</sat><hdop>0.7</hdop><vdop>0.7</vdop><pdop>1.0</pdop></trkpt>
<trkpt lat="42.43872394" lon="69.84870059"><ele>531.0</ele><time>2018-10-03T05:31:12.000Z</time><course>10.4</course><speed>5.33076</speed><geoidheight>-36.0</geoidheight><src>gps</src><sat>13</sat><hdop>0.7</hdop><vdop>0.7</vdop><pdop>1.0</pdop></trkpt>
<trkpt lat="42.44076641" lon="69.84959033"><ele>547.0</ele><time>2018-10-03T05:32:12.000Z</time><course>22.9</course><speed>2.6637192</speed><geoidheight>-36.0</geoidheight><src>gps</src><sat>11</sat><hdop>0.7</hdop><vdop>0.7</vdop><pdop>1.0</pdop></trkpt>
<trkpt lat="42.44264047" lon="69.85109858"><ele>546.0</ele><time>2018-10-03T05:33:13.000Z</time><course>30.5</course><speed>5.0408034</speed><geoidheight>-36.0</geoidheight><src>gps</src><sat>15</sat><hdop>0.7</hdop><vdop>0.7</vdop><pdop>1.0</pdop></trkpt>
<trkpt lat="42.44579933" lon="69.85390315"><ele>532.0</ele><time>2018-10-03T05:34:14.000Z</time><course>34.0</course><speed>5.8210397</speed><geoidheight>-36.0</geoidheight><src>gps</src><sat>13</sat><hdop>0.7</hdop><vdop>0.7</vdop><pdop>1.0</pdop></trkpt>
<trkpt lat="42.44771071" lon="69.85561584"><ele>536.0</ele><time>2018-10-03T05:35:15.000Z</time><course>34.4</course><speed>3.493222</speed><geoidheight>-36.0</geoidheight><src>gps</src><sat>11</sat><hdop>0.7</hdop><vdop>0.7</vdop><pdop>1.0</pdop></trkpt>
<trkpt lat="42.44922968" lon="69.85688422"><ele>539.0</ele><time>2018-10-03T05:36:16.000Z</time><course>34.7</course><speed>3.094576</speed><geoidheight>-36.0</geoidheight><src>gps</src><sat>12</sat><hdop>0.7</hdop><vdop>0.7</vdop><pdop>1.0</pdop></trkpt>
<trkpt lat="42.45042872" lon="69.85820314"><ele>546.0</ele><time>2018-10-03T05:37:17.000Z</time><course>46.8</course><speed>2.65</speed><geoidheight>-36.0</geoidheight><src>gps</src><sat>13</sat><hdop>0.7</hdop><vdop>0.7</vdop><pdop>1.0</pdop></trkpt>
<trkpt lat="42.45142072" lon="69.85981807"><ele>546.0</ele><time>2018-10-03T05:38:18.000Z</time><course>53.6</course><speed>3.1840227</speed><geoidheight>-36.0</geoidheight><src>gps</src><sat>13</sat><hdop>0.7</hdop><vdop>0.7</vdop><pdop>1.0</pdop></trkpt>
<trkpt lat="42.45225775" lon="69.86141629"><ele>551.0</ele><time>2018-10-03T05:39:19.000Z</time><course>55.3</course><speed>2.3277671</speed><geoidheight>-36.0</geoidheight><src>gps</src><sat>13</sat><hdop>0.7</hdop><vdop>0.7</vdop><pdop>1.0</pdop></trkpt>
<trkpt lat="42.45303857" lon="69.86289011"><ele>558.0</ele><time>2018-10-03T05:40:20.000Z</time><course>59.3</course><speed>2.2337637</speed><geoidheight>-36.0</geoidheight><src>gps</src><sat>15</sat><hdop>0.7</hdop><vdop>0.7</vdop><pdop>1.0</pdop></trkpt>
<trkpt lat="42.45383259" lon="69.8644014"><ele>559.0</ele><time>2018-10-03T05:41:21.000Z</time><course>52.8</course><speed>2.4305146</speed><geoidheight>-36.0</geoidheight><src>gps</src><sat>15</sat><hdop>0.7</hdop><vdop>0.7</vdop><pdop>1.0</pdop></trkpt>
<trkpt lat="42.45463573" lon="69.86593834"><ele>564.0</ele><time>2018-10-03T05:42:22.000Z</time><course>54.8</course><speed>2.6708052</speed><geoidheight>-36.0</geoidheight><src>gps</src><sat>13</sat><hdop>0.7</hdop><vdop>0.7</vdop><pdop>1.0</pdop></trkpt>
<trkpt lat="42.45581996" lon="69.86820998"><ele>566.0</ele><time>2018-10-03T05:43:23.000Z</time><course>53.9</course><speed>4.86</speed><geoidheight>-36.0</geoidheight><src>gps</src><sat>15</sat><hdop>0.7</hdop><vdop>0.7</vdop><pdop>1.0</pdop></trkpt>
<trkpt lat="42.45789933" lon="69.87213744"><ele>548.0</ele><time>2018-10-03T05:44:24.000Z</time><course>55.2</course><speed>6.96563</speed><geoidheight>-36.0</geoidheight><src>gps</src><sat>13</sat><hdop>0.7</hdop><vdop>0.7</vdop><pdop>1.0</pdop></trkpt>
<trkpt lat="42.45953698" lon="69.87517106"><ele>537.0</ele><time>2018-10-03T05:45:25.000Z</time><course>50.4</course><speed>2.6501698</speed><geoidheight>-36.0</geoidheight><src>gps</src><sat>12</sat><hdop>0.7</hdop><vdop>0.7</vdop><pdop>1.0</pdop></trkpt>
<trkpt lat="42.46030135" lon="69.87668084"><ele>543.0</ele><time>2018-10-03T05:46:26.000Z</time><course>44.7</course><speed>2.0776188</speed><geoidheight>-36.0</geoidheight><src>gps</src><sat>13</sat><hdop>0.7</hdop><vdop>0.7</vdop><pdop>1.0</pdop></trkpt>
<trkpt lat="42.46111842" lon="69.87818103"><ele>554.0</ele><time>2018-10-03T05:47:27.000Z</time><course>52.4</course><speed>4.7314377</speed><geoidheight>-36.0</geoidheight><src>gps</src><sat>13</sat><hdop>0.7</hdop><vdop>0.7</vdop><pdop>1.0</pdop></trkpt>
<trkpt lat="42.46218316" lon="69.88021155"><ele>550.0</ele><time>2018-10-03T05:48:28.000Z</time><course>57.4</course><speed>3.7613297</speed><geoidheight>-36.0</geoidheight><src>gps</src><sat>12</sat><hdop>0.7</hdop><vdop>0.7</vdop><pdop>1.0</pdop></trkpt>
<trkpt lat="42.46355587" lon="69.88287091"><ele>540.0</ele><time>2018-10-03T05:49:29.000Z</time><course>53.8</course><speed>3.35</speed><geoidheight>-36.0</geoidheight><src>gps</src><sat>12</sat><hdop>0.7</hdop><vdop>0.7</vdop><pdop>1.0</pdop></trkpt>
<trkpt lat="42.46422919" lon="69.88423479"><ele>549.0</ele><time>2018-10-03T05:50:30.000Z</time><course>55.6</course><speed>1.9981241</speed><geoidheight>-36.0</geoidheight><src>gps</src><sat>11</sat><hdop>0.7</hdop><vdop>0.7</vdop><pdop>1.0</pdop></trkpt>
<trkpt lat="42.46489075" lon="69.88543997"><ele>556.0</ele><time>2018-10-03T05:51:31.000Z</time><course>60.2</course><speed>2.258008</speed><geoidheight>-36.0</geoidheight><src>gps</src><sat>13</sat><hdop>0.7</hdop><vdop>0.7</vdop><pdop>1.0</pdop></trkpt>
<trkpt lat="42.46565603" lon="69.88684521"><ele>562.0</ele><time>2018-10-03T05:52:32.000Z</time><course>51.4</course><speed>2.7784889</speed><geoidheight>-36.0</geoidheight><src>gps</src><sat>12</sat><hdop>0.7</hdop><vdop>0.7</vdop><pdop>1.0</pdop></trkpt>
<trkpt lat="42.46647024" lon="69.88833827"><ele>574.0</ele><time>2018-10-03T05:53:33.000Z</time><course>53.4</course><speed>2.8983614</speed><geoidheight>-36.0</geoidheight><src>gps</src><sat>13</sat><hdop>0.7</hdop><vdop>0.8</vdop><pdop>1.0</pdop></trkpt>
<trkpt lat="42.46759742" lon="69.89014023"><ele>565.0</ele><time>2018-10-03T05:54:34.000Z</time><course>47.1</course><speed>3.6479037</speed><geoidheight>-36.0</geoidheight><src>gps</src><sat>13</sat><hdop>0.7</hdop><vdop>0.7</vdop><pdop>1.0</pdop></trkpt>
<trkpt lat="42.46884481" lon="69.89207881"><ele>573.0</ele><time>2018-10-03T05:55:35.000Z</time><course>53.0</course><speed>2.903188</speed><geoidheight>-36.0</geoidheight><src>gps</src><sat>11</sat><hdop>0.7</hdop><vdop>0.7</vdop><pdop>1.0</pdop></trkpt>
<trkpt lat="42.46972402" lon="69.89345653"><ele>578.0</ele><time>2018-10-03T05:56:36.000Z</time><course>57.1</course><speed>2.1298354</speed><geoidheight>-36.0</geoidheight><src>gps</src><sat>12</sat><hdop>0.7</hdop><vdop>0.7</vdop><pdop>1.0</pdop></trkpt>
<trkpt lat="42.47041072" lon="69.89451707"><ele>584.0</ele><time>2018-10-03T05:57:36.000Z</time><course>58.3</course><speed>2.282652</speed><geoidheight>-36.0</geoidheight><src>gps</src><sat>11</sat><hdop>0.7</hdop><vdop>0.8</vdop><pdop>1.0</pdop></trkpt>
<trkpt lat="42.4711353" lon="69.89582758"><ele>588.0</ele><time>2018-10-03T05:58:37.000Z</time><course>47.4</course><speed>2.4874485</speed><geoidheight>-36.0</geoidheight><src>gps</src><sat>12</sat><hdop>0.7</hdop><vdop>0.7</vdop><pdop>1.0</pdop></trkpt>
<trkpt lat="42.47187853" lon="69.89740273"><ele>593.0</ele><time>2018-10-03T05:59:38.000Z</time><course>59.7</course><speed>3.7752483</speed><geoidheight>-36.0</geoidheight><src>gps</src><sat>12</sat><hdop>0.7</hdop><vdop>0.7</vdop><pdop>1.0</pdop></trkpt>
<trkpt lat="42.47273487" lon="69.89953059"><ele>594.0</ele><time>2018-10-03T06:00:39.000Z</time><course>63.5</course><speed>2.1623368</speed><geoidheight>-36.0</geoidheight><src>gps</src><sat>13</sat><hdop>0.7</hdop><vdop>0.7</vdop><pdop>1.0</pdop></trkpt>
<trkpt lat="42.47327294" lon="69.90082508"><ele>595.0</ele><time>2018-10-03T06:01:40.000Z</time><course>62.6</course><speed>2.0348217</speed><geoidheight>-36.0</geoidheight><src>gps</src><sat>16</sat><hdop>0.6</hdop><vdop>0.7</vdop><pdop>0.9</pdop></trkpt>
<trkpt lat="42.47382803" lon="69.90203168"><ele>600.0</ele><time>2018-10-03T06:02:40.000Z</time><course>65.7</course><speed>1.8312018</speed><geoidheight>-36.0</geoidheight><src>gps</src><sat>16</sat><hdop>0.6</hdop><vdop>0.7</vdop><pdop>0.9</pdop></trkpt>
<trkpt lat="42.47446639" lon="69.9033099"><ele>606.0</ele><time>2018-10-03T06:03:41.000Z</time><course>55.9</course><speed>1.9709135</speed><geoidheight>-36.0</geoidheight><src>gps</src><sat>16</sat><hdop>0.6</hdop><vdop>0.7</vdop><pdop>0.9</pdop></trkpt>
<trkpt lat="42.47502581" lon="69.90447983"><ele>609.0</ele><time>2018-10-03T06:04:42.000Z</time><course>71.8</course><speed>1.9612752</speed><geoidheight>-36.0</geoidheight><src>gps</src><sat>11</sat><hdop>0.7</hdop><vdop>0.7</vdop><pdop>1.0</pdop></trkpt>
<trkpt lat="42.47559491" lon="69.9056783"><ele>608.0</ele><time>2018-10-03T06:05:43.000Z</time><course>48.9</course><speed>2.0202227</speed><geoidheight>-36.0</geoidheight><src>gps</src><sat>13</sat><hdop>0.6</hdop><vdop>0.8</vdop><pdop>1.0</pdop></trkpt>
<trkpt lat="42.47620598" lon="69.90700069"><ele>608.0</ele><time>2018-10-03T06:06:44.000Z</time><course>56.8</course><speed>2.4200208</speed><geoidheight>-36.0</geoidheight><src>gps</src><sat>16</sat><hdop>0.7</hdop><vdop>0.8</vdop><pdop>1.0</pdop></trkpt>
<trkpt lat="42.47689679" lon="69.90841517"><ele>608.0</ele><time>2018-10-03T06:07:45.000Z</time><course>56.5</course><speed>2.8908477</speed><geoidheight>-36.0</geoidheight><src>gps</src><sat>13</sat><hdop>0.7</hdop><vdop>0.8</vdop><pdop>1.0</pdop></trkpt>
<trkpt lat="42.47789135" lon="69.91052755"><ele>606.0</ele><time>2018-10-03T06:08:46.000Z</time><course>59.4</course><speed>3.24</speed><geoidheight>-36.0</geoidheight><src>gps</src><sat>11</sat><hdop>0.7</hdop><vdop>0.8</vdop><pdop>1.0</pdop></trkpt>
<trkpt lat="42.4788765" lon="69.9126804"><ele>600.0</ele><time>2018-10-03T06:09:47.000Z</time><course>59.2</course><speed>3.6916392</speed><geoidheight>-36.0</geoidheight><src>gps</src><sat>12</sat><hdop>0.7</hdop><vdop>0.7</vdop><pdop>1.0</pdop></trkpt>
<trkpt lat="42.4798505" lon="69.91464686"><ele>597.0</ele><time>2018-10-03T06:10:48.000Z</time><course>56.5</course><speed>3.5705042</speed><geoidheight>-36.0</geoidheight><src>gps</src><sat>13</sat><hdop>0.7</hdop><vdop>0.7</vdop><pdop>1.0</pdop></trkpt>
<trkpt lat="42.48100005" lon="69.91709968"><ele>592.0</ele><time>2018-10-03T06:11:49.000Z</time><course>45.5</course><speed>2.0700965</speed><geoidheight>-36.0</geoidheight><src>gps</src><sat>13</sat><hdop>0.7</hdop><vdop>0.7</vdop><pdop>1.0</pdop></trkpt>
<trkpt lat="42.48173837" lon="69.91883556"><ele>597.0</ele><time>2018-10-03T06:12:50.000Z</time><course>57.6</course><speed>2.77</speed><geoidheight>-36.0</geoidheight><src>gps</src><sat>13</sat><hdop>0.7</hdop><vdop>0.7</vdop><pdop>1.0</pdop></trkpt>
<trkpt lat="42.48225906" lon="69.92037703"><ele>595.0</ele><time>2018-10-03T06:13:51.000Z</time><course>76.9</course><speed>2.1944704</speed><geoidheight>-36.0</geoidheight><src>gps</src><sat>13</sat><hdop>0.7</hdop><vdop>0.7</vdop><pdop>1.0</pdop></trkpt>
<trkpt lat="42.48272827" lon="69.9216848"><ele>597.0</ele><time>2018-10-03T06:14:52.000Z</time><course>64.0</course><speed>2.064098</speed><geoidheight>-36.0</geoidheight><src>gps</src><sat>11</sat><hdop>0.7</hdop><vdop>0.8</vdop><pdop>1.1</pdop></trkpt>
<trkpt lat="42.4831796" lon="69.92316013"><ele>599.0</ele><time>2018-10-03T06:15:53.000Z</time><course>70.9</course><speed>1.8227452</speed><geoidheight>-36.0</geoidheight><src>gps</src><sat>14</sat><hdop>0.7</hdop><vdop>0.8</vdop><pdop>1.1</pdop></trkpt>
<trkpt lat="42.48357255" lon="69.92440748"><ele>603.0</ele><time>2018-10-03T06:16:54.000Z</time><course>69.4</course><speed>1.88</speed><geoidheight>-36.0</geoidheight><src>gps</src><sat>17</sat><hdop>0.7</hdop><vdop>0.8</vdop><pdop>1.1</pdop></trkpt>
<trkpt lat="42.48392468" lon="69.92579866"><ele>609.0</ele><time>2018-10-03T06:17:55.000Z</time><course>65.1</course><speed>2.3170023</speed><geoidheight>-36.0</geoidheight><src>gps</src><sat>14</sat><hdop>0.7</hdop><vdop>0.8</vdop><pdop>1.0</pdop></trkpt>
<trkpt lat="42.48436815" lon="69.927218"><ele>609.0</ele><time>2018-10-03T06:18:56.000Z</time><course>62.6</course><speed>1.7927911</speed><geoidheight>-36.0</geoidheight><src>gps</src><sat>14</sat><hdop>0.7</hdop><vdop>0.8</vdop><pdop>1.0</pdop></trkpt>
<trkpt lat="42.48474842" lon="69.92853377"><ele>614.0</ele><time>2018-10-03T06:19:57.000Z</time><course>57.8</course><speed>1.4488616</speed><geoidheight>-36.0</geoidheight><src>gps</src><sat>16</sat><hdop>0.7</hdop><vdop>0.7</vdop><pdop>1.0</pdop></trkpt>
<trkpt lat="42.48515132" lon="69.92991123"><ele>617.0</ele><time>2018-10-03T06:20:58.000Z</time><course>75.2</course><speed>2.4010208</speed><geoidheight>-36.0</geoidheight><src>gps</src><sat>12</sat><hdop>0.7</hdop><vdop>0.7</vdop><pdop>1.0</pdop></trkpt>
<trkpt lat="42.48553913" lon="69.93127931"><ele>628.0</ele><time>2018-10-03T06:21:59.000Z</time><course>70.3</course><speed>1.9318644</speed><geoidheight>-36.0</geoidheight><src>gps</src><sat>11</sat><hdop>0.7</hdop><vdop>0.7</vdop><pdop>1.0</pdop></trkpt>
<trkpt lat="42.4859559" lon="69.93266337"><ele>631.0</ele><time>2018-10-03T06:23:00.000Z</time><course>65.1</course><speed>2.3690715</speed><geoidheight>-36.0</geoidheight><src>gps</src><sat>13</sat><hdop>0.7</hdop><vdop>0.7</vdop><pdop>1.0</pdop></trkpt>
<trkpt lat="42.48638078" lon="69.934093"><ele>635.0</ele><time>2018-10-03T06:24:01.000Z</time><course>69.5</course><speed>2.3423278</speed><geoidheight>-36.0</geoidheight><src>gps</src><sat>12</sat><hdop>0.7</hdop><vdop>0.7</vdop><pdop>1.0</pdop></trkpt>
<trkpt lat="42.48670523" lon="69.93535133"><ele>642.0</ele><time>2018-10-03T06:25:02.000Z</time><course>92.1</course><speed>2.1092417</speed><geoidheight>-36.0</geoidheight><src>gps</src><sat>11</sat><hdop>0.7</hdop><vdop>0.7</vdop><pdop>1.0</pdop></trkpt>
<trkpt lat="42.48657644" lon="69.93639927"><ele>641.0</ele><time>2018-10-03T06:26:03.000Z</time><speed>0.0</speed><geoidheight>-36.0</geoidheight><src>gps</src><sat>5</sat><hdop>1.5</hdop><vdop>0.9</vdop><pdop>1.7</pdop></trkpt>
<trkpt lat="42.48673834" lon="69.93667826"><ele>643.0</ele><time>2018-10-03T06:27:04.000Z</time><speed>0.0</speed><geoidheight>-36.0</geoidheight><src>gps</src><sat>15</sat><hdop>0.7</hdop><vdop>0.7</vdop><pdop>1.0</pdop></trkpt>
<trkpt lat="42.48665676" lon="69.93646837"><ele>638.0</ele><time>2018-10-03T06:28:05.000Z</time><course>238.2</course><speed>1.4103191</speed><geoidheight>-36.0</geoidheight><src>gps</src><sat>14</sat><hdop>0.8</hdop><vdop>0.8</vdop><pdop>1.2</pdop></trkpt>
<trkpt lat="42.4866407" lon="69.93644922"><ele>639.0</ele><time>2018-10-03T06:29:06.000Z</time><speed>0.0</speed><geoidheight>-36.0</geoidheight><src>gps</src><sat>11</sat><hdop>1.1</hdop><vdop>0.9</vdop><pdop>1.4</pdop></trkpt>
<trkpt lat="42.48664016" lon="69.93644982"><ele>639.0</ele><time>2018-10-03T06:30:07.000Z</time><speed>0.0</speed><geoidheight>-36.0</geoidheight><src>gps</src><sat>9</sat><hdop>1.0</hdop><vdop>0.8</vdop><pdop>1.3</pdop></trkpt>
<trkpt lat="42.48672081" lon="69.93647994"><ele>639.0</ele><time>2018-10-03T06:31:08.000Z</time><speed>0.0</speed><geoidheight>-36.0</geoidheight><src>gps</src><sat>9</sat><hdop>1.1</hdop><vdop>0.8</vdop><pdop>1.4</pdop></trkpt>
<trkpt lat="42.48672557" lon="69.93646593"><ele>644.0</ele><time>2018-10-03T06:32:09.000Z</time><course>327.5</course><speed>0.55659676</speed><geoidheight>-36.0</geoidheight><src>gps</src><sat>7</sat><hdop>1.4</hdop><vdop>0.9</vdop><pdop>1.6</pdop></trkpt>
<trkpt lat="42.48667547" lon="69.93646662"><ele>639.0</ele><time>2018-10-03T06:33:10.000Z</time><speed>0.0</speed><geoidheight>-36.0</geoidheight><src>gps</src><sat>5</sat><hdop>2.6</hdop><vdop>0.9</vdop><pdop>2.8</pdop></trkpt>
<trkpt lat="42.48663317" lon="69.93648678"><ele>639.0</ele><time>2018-10-03T06:34:11.000Z</time><speed>0.0</speed><geoidheight>-36.0</geoidheight><src>gps</src><sat>5</sat><hdop>1.0</hdop><vdop>0.8</vdop><pdop>1.3</pdop></trkpt>
<trkpt lat="42.48663373" lon="69.93648613"><ele>639.0</ele><time>2018-10-03T06:35:12.000Z</time><speed>0.0</speed><geoidheight>-36.0</geoidheight><src>gps</src><sat>10</sat><hdop>1.1</hdop><vdop>0.9</vdop><pdop>1.4</pdop></trkpt>
<trkpt lat="42.48663838" lon="69.93648446"><ele>640.0</ele><time>2018-10-03T06:36:13.000Z</time><speed>0.0</speed><geoidheight>-36.0</geoidheight><src>gps</src><sat>10</sat><hdop>1.1</hdop><vdop>0.9</vdop><pdop>1.4</pdop></trkpt>
<trkpt lat="42.48663521" lon="69.93648541"><ele>640.0</ele><time>2018-10-03T06:37:14.000Z</time><speed>0.0</speed><geoidheight>-36.0</geoidheight><src>gps</src><sat>6</sat><hdop>1.2</hdop><vdop>0.9</vdop><pdop>1.5</pdop></trkpt>
<trkpt lat="42.48667793" lon="69.93647078"><ele>641.0</ele><time>2018-10-03T06:38:15.000Z</time><speed>0.0</speed><geoidheight>-36.0</geoidheight><src>gps</src><sat>5</sat><hdop>1.2</hdop><vdop>0.8</vdop><pdop>1.5</pdop></trkpt>
<trkpt lat="42.48666733" lon="69.93647211"><ele>641.0</ele><time>2018-10-03T06:39:16.000Z</time><speed>0.0</speed><geoidheight>-36.0</geoidheight><src>gps</src><sat>11</sat><hdop>0.8</hdop><vdop>0.8</vdop><pdop>1.2</pdop></trkpt>
<trkpt lat="42.48666716" lon="69.93647229"><ele>641.0</ele><time>2018-10-03T06:40:16.000Z</time><speed>0.0</speed><geoidheight>-36.0</geoidheight><src>gps</src><sat>10</sat><hdop>1.0</hdop><vdop>0.8</vdop><pdop>1.3</pdop></trkpt>
<trkpt lat="42.48666581" lon="69.93647312"><ele>641.0</ele><time>2018-10-03T06:41:17.000Z</time><speed>0.0</speed><geoidheight>-36.0</geoidheight><src>gps</src><sat>10</sat><hdop>1.0</hdop><vdop>0.8</vdop><pdop>1.3</pdop></trkpt>
<trkpt lat="42.4866658" lon="69.93647298"><ele>641.0</ele><time>2018-10-03T06:42:18.000Z</time><speed>0.0</speed><geoidheight>-36.0</geoidheight><src>gps</src><sat>10</sat><hdop>1.6</hdop><vdop>0.9</vdop><pdop>1.8</pdop></trkpt>
<trkpt lat="42.48666608" lon="69.93647265"><ele>641.0</ele><time>2018-10-03T06:43:19.000Z</time><speed>0.0</speed><geoidheight>-36.0</geoidheight><src>gps</src><sat>11</sat><hdop>1.2</hdop><vdop>0.9</vdop><pdop>1.5</pdop></trkpt>
<trkpt lat="42.48666609" lon="69.93647256"><ele>641.0</ele><time>2018-10-03T06:44:19.000Z</time><speed>0.0</speed><geoidheight>-36.0</geoidheight><src>gps</src><sat>9</sat><hdop>1.1</hdop><vdop>0.9</vdop><pdop>1.4</pdop></trkpt>
<trkpt lat="42.48666641" lon="69.93647243"><ele>641.0</ele><time>2018-10-03T06:45:20.000Z</time><speed>0.0</speed><geoidheight>-36.0</geoidheight><src>gps</src><sat>10</sat><hdop>1.1</hdop><vdop>0.9</vdop><pdop>1.4</pdop></trkpt>
<trkpt lat="42.48667043" lon="69.9363932"><ele>642.0</ele><time>2018-10-03T06:46:21.000Z</time><speed>0.0</speed><geoidheight>-36.0</geoidheight><src>gps</src><sat>9</sat><hdop>1.2</hdop><vdop>0.9</vdop><pdop>1.5</pdop></trkpt>
<trkpt lat="42.48662828" lon="69.93638647"><ele>640.0</ele><time>2018-10-03T06:47:22.000Z</time><course>316.0</course><speed>0.82079226</speed><geoidheight>-36.0</geoidheight><src>gps</src><sat>5</sat><hdop>2.2</hdop><vdop>0.9</vdop><pdop>2.4</pdop></trkpt>
<trkpt lat="42.48665943" lon="69.93643755"><ele>644.0</ele><time>2018-10-03T06:48:23.000Z</time><speed>0.0</speed><geoidheight>-36.0</geoidheight><src>gps</src><sat>5</sat><hdop>2.2</hdop><vdop>0.9</vdop><pdop>2.4</pdop></trkpt>
<trkpt lat="42.48663834" lon="69.9364041"><ele>644.0</ele><time>2018-10-03T06:49:24.000Z</time><course>178.8</course><speed>1.0704205</speed><geoidheight>-36.0</geoidheight><src>gps</src><sat>9</sat><hdop>1.2</hdop><vdop>0.9</vdop><pdop>1.5</pdop></trkpt>
<trkpt lat="42.48692317" lon="69.93657989"><ele>639.0</ele><time>2018-10-03T06:50:25.000Z</time><course>19.7</course><speed>2.8311305</speed><geoidheight>-36.0</geoidheight><src>gps</src><sat>10</sat><hdop>0.8</hdop><vdop>0.8</vdop><pdop>1.1</pdop></trkpt>
<trkpt lat="42.48761158" lon="69.93775993"><ele>641.0</ele><time>2018-10-03T06:51:26.000Z</time><course>74.5</course><speed>2.3792856</speed><geoidheight>-36.0</geoidheight><src>gps</src><sat>11</sat><hdop>0.8</hdop><vdop>0.8</vdop><pdop>1.1</pdop></trkpt>
<trkpt lat="42.48813352" lon="69.93918344"><ele>642.0</ele><time>2018-10-03T06:52:27.000Z</time><course>64.1</course><speed>2.3142385</speed><geoidheight>-36.0</geoidheight><src>gps</src><sat>8</sat><hdop>0.8</hdop><vdop>0.8</vdop><pdop>1.1</pdop></trkpt>
<trkpt lat="42.48886621" lon="69.94105876"><ele>641.0</ele><time>2018-10-03T06:53:28.000Z</time><course>64.4</course><speed>3.9700503</speed><geoidheight>-36.0</geoidheight><src>gps</src><sat>10</sat><hdop>0.8</hdop><vdop>0.8</vdop><pdop>1.1</pdop></trkpt>
<trkpt lat="42.48955294" lon="69.94296809"><ele>632.0</ele><time>2018-10-03T06:54:29.000Z</time><course>62.8</course><speed>3.7264595</speed><geoidheight>-36.0</geoidheight><src>gps</src><sat>10</sat><hdop>0.8</hdop><vdop>0.8</vdop><pdop>1.1</pdop></trkpt>
<trkpt lat="42.49055143" lon="69.94529299"><ele>629.0</ele><time>2018-10-03T06:55:30.000Z</time><course>52.4</course><speed>4.200107</speed><geoidheight>-36.0</geoidheight><src>gps</src><sat>11</sat><hdop>0.8</hdop><vdop>0.8</vdop><pdop>1.1</pdop></trkpt>
<trkpt lat="42.49228881" lon="69.94802342"><ele>612.0</ele><time>2018-10-03T06:56:31.000Z</time><course>55.6</course><speed>5.618016</speed><geoidheight>-36.0</geoidheight><src>gps</src><sat>7</sat><hdop>0.8</hdop><vdop>0.8</vdop><pdop>1.1</pdop></trkpt>
<trkpt lat="42.49257289" lon="69.95314812"><ele>585.0</ele><time>2018-10-03T06:57:32.000Z</time><course>99.2</course><speed>8.154588</speed><geoidheight>-36.0</geoidheight><src>gps</src><sat>10</sat><hdop>0.8</hdop><vdop>0.8</vdop><pdop>1.1</pdop></trkpt>
<trkpt lat="42.49287655" lon="69.95842293"><ele>559.0</ele><time>2018-10-03T06:58:33.000Z</time><course>54.8</course><speed>6.403445</speed><geoidheight>-36.0</geoidheight><src>gps</src><sat>11</sat><hdop>0.8</hdop><vdop>0.8</vdop><pdop>1.2</pdop></trkpt>
<trkpt lat="42.49564749" lon="69.95974173"><ele>555.0</ele><time>2018-10-03T06:59:34.000Z</time><course>349.4</course><speed>5.672257</speed><geoidheight>-36.0</geoidheight><src>gps</src><sat>11</sat><hdop>0.8</hdop><vdop>0.8</vdop><pdop>1.1</pdop></trkpt>
<trkpt lat="42.4999953" lon="69.95972631"><ele>511.0</ele><time>2018-10-03T07:00:34.000Z</time><course>23.9</course><speed>6.1532516</speed><geoidheight>-36.0</geoidheight><src>gps</src><sat>11</sat><hdop>0.8</hdop><vdop>0.8</vdop><pdop>1.1</pdop></trkpt>
<trkpt lat="42.50188301" lon="69.96129806"><ele>510.0</ele><time>2018-10-03T07:01:35.000Z</time><course>37.1</course><speed>2.6379726</speed><geoidheight>-36.0</geoidheight><src>gps</src><sat>11</sat><hdop>0.8</hdop><vdop>0.8</vdop><pdop>1.1</pdop></trkpt>
<trkpt lat="42.50272485" lon="69.96260759"><ele>515.0</ele><time>2018-10-03T07:02:36.000Z</time><course>46.7</course><speed>2.19</speed><geoidheight>-36.0</geoidheight><src>gps</src><sat>9</sat><hdop>0.8</hdop><vdop>0.8</vdop><pdop>1.1</pdop></trkpt>
<trkpt lat="42.5033051" lon="69.96402713"><ele>520.0</ele><time>2018-10-03T07:03:37.000Z</time><course>61.4</course><speed>2.810071</speed><geoidheight>-36.0</geoidheight><src>gps</src><sat>9</sat><hdop>0.7</hdop><vdop>0.8</vdop><pdop>1.1</pdop></trkpt>
<trkpt lat="42.50389807" lon="69.96557236"><ele>529.0</ele><time>2018-10-03T07:04:38.000Z</time><course>61.6</course><speed>2.518293</speed><geoidheight>-36.0</geoidheight><src>gps</src><sat>9</sat><hdop>0.7</hdop><vdop>0.8</vdop><pdop>1.1</pdop></trkpt>
<trkpt lat="42.50439471" lon="69.96686131"><ele>533.0</ele><time>2018-10-03T07:05:39.000Z</time><course>60.9</course><speed>1.6729913</speed><geoidheight>-36.0</geoidheight><src>gps</src><sat>10</sat><hdop>0.7</hdop><vdop>0.8</vdop><pdop>1.1</pdop></trkpt>
<trkpt lat="42.50489642" lon="69.96805269"><ele>530.0</ele><time>2018-10-03T07:06:40.000Z</time><course>60.5</course><speed>2.0189602</speed><geoidheight>-36.0</geoidheight><src>gps</src><sat>10</sat><hdop>0.7</hdop><vdop>0.8</vdop><pdop>1.1</pdop></trkpt>
<trkpt lat="42.5053835" lon="69.96937185"><ele>542.0</ele><time>2018-10-03T07:07:41.000Z</time><course>63.5</course><speed>1.8800266</speed><geoidheight>-36.0</geoidheight><src>gps</src><sat>10</sat><hdop>0.7</hdop><vdop>0.8</vdop><pdop>1.1</pdop></trkpt>
<trkpt lat="42.50585585" lon="69.97047585"><ele>543.0</ele><time>2018-10-03T07:08:42.000Z</time><course>56.6</course><speed>1.9502308</speed><geoidheight>-36.0</geoidheight><src>gps</src><sat>13</sat><hdop>0.7</hdop><vdop>0.8</vdop><pdop>1.1</pdop></trkpt>
<trkpt lat="42.50629421" lon="69.97164491"><ele>545.0</ele><time>2018-10-03T07:09:43.000Z</time><course>49.1</course><speed>1.96</speed><geoidheight>-36.0</geoidheight><src>gps</src><sat>10</sat><hdop>0.7</hdop><vdop>0.8</vdop><pdop>1.1</pdop></trkpt>
<trkpt lat="42.50682867" lon="69.97301796"><ele>554.0</ele><time>2018-10-03T07:10:44.000Z</time><course>59.1</course><speed>2.0602183</speed><geoidheight>-36.0</geoidheight><src>gps</src><sat>10</sat><hdop>0.7</hdop><vdop>0.8</vdop><pdop>1.1</pdop></trkpt>
<trkpt lat="42.50724868" lon="69.97426777"><ele>558.0</ele><time>2018-10-03T07:11:45.000Z</time><course>74.6</course><speed>1.7901117</speed><geoidheight>-36.0</geoidheight><src>gps</src><sat>10</sat><hdop>0.7</hdop><vdop>0.8</vdop><pdop>1.1</pdop></trkpt>
<trkpt lat="42.50771415" lon="69.97536485"><ele>565.0</ele><time>2018-10-03T07:12:46.000Z</time><course>64.9</course><speed>1.7801123</speed><geoidheight>-36.0</geoidheight><src>gps</src><sat>9</sat><hdop>0.7</hdop><vdop>0.8</vdop><pdop>1.1</pdop></trkpt>
<trkpt lat="42.50821356" lon="69.97641748"><ele>569.0</ele><time>2018-10-03T07:13:47.000Z</time><course>57.3</course><speed>1.5953057</speed><geoidheight>-36.0</geoidheight><src>gps</src><sat>10</sat><hdop>0.7</hdop><vdop>0.8</vdop><pdop>1.0</pdop></trkpt>
<trkpt lat="42.50877441" lon="69.97739692"><ele>574.0</ele><time>2018-10-03T07:14:48.000Z</time><course>53.2</course><speed>1.33</speed><geoidheight>-36.0</geoidheight><src>gps</src><sat>10</sat><hdop>0.7</hdop><vdop>0.7</vdop><pdop>1.0</pdop></trkpt>
<trkpt lat="42.50946721" lon="69.97831709"><ele>581.0</ele><time>2018-10-03T07:15:49.000Z</time><course>43.5</course><speed>1.5600319</speed><geoidheight>-36.0</geoidheight><src>gps</src><sat>11</sat><hdop>0.7</hdop><vdop>0.7</vdop><pdop>1.0</pdop></trkpt>
<trkpt lat="42.51041891" lon="69.97953002"><ele>586.0</ele><time>2018-10-03T07:16:50.000Z</time><course>43.0</course><speed>4.293367</speed><geoidheight>-36.0</geoidheight><src>gps</src><sat>14</sat><hdop>0.8</hdop><vdop>0.7</vdop><pdop>1.1</pdop></trkpt>
<trkpt lat="42.51220495" lon="69.98183383"><ele>595.0</ele><time>2018-10-03T07:17:51.000Z</time><course>45.9</course><speed>4.7817674</speed><geoidheight>-36.0</geoidheight><src>gps</src><sat>10</sat><hdop>0.8</hdop><vdop>0.8</vdop><pdop>1.2</pdop></trkpt>
<trkpt lat="42.51430164" lon="69.98448473"><ele>608.0</ele><time>2018-10-03T07:18:51.000Z</time><course>43.2</course><speed>5.777794</speed><geoidheight>-36.0</geoidheight><src>gps</src><sat>10</sat><hdop>0.8</hdop><vdop>0.8</vdop><pdop>1.2</pdop></trkpt>
<trkpt lat="42.51613802" lon="69.98739357"><ele>621.0</ele><time>2018-10-03T07:19:52.000Z</time><course>51.0</course><speed>4.947858</speed><geoidheight>-36.0</geoidheight><src>gps</src><sat>10</sat><hdop>0.8</hdop><vdop>0.8</vdop><pdop>1.1</pdop></trkpt>
<trkpt lat="42.5178043" lon="69.9910791"><ele>626.0</ele><time>2018-10-03T07:20:53.000Z</time><course>61.5</course><speed>7.916445</speed><geoidheight>-36.0</geoidheight><src>gps</src><sat>10</sat><hdop>0.8</hdop><vdop>0.8</vdop><pdop>1.1</pdop></trkpt>
<trkpt lat="42.51926791" lon="69.99524446"><ele>638.0</ele><time>2018-10-03T07:21:54.000Z</time><course>60.6</course><speed>4.850835</speed><geoidheight>-36.0</geoidheight><src>gps</src><sat>11</sat><hdop>0.8</hdop><vdop>0.7</vdop><pdop>1.1</pdop></trkpt>
<trkpt lat="42.5206013" lon="69.99913524"><ele>647.0</ele><time>2018-10-03T07:22:55.000Z</time><course>64.3</course><speed>8.518932</speed><geoidheight>-36.0</geoidheight><src>gps</src><sat>10</sat><hdop>0.8</hdop><vdop>0.7</vdop><pdop>1.1</pdop></trkpt>
<trkpt lat="42.52173252" lon="70.00235147"><ele>660.0</ele><time>2018-10-03T07:23:56.000Z</time><course>69.9</course><speed>1.7913681</speed><geoidheight>-36.0</geoidheight><src>gps</src><sat>10</sat><hdop>0.8</hdop><vdop>0.7</vdop><pdop>1.1</pdop></trkpt>
<trkpt lat="42.52235434" lon="70.00418421"><ele>650.0</ele><time>2018-10-03T07:24:57.000Z</time><course>58.5</course><speed>2.7933135</speed><geoidheight>-36.0</geoidheight><src>gps</src><sat>11</sat><hdop>0.8</hdop><vdop>0.7</vdop><pdop>1.1</pdop></trkpt>
<trkpt lat="42.52274299" lon="70.00541832"><ele>643.0</ele><time>2018-10-03T07:25:58.000Z</time><speed>0.0</speed><geoidheight>-36.0</geoidheight><src>gps</src><sat>11</sat><hdop>0.8</hdop><vdop>0.7</vdop><pdop>1.1</pdop></trkpt>
<trkpt lat="42.52275955" lon="70.00544941"><ele>640.0</ele><time>2018-10-03T07:26:59.000Z</time><speed>0.0</speed><geoidheight>-36.0</geoidheight><src>gps</src><sat>10</sat><hdop>0.8</hdop><vdop>0.7</vdop><pdop>1.1</pdop></trkpt>
<trkpt lat="42.52201301" lon="70.00322801"><ele>649.0</ele><time>2018-10-03T07:28:00.000Z</time><course>245.4</course><speed>5.780554</speed><geoidheight>-36.0</geoidheight><src>gps</src><sat>11</sat><hdop>0.8</hdop><vdop>0.7</vdop><pdop>1.0</pdop></trkpt>
<trkpt lat="42.5218861" lon="70.00286011"><ele>652.0</ele><time>2018-10-03T07:29:01.000Z</time><speed>0.0</speed><geoidheight>-36.0</geoidheight><src>gps</src><sat>14</sat><hdop>0.8</hdop><vdop>0.7</vdop><pdop>1.1</pdop></trkpt>
<trkpt lat="42.52227665" lon="70.00408003"><ele>648.0</ele><time>2018-10-03T07:30:02.000Z</time><course>64.0</course><speed>10.691515</speed><geoidheight>-36.0</geoidheight><src>gps</src><sat>14</sat><hdop>0.7</hdop><vdop>0.7</vdop><pdop>1.0</pdop></trkpt>
<trkpt lat="42.52574233" lon="70.01393304"><ele>612.0</ele><time>2018-10-03T07:31:03.000Z</time><course>63.5</course><speed>14.830975</speed><geoidheight>-36.0</geoidheight><src>gps</src><sat>9</sat><hdop>0.9</hdop><vdop>0.8</vdop><pdop>1.2</pdop></trkpt>
<trkpt lat="42.53305272" lon="70.02207713"><ele>571.0</ele><time>2018-10-03T07:32:04.000Z</time><course>27.1</course><speed>16.870028</speed><geoidheight>-37.0</geoidheight><src>gps</src><sat>14</sat><hdop>0.9</hdop><vdop>0.8</vdop><pdop>1.2</pdop></trkpt>
<trkpt lat="42.53990196" lon="70.02745154"><ele>597.0</ele><time>2018-10-03T07:33:04.000Z</time><course>35.2</course><speed>12.490144</speed><geoidheight>-37.0</geoidheight><src>gps</src><sat>14</sat><hdop>1.0</hdop><vdop>0.9</vdop><pdop>1.3</pdop></trkpt>
<trkpt lat="42.54118413" lon="70.03812877"><ele>587.0</ele><time>2018-10-03T07:34:05.000Z</time><course>90.9</course><speed>15.661995</speed><geoidheight>-37.0</geoidheight><src>gps</src><sat>15</sat><hdop>0.8</hdop><vdop>0.7</vdop><pdop>1.1</pdop></trkpt>
<trkpt lat="42.54183443" lon="70.04975878"><ele>565.0</ele><time>2018-10-03T07:35:06.000Z</time><course>77.1</course><speed>15.480546</speed><geoidheight>-37.0</geoidheight><src>gps</src><sat>14</sat><hdop>0.8</hdop><vdop>0.7</vdop><pdop>1.1</pdop></trkpt>
<trkpt lat="42.54379071" lon="70.06096522"><ele>577.0</ele><time>2018-10-03T07:36:07.000Z</time><course>76.4</course><speed>15.890004</speed><geoidheight>-37.0</geoidheight><src>gps</src><sat>13</sat><hdop>0.8</hdop><vdop>0.8</vdop><pdop>1.1</pdop></trkpt>
<trkpt lat="42.54581015" lon="70.07350855"><ele>572.0</ele><time>2018-10-03T07:37:08.000Z</time><course>79.6</course><speed>17.440012</speed><geoidheight>-37.0</geoidheight><src>gps</src><sat>13</sat><hdop>0.9</hdop><vdop>0.8</vdop><pdop>1.2</pdop></trkpt>
<trkpt lat="42.54796104" lon="70.08675336"><ele>577.0</ele><time>2018-10-03T07:38:09.000Z</time><course>78.0</course><speed>18.240099</speed><geoidheight>-37.0</geoidheight><src>gps</src><sat>15</sat><hdop>1.0</hdop><vdop>0.8</vdop><pdop>1.3</pdop></trkpt>
<trkpt lat="42.55003958" lon="70.09952385"><ele>580.0</ele><time>2018-10-03T07:39:10.000Z</time><course>77.3</course><speed>17.110188</speed><geoidheight>-37.0</geoidheight><src>gps</src><sat>15</sat><hdop>0.8</hdop><vdop>0.8</vdop><pdop>1.1</pdop></trkpt>
<trkpt lat="42.55213963" lon="70.11270505"><ele>578.0</ele><time>2018-10-03T07:40:11.000Z</time><course>77.1</course><speed>19.060009</speed><geoidheight>-37.0</geoidheight><src>gps</src><sat>14</sat><hdop>1.2</hdop><vdop>0.8</vdop><pdop>1.4</pdop></trkpt>
<trkpt lat="42.55384729" lon="70.12322099"><ele>592.0</ele><time>2018-10-03T07:41:12.000Z</time><course>76.7</course><speed>11.190161</speed><geoidheight>-37.0</geoidheight><src>gps</src><sat>15</sat><hdop>1.1</hdop><vdop>0.8</vdop><pdop>1.3</pdop></trkpt>
<trkpt lat="42.55554045" lon="70.13454853"><ele>572.0</ele><time>2018-10-03T07:42:13.000Z</time><course>87.1</course><speed>16.771578</speed><geoidheight>-37.0</geoidheight><src>gps</src><sat>17</sat><hdop>0.8</hdop><vdop>0.7</vdop><pdop>1.1</pdop></trkpt>
<trkpt lat="42.55386716" lon="70.14753172"><ele>554.0</ele><time>2018-10-03T07:43:14.000Z</time><course>106.5</course><speed>16.02</speed><geoidheight>-37.0</geoidheight><src>gps</src><sat>16</sat><hdop>0.8</hdop><vdop>0.7</vdop><pdop>1.1</pdop></trkpt>
<trkpt lat="42.55373955" lon="70.14871102"><ele>554.0</ele><time>2018-10-03T07:44:15.000Z</time><course>288.2</course><speed>12.36146</speed><geoidheight>-37.0</geoidheight><src>gps</src><sat>8</sat><hdop>0.8</hdop><vdop>0.8</vdop><pdop>1.1</pdop></trkpt>
<trkpt lat="42.55531111" lon="70.15144932"><ele>558.0</ele><time>2018-10-03T07:45:16.000Z</time><course>74.0</course><speed>12.34</speed><geoidheight>-37.0</geoidheight><src>gps</src><sat>17</sat><hdop>0.8</hdop><vdop>0.7</vdop><pdop>1.1</pdop></trkpt>
<trkpt lat="42.55556532" lon="70.15900071"><ele>559.0</ele><time>2018-10-03T07:46:17.000Z</time><course>90.7</course><speed>14.210173</speed><geoidheight>-37.0</geoidheight><src>gps</src><sat>17</sat><hdop>0.8</hdop><vdop>0.7</vdop><pdop>1.0</pdop></trkpt>
<trkpt lat="42.55528242" lon="70.16741197"><ele>569.0</ele><time>2018-10-03T07:47:18.000Z</time><course>93.2</course><speed>9.990045</speed><geoidheight>-37.0</geoidheight><src>gps</src><sat>16</sat><hdop>0.7</hdop><vdop>0.7</vdop><pdop>1.0</pdop></trkpt>
<trkpt lat="42.55569552" lon="70.17725151"><ele>575.0</ele><time>2018-10-03T07:48:19.000Z</time><course>78.4</course><speed>15.290118</speed><geoidheight>-37.0</geoidheight><src>gps</src><sat>16</sat><hdop>0.7</hdop><vdop>0.7</vdop><pdop>1.0</pdop></trkpt>
<trkpt lat="42.55673231" lon="70.18829366"><ele>589.0</ele><time>2018-10-03T07:49:20.000Z</time><course>90.5</course><speed>13.750363</speed><geoidheight>-37.0</geoidheight><src>gps</src><sat>16</sat><hdop>0.7</hdop><vdop>0.7</vdop><pdop>1.0</pdop></trkpt>
<trkpt lat="42.55647963" lon="70.20000987"><ele>598.0</ele><time>2018-10-03T07:50:21.000Z</time><course>93.8</course><speed>16.310196</speed><geoidheight>-37.0</geoidheight><src>gps</src><sat>16</sat><hdop>0.8</hdop><vdop>0.7</vdop><pdop>1.1</pdop></trkpt>
<trkpt lat="42.55473741" lon="70.21151554"><ele>596.0</ele><time>2018-10-03T07:51:21.000Z</time><course>106.8</course><speed>15.490158</speed><geoidheight>-37.0</geoidheight><src>gps</src><sat>16</sat><hdop>0.7</hdop><vdop>0.7</vdop><pdop>1.0</pdop></trkpt>
<trkpt lat="42.55326373" lon="70.22367754"><ele>608.0</ele><time>2018-10-03T07:52:22.000Z</time><course>103.5</course><speed>18.610012</speed><geoidheight>-37.0</geoidheight><src>gps</src><sat>16</sat><hdop>0.8</hdop><vdop>0.7</vdop><pdop>1.1</pdop></trkpt>
<trkpt lat="42.55490115" lon="70.23532284"><ele>619.0</ele><time>2018-10-03T07:53:23.000Z</time><course>83.2</course><speed>16.640148</speed><geoidheight>-37.0</geoidheight><src>gps</src><sat>16</sat><hdop>0.8</hdop><vdop>0.7</vdop><pdop>1.1</pdop></trkpt>
<trkpt lat="42.55592233" lon="70.24614792"><ele>622.0</ele><time>2018-10-03T07:54:24.000Z</time><course>81.3</course><speed>10.0200205</speed><geoidheight>-37.0</geoidheight><src>gps</src><sat>16</sat><hdop>0.8</hdop><vdop>0.7</vdop><pdop>1.1</pdop></trkpt>
<trkpt lat="42.55710081" lon="70.25236749"><ele>629.0</ele><time>2018-10-03T07:55:25.000Z</time><course>76.9</course><speed>10.190043</speed><geoidheight>-37.0</geoidheight><src>gps</src><sat>16</sat><hdop>0.8</hdop><vdop>0.8</vdop><pdop>1.1</pdop></trkpt>
<trkpt lat="42.55605852" lon="70.26267149"><ele>631.0</ele><time>2018-10-03T07:56:26.000Z</time><course>99.2</course><speed>15.170475</speed><geoidheight>-37.0</geoidheight><src>gps</src><sat>16</sat><hdop>0.8</hdop><vdop>0.7</vdop><pdop>1.1</pdop></trkpt>
<trkpt lat="42.55439395" lon="70.27336089"><ele>638.0</ele><time>2018-10-03T07:57:27.000Z</time><course>99.1</course><speed>10.660567</speed><geoidheight>-37.0</geoidheight><src>gps</src><sat>16</sat><hdop>0.7</hdop><vdop>0.8</vdop><pdop>1.0</pdop></trkpt>
<trkpt lat="42.55313287" lon="70.28162463"><ele>647.0</ele><time>2018-10-03T07:58:28.000Z</time><course>103.3</course><speed>12.360004</speed><geoidheight>-37.0</geoidheight><src>gps</src><sat>16</sat><hdop>0.7</hdop><vdop>0.7</vdop><pdop>1.0</pdop></trkpt>
<trkpt lat="42.55151825" lon="70.29114865"><ele>656.0</ele><time>2018-10-03T07:59:29.000Z</time><course>103.6</course><speed>14.760031</speed><geoidheight>-37.0</geoidheight><src>gps</src><sat>15</sat><hdop>0.7</hdop><vdop>0.7</vdop><pdop>1.0</pdop></trkpt>
<trkpt lat="42.54963535" lon="70.30129983"><ele>666.0</ele><time>2018-10-03T08:00:30.000Z</time><course>112.5</course><speed>12.480144</speed><geoidheight>-37.0</geoidheight><src>gps</src><sat>14</sat><hdop>0.7</hdop><vdop>0.7</vdop><pdop>1.0</pdop></trkpt>
<trkpt lat="42.54902416" lon="70.30576236"><ele>671.0</ele><time>2018-10-03T08:01:31.000Z</time><speed>0.0</speed><geoidheight>-37.0</geoidheight><src>gps</src><sat>16</sat><hdop>0.8</hdop><vdop>0.7</vdop><pdop>1.0</pdop></trkpt>
<trkpt lat="42.54901753" lon="70.30578827"><ele>670.0</ele><time>2018-10-03T08:02:32.000Z</time><speed>0.0</speed><geoidheight>-37.0</geoidheight><src>gps</src><sat>16</sat><hdop>0.7</hdop><vdop>0.7</vdop><pdop>1.0</pdop></trkpt>
<trkpt lat="42.54900235" lon="70.30582643"><ele>669.0</ele><time>2018-10-03T08:03:33.000Z</time><course>196.7</course><speed>0.45221677</speed><geoidheight>-37.0</geoidheight><src>gps</src><sat>16</sat><hdop>0.7</hdop><vdop>0.7</vdop><pdop>1.0</pdop></trkpt>
<trkpt lat="42.54904865" lon="70.30716397"><ele>677.0</ele><time>2018-10-03T08:04:34.000Z</time><course>92.3</course><speed>3.4125211</speed><geoidheight>-37.0</geoidheight><src>gps</src><sat>12</sat><hdop>0.7</hdop><vdop>0.6</vdop><pdop>0.9</pdop></trkpt>
<trkpt lat="42.54893464" lon="70.30988033"><ele>676.0</ele><time>2018-10-03T08:05:35.000Z</time><course>92.2</course><speed>3.1612813</speed><geoidheight>-37.0</geoidheight><src>gps</src><sat>17</sat><hdop>0.8</hdop><vdop>0.7</vdop><pdop>1.0</pdop></trkpt>
<trkpt lat="42.54877334" lon="70.31258784"><ele>673.0</ele><time>2018-10-03T08:06:36.000Z</time><course>93.6</course><speed>3.4000149</speed><geoidheight>-37.0</geoidheight><src>gps</src><sat>17</sat><hdop>0.7</hdop><vdop>0.6</vdop><pdop>0.9</pdop></trkpt>
<trkpt lat="42.54867482" lon="70.31519107"><ele>676.0</ele><time>2018-10-03T08:07:37.000Z</time><course>91.6</course><speed>3.59</speed><geoidheight>-37.0</geoidheight><src>gps</src><sat>17</sat><hdop>0.7</hdop><vdop>0.6</vdop><pdop>0.9</pdop></trkpt>
<trkpt lat="42.54861522" lon="70.31775024"><ele>684.0</ele><time>2018-10-03T08:08:38.000Z</time><course>90.7</course><speed>3.8701162</speed><geoidheight>-37.0</geoidheight><src>gps</src><sat>14</sat><hdop>0.7</hdop><vdop>0.7</vdop><pdop>1.0</pdop></trkpt>
<trkpt lat="42.54856863" lon="70.32062724"><ele>687.0</ele><time>2018-10-03T08:09:39.000Z</time><course>100.4</course><speed>3.561699</speed><geoidheight>-37.0</geoidheight><src>gps</src><sat>13</sat><hdop>0.7</hdop><vdop>0.7</vdop><pdop>1.0</pdop></trkpt>
<trkpt lat="42.54777765" lon="70.32299238"><ele>686.0</ele><time>2018-10-03T08:10:40.000Z</time><course>114.5</course><speed>3.2400155</speed><geoidheight>-37.0</geoidheight><src>gps</src><sat>18</sat><hdop>0.7</hdop><vdop>0.7</vdop><pdop>1.0</pdop></trkpt>
<trkpt lat="42.54680549" lon="70.3252601"><ele>691.0</ele><time>2018-10-03T08:11:41.000Z</time><course>121.5</course><speed>3.1264036</speed><geoidheight>-37.0</geoidheight><src>gps</src><sat>12</sat><hdop>0.7</hdop><vdop>0.7</vdop><pdop>1.0</pdop></trkpt>
<trkpt lat="42.54591918" lon="70.32751886"><ele>690.0</ele><time>2018-10-03T08:12:42.000Z</time><course>121.2</course><speed>3.4812784</speed><geoidheight>-37.0</geoidheight><src>gps</src><sat>11</sat><hdop>0.7</hdop><vdop>0.7</vdop><pdop>1.0</pdop></trkpt>
<trkpt lat="42.54496421" lon="70.32986585"><ele>689.0</ele><time>2018-10-03T08:13:43.000Z</time><course>111.8</course><speed>3.9151118</speed><geoidheight>-37.0</geoidheight><src>gps</src><sat>12</sat><hdop>0.7</hdop><vdop>0.7</vdop><pdop>1.0</pdop></trkpt>
<trkpt lat="42.54392974" lon="70.33218426"><ele>697.0</ele><time>2018-10-03T08:14:44.000Z</time><course>122.9</course><speed>3.040559</speed><geoidheight>-37.0</geoidheight><src>gps</src><sat>17</sat><hdop>0.7</hdop><vdop>0.7</vdop><pdop>1.0</pdop></trkpt>
<trkpt lat="42.54296573" lon="70.33443075"><ele>699.0</ele><time>2018-10-03T08:15:45.000Z</time><course>104.2</course><speed>2.9813585</speed><geoidheight>-37.0</geoidheight><src>gps</src><sat>13</sat><hdop>0.7</hdop><vdop>0.7</vdop><pdop>1.0</pdop></trkpt>
<trkpt lat="42.5419471" lon="70.33652374"><ele>706.0</ele><time>2018-10-03T08:16:45.000Z</time><course>117.8</course><speed>3.280061</speed><geoidheight>-37.0</geoidheight><src>gps</src><sat>17</sat><hdop>0.7</hdop><vdop>0.7</vdop><pdop>0.9</pdop></trkpt>
<trkpt lat="42.54249375" lon="70.33793696"><ele>708.0</ele><time>2018-10-03T08:17:46.000Z</time><course>34.6</course><speed>2.8293107</speed><geoidheight>-37.0</geoidheight><src>gps</src><sat>12</sat><hdop>0.7</hdop><vdop>0.7</vdop><pdop>0.9</pdop></trkpt>
<trkpt lat="42.54371441" lon="70.33925926"><ele>711.0</ele><time>2018-10-03T08:18:47.000Z</time><course>38.3</course><speed>3.8390105</speed><geoidheight>-37.0</geoidheight><src>gps</src><sat>13</sat><hdop>0.7</hdop><vdop>0.7</vdop><pdop>0.9</pdop></trkpt>
<trkpt lat="42.54426819" lon="70.34057835"><ele>718.0</ele><time>2018-10-03T08:19:48.000Z</time><course>114.5</course><speed>2.937516</speed><geoidheight>-37.0</geoidheight><src>gps</src><sat>12</sat><hdop>0.7</hdop><vdop>0.7</vdop><pdop>0.9</pdop></trkpt>
<trkpt lat="42.54388212" lon="70.34221317"><ele>725.0</ele><time>2018-10-03T08:20:49.000Z</time><course>30.2</course><speed>3.2800152</speed><geoidheight>-37.0</geoidheight><src>gps</src><sat>11</sat><hdop>0.7</hdop><vdop>0.7</vdop><pdop>0.9</pdop></trkpt>
<trkpt lat="42.54482517" lon="70.34315133"><ele>729.0</ele><time>2018-10-03T08:21:50.000Z</time><speed>0.0</speed><geoidheight>-37.0</geoidheight><src>gps</src><sat>7</sat><hdop>1.1</hdop><vdop>0.9</vdop><pdop>1.4</pdop></trkpt>
<trkpt lat="42.54472259" lon="70.34292906"><ele>728.0</ele><time>2018-10-03T08:22:50.000Z</time><course>206.2</course><speed>3.3015149</speed><geoidheight>-37.0</geoidheight><src>gps</src><sat>7</sat><hdop>0.9</hdop><vdop>0.7</vdop><pdop>1.2</pdop></trkpt>
<trkpt lat="42.54418101" lon="70.34070782"><ele>727.0</ele><time>2018-10-03T08:23:51.000Z</time><course>304.4</course><speed>5.760139</speed><geoidheight>-37.0</geoidheight><src>gps</src><sat>15</sat><hdop>0.7</hdop><vdop>0.7</vdop><pdop>1.0</pdop></trkpt>
<trkpt lat="42.54531549" lon="70.34103618"><ele>727.0</ele><time>2018-10-03T08:24:52.000Z</time><course>38.2</course><speed>2.2818632</speed><geoidheight>-37.0</geoidheight><src>gps</src><sat>11</sat><hdop>0.6</hdop><vdop>0.6</vdop><pdop>0.9</pdop></trkpt>
<trkpt lat="42.5462122" lon="70.34207814"><ele>728.0</ele><time>2018-10-03T08:25:53.000Z</time><course>33.9</course><speed>2.2380795</speed><geoidheight>-37.0</geoidheight><src>gps</src><sat>12</sat><hdop>0.6</hdop><vdop>0.6</vdop><pdop>0.9</pdop></trkpt>
<trkpt lat="42.5468262" lon="70.34248136"><ele>733.0</ele><time>2018-10-03T08:26:54.000Z</time><speed>0.0</speed><geoidheight>-37.0</geoidheight><src>gps</src><sat>12</sat><hdop>0.7</hdop><vdop>0.7</vdop><pdop>1.0</pdop></trkpt>
<trkpt lat="42.54673447" lon="70.34250387"><ele>734.0</ele><time>2018-10-03T08:27:55.000Z</time><course>210.8</course><speed>0.15297058</speed><geoidheight>-37.0</geoidheight><src>gps</src><sat>16</sat><hdop>0.6</hdop><vdop>0.6</vdop><pdop>0.9</pdop></trkpt>
<trkpt lat="42.54464835" lon="70.34019449"><ele>726.0</ele><time>2018-10-03T08:28:56.000Z</time><course>219.4</course><speed>9.690005</speed><geoidheight>-37.0</geoidheight><src>gps</src><sat>9</sat><hdop>0.7</hdop><vdop>0.7</vdop><pdop>0.9</pdop></trkpt>
<trkpt lat="42.5415391" lon="70.33720639"><ele>714.0</ele><time>2018-10-03T08:29:57.000Z</time><course>126.8</course><speed>3.140971</speed><geoidheight>-37.0</geoidheight><src>gps</src><sat>11</sat><hdop>0.6</hdop><vdop>0.6</vdop><pdop>0.9</pdop></trkpt>
<trkpt lat="42.54053078" lon="70.33921387"><ele>716.0</ele><time>2018-10-03T08:30:58.000Z</time><course>125.3</course><speed>3.0</speed><geoidheight>-37.0</geoidheight><src>gps</src><sat>16</sat><hdop>0.6</hdop><vdop>0.6</vdop><pdop>0.9</pdop></trkpt>
<trkpt lat="42.5394775" lon="70.34122552"><ele>720.0</ele><time>2018-10-03T08:31:59.000Z</time><course>128.1</course><speed>3.6101246</speed><geoidheight>-37.0</geoidheight><src>gps</src><sat>15</sat><hdop>0.6</hdop><vdop>0.6</vdop><pdop>0.8</pdop></trkpt>
<trkpt lat="42.53837976" lon="70.3434511"><ele>725.0</ele><time>2018-10-03T08:33:00.000Z</time><course>118.0</course><speed>3.4352584</speed><geoidheight>-37.0</geoidheight><src>gps</src><sat>9</sat><hdop>0.6</hdop><vdop>0.6</vdop><pdop>0.9</pdop></trkpt>
<trkpt lat="42.53738621" lon="70.34586702"><ele>724.0</ele><time>2018-10-03T08:34:01.000Z</time><course>118.7</course><speed>3.4224699</speed><geoidheight>-37.0</geoidheight><src>gps</src><sat>11</sat><hdop>0.6</hdop><vdop>0.6</vdop><pdop>0.9</pdop></trkpt>
<trkpt lat="42.53659437" lon="70.34778001"><ele>722.0</ele><time>2018-10-03T08:35:02.000Z</time><speed>0.0</speed><geoidheight>-37.0</geoidheight><src>gps</src><sat>10</sat><hdop>0.9</hdop><vdop>0.7</vdop><pdop>1.1</pdop></trkpt>
<trkpt lat="42.53656423" lon="70.34778207"><ele>724.0</ele><time>2018-10-03T08:36:03.000Z</time><speed>0.0</speed><geoidheight>-37.0</geoidheight><src>gps</src><sat>13</sat><hdop>0.7</hdop><vdop>0.7</vdop><pdop>1.0</pdop></trkpt>
<trkpt lat="42.53654144" lon="70.34777633"><ele>724.0</ele><time>2018-10-03T08:37:04.000Z</time><speed>0.0</speed><geoidheight>-37.0</geoidheight><src>gps</src><sat>7</sat><hdop>0.8</hdop><vdop>0.7</vdop><pdop>1.1</pdop></trkpt>
<trkpt lat="42.53659809" lon="70.34780146"><ele>730.0</ele><time>2018-10-03T08:38:05.000Z</time><speed>0.0</speed><geoidheight>-37.0</geoidheight><src>gps</src><sat>6</sat><hdop>0.8</hdop><vdop>0.7</vdop><pdop>1.1</pdop></trkpt>
<trkpt lat="42.53659507" lon="70.34784615"><ele>726.0</ele><time>2018-10-03T08:39:05.000Z</time><speed>0.0</speed><geoidheight>-37.0</geoidheight><src>gps</src><sat>5</sat><hdop>0.7</hdop><vdop>0.6</vdop><pdop>1.0</pdop></trkpt>
<trkpt lat="42.53653601" lon="70.34778473"><ele>725.0</ele><time>2018-10-03T08:40:06.000Z</time><speed>0.0</speed><geoidheight>-37.0</geoidheight><src>gps</src><sat>7</sat><hdop>0.8</hdop><vdop>0.7</vdop><pdop>1.0</pdop></trkpt>
<trkpt lat="42.53651294" lon="70.34778696"><ele>728.0</ele><time>2018-10-03T08:41:06.000Z</time><speed>0.0</speed><geoidheight>-37.0</geoidheight><src>gps</src><sat>6</sat><hdop>0.7</hdop><vdop>0.7</vdop><pdop>1.0</pdop></trkpt>
<trkpt lat="42.53652127" lon="70.3477999"><ele>726.0</ele><time>2018-10-03T08:42:07.000Z</time><speed>0.0</speed><geoidheight>-37.0</geoidheight><src>gps</src><sat>5</sat><hdop>1.0</hdop><vdop>0.8</vdop><pdop>1.3</pdop></trkpt>
<trkpt lat="42.53655509" lon="70.34776078"><ele>724.0</ele><time>2018-10-03T08:43:07.000Z</time><speed>0.0</speed><geoidheight>-37.0</geoidheight><src>gps</src><sat>5</sat><hdop>0.8</hdop><vdop>0.7</vdop><pdop>1.1</pdop></trkpt>
<trkpt lat="42.53650958" lon="70.34779704"><ele>720.0</ele><time>2018-10-03T08:44:08.000Z</time><speed>0.0</speed><geoidheight>-37.0</geoidheight><src>gps</src><sat>8</sat><hdop>0.7</hdop><vdop>0.7</vdop><pdop>1.0</pdop></trkpt>
<trkpt lat="42.53577864" lon="70.34962196"><ele>727.0</ele><time>2018-10-03T08:45:09.000Z</time><course>120.7</course><speed>3.6515338</speed><geoidheight>-37.0</geoidheight><src>gps</src><sat>7</sat><hdop>0.7</hdop><vdop>0.7</vdop><pdop>1.0</pdop></trkpt>
<trkpt lat="42.53491875" lon="70.35163489"><ele>736.0</ele><time>2018-10-03T08:46:10.000Z</time><course>131.9</course><speed>0.580517</speed><geoidheight>-37.0</geoidheight><src>gps</src><sat>9</sat><hdop>0.7</hdop><vdop>0.7</vdop><pdop>1.0</pdop></trkpt>
<trkpt lat="42.53454384" lon="70.35263883"><ele>732.0</ele><time>2018-10-03T08:47:11.000Z</time><course>138.3</course><speed>1.214331</speed><geoidheight>-37.0</geoidheight><src>gps</src><sat>9</sat><hdop>0.7</hdop><vdop>0.7</vdop><pdop>1.0</pdop></trkpt>
<trkpt lat="42.53362464" lon="70.35481841"><ele>732.0</ele><time>2018-10-03T08:48:12.000Z</time><course>120.3</course><speed>3.1600633</speed><geoidheight>-37.0</geoidheight><src>gps</src><sat>8</sat><hdop>0.7</hdop><vdop>0.7</vdop><pdop>1.0</pdop></trkpt>
<trkpt lat="42.53344288" lon="70.35496258"><ele>731.0</ele><time>2018-10-03T08:49:13.000Z</time><course>165.8</course><speed>0.47095647</speed><geoidheight>-37.0</geoidheight><src>gps</src><sat>11</sat><hdop>0.7</hdop><vdop>0.7</vdop><pdop>1.0</pdop></trkpt>
<trkpt lat="42.53275496" lon="70.35677859"><ele>736.0</ele><time>2018-10-03T08:50:14.000Z</time><course>118.2</course><speed>2.70224</speed><geoidheight>-37.0</geoidheight><src>gps</src><sat>7</sat><hdop>0.8</hdop><vdop>0.8</vdop><pdop>1.1</pdop></trkpt>
<trkpt lat="42.53253864" lon="70.3573488"><ele>733.0</ele><time>2018-10-03T08:51:15.000Z</time><course>118.2</course><speed>3.238966</speed><geoidheight>-37.0</geoidheight><src>gps</src><sat>8</sat><hdop>0.7</hdop><vdop>0.7</vdop><pdop>1.0</pdop></trkpt>
<trkpt lat="42.53177414" lon="70.35906329"><ele>742.0</ele><time>2018-10-03T08:52:16.000Z</time><speed>0.0</speed><geoidheight>-37.0</geoidheight><src>gps</src><sat>11</sat><hdop>0.8</hdop><vdop>0.8</vdop><pdop>1.1</pdop></trkpt>
<trkpt lat="42.5317335" lon="70.35903498"><ele>741.0</ele><time>2018-10-03T08:53:16.000Z</time><speed>0.0</speed><geoidheight>-37.0</geoidheight><src>gps</src><sat>8</sat><hdop>0.7</hdop><vdop>0.7</vdop><pdop>1.0</pdop></trkpt>
<trkpt lat="42.53080519" lon="70.36128063"><ele>743.0</ele><time>2018-10-03T08:54:17.000Z</time><course>110.6</course><speed>4.0000124</speed><geoidheight>-37.0</geoidheight><src>gps</src><sat>8</sat><hdop>0.7</hdop><vdop>0.7</vdop><pdop>1.0</pdop></trkpt>
<trkpt lat="42.52978402" lon="70.36378491"><ele>747.0</ele><time>2018-10-03T08:55:18.000Z</time><course>119.2</course><speed>4.0004497</speed><geoidheight>-37.0</geoidheight><src>gps</src><sat>7</sat><hdop>0.7</hdop><vdop>0.7</vdop><pdop>1.0</pdop></trkpt>
<trkpt lat="42.52881462" lon="70.36646282"><ele>748.0</ele><time>2018-10-03T08:56:19.000Z</time><course>116.9</course><speed>3.7304423</speed><geoidheight>-37.0</geoidheight><src>gps</src><sat>9</sat><hdop>0.7</hdop><vdop>0.7</vdop><pdop>0.9</pdop></trkpt>
<trkpt lat="42.52820464" lon="70.36940026"><ele>748.0</ele><time>2018-10-03T08:57:20.000Z</time><course>91.4</course><speed>4.330935</speed><geoidheight>-37.0</geoidheight><src>gps</src><sat>7</sat><hdop>0.7</hdop><vdop>0.7</vdop><pdop>1.0</pdop></trkpt>
<trkpt lat="42.5256332" lon="70.36982208"><ele>745.0</ele><time>2018-10-03T08:58:21.000Z</time><course>168.0</course><speed>4.9425907</speed><geoidheight>-37.0</geoidheight><src>gps</src><sat>9</sat><hdop>0.7</hdop><vdop>0.7</vdop><pdop>1.0</pdop></trkpt>
<trkpt lat="42.52413602" lon="70.3693801"><ele>750.0</ele><time>2018-10-03T08:59:22.000Z</time><speed>0.0</speed><geoidheight>-37.0</geoidheight><src>gps</src><sat>7</sat><hdop>0.7</hdop><vdop>0.7</vdop><pdop>1.0</pdop></trkpt>
<trkpt lat="42.52393352" lon="70.36934171"><ele>753.0</ele><time>2018-10-03T09:00:23.000Z</time><speed>0.0</speed><geoidheight>-37.0</geoidheight><src>gps</src><sat>12</sat><hdop>0.7</hdop><vdop>0.7</vdop><pdop>1.0</pdop></trkpt>
<trkpt lat="42.52423535" lon="70.36997393"><ele>750.0</ele><time>2018-10-03T09:01:24.000Z</time><course>25.3</course><speed>2.7504544</speed><geoidheight>-37.0</geoidheight><src>gps</src><sat>8</sat><hdop>0.7</hdop><vdop>0.7</vdop><pdop>0.9</pdop></trkpt>
<trkpt lat="42.52744618" lon="70.36991226"><ele>743.0</ele><time>2018-10-03T09:02:24.000Z</time><course>356.0</course><speed>5.388358</speed><geoidheight>-37.0</geoidheight><src>gps</src><sat>9</sat><hdop>0.7</hdop><vdop>0.7</vdop><pdop>1.0</pdop></trkpt>
<trkpt lat="42.52869494" lon="70.3670467"><ele>749.0</ele><time>2018-10-03T09:03:25.000Z</time><course>289.2</course><speed>7.230339</speed><geoidheight>-37.0</geoidheight><src>gps</src><sat>9</sat><hdop>0.7</hdop><vdop>0.7</vdop><pdop>1.0</pdop></trkpt>
<trkpt lat="42.53043763" lon="70.36242528"><ele>748.0</ele><time>2018-10-03T09:04:26.000Z</time><course>294.8</course><speed>4.3925614</speed><geoidheight>-37.0</geoidheight><src>gps</src><sat>9</sat><hdop>0.7</hdop><vdop>0.7</vdop><pdop>1.0</pdop></trkpt>
<trkpt lat="42.53189434" lon="70.35893957"><ele>738.0</ele><time>2018-10-03T09:05:27.000Z</time><course>298.9</course><speed>5.510499</speed><geoidheight>-37.0</geoidheight><src>gps</src><sat>9</sat><hdop>0.7</hdop><vdop>0.7</vdop><pdop>1.0</pdop></trkpt>
<trkpt lat="42.53261989" lon="70.35603773"><ele>732.0</ele><time>2018-10-03T09:06:28.000Z</time><course>219.1</course><speed>1.8404348</speed><geoidheight>-37.0</geoidheight><src>gps</src><sat>12</sat><hdop>0.7</hdop><vdop>0.7</vdop><pdop>0.9</pdop></trkpt>
<trkpt lat="42.53264183" lon="70.35600657"><ele>733.0</ele><time>2018-10-03T09:07:29.000Z</time><speed>0.0</speed><geoidheight>-37.0</geoidheight><src>gps</src><sat>13</sat><hdop>0.9</hdop><vdop>0.9</vdop><pdop>1.3</pdop></trkpt>
<trkpt lat="42.53255228" lon="70.35592273"><ele>732.0</ele><time>2018-10-03T09:08:30.000Z</time><speed>0.0</speed><geoidheight>-37.0</geoidheight><src>gps</src><sat>12</sat><hdop>0.9</hdop><vdop>0.9</vdop><pdop>1.3</pdop></trkpt>
<trkpt lat="42.53263121" lon="70.35589789"><ele>729.0</ele><time>2018-10-03T09:09:31.000Z</time><speed>0.0</speed><geoidheight>-37.0</geoidheight><src>gps</src><sat>13</sat><hdop>0.7</hdop><vdop>0.7</vdop><pdop>1.0</pdop></trkpt>
<trkpt lat="42.53262823" lon="70.35594709"><ele>729.0</ele><time>2018-10-03T09:10:32.000Z</time><speed>0.0</speed><geoidheight>-37.0</geoidheight><src>gps</src><sat>13</sat><hdop>0.9</hdop><vdop>0.7</vdop><pdop>1.1</pdop></trkpt>
<trkpt lat="42.53263174" lon="70.35597586"><ele>731.0</ele><time>2018-10-03T09:11:33.000Z</time><course>43.3</course><speed>0.4110961</speed><geoidheight>-37.0</geoidheight><src>gps</src><sat>11</sat><hdop>0.7</hdop><vdop>0.7</vdop><pdop>1.0</pdop></trkpt>
<trkpt lat="42.53267183" lon="70.35596227"><ele>731.0</ele><time>2018-10-03T09:12:35.000Z</time><speed>0.0</speed><geoidheight>-37.0</geoidheight><src>gps</src><sat>8</sat><hdop>3.1</hdop><vdop>1.0</vdop><pdop>3.2</pdop></trkpt>
<trkpt lat="42.53257481" lon="70.35578587"><ele>738.0</ele><time>2018-10-03T09:13:36.000Z</time><speed>0.0</speed><geoidheight>-37.0</geoidheight><src>gps</src><sat>9</sat><hdop>0.9</hdop><vdop>0.9</vdop><pdop>1.3</pdop></trkpt>
</trkseg></trk></gpx>